правило
сообщество
YouTube
работать
YouTube
переходить
контент
наш
принцип
защита
опасный
контент
YouTube
защищать
зритель
недопустимый
материал
противостояние
ненависть
YouTube
защищать
пользователь
дискриминация
оскорбление
угроза
борьба
недостоверный
информация
YouTube
бороться
недостоверный
информация
противодействие
радикализм
YouTube
бороться
радикальный
контент
сотрудничество
исследователь
YouTube
сотрудничать
исследователь
предотвращение
предвзятость
делать
YouTube
допускать
предвзятость
алгоритм
безопасность
ребенок
делать
YouTube
защита
ребенок
защита
данный
пользователь
YouTube
обеспечивать
конфиденциальность
пользователь
защита
авторский
правый
YouTube
защищать
авторский
контент
распределение
доход
YouTube
источник
доход
благополучие
цифровой
мир
YouTube
помогать
зритель
формировать
полезный
цифровой
привычка
функция
поиск
YouTube
поиск
YouTube
помогать
находить
нужный
контент
рекомендовать
видео
рекомендовать
видео
который
интересно
посмотреть
монетизация
автор
автор
зарабатывать
YouTube
трансляция
общаться
аудитория
реальный
время
настройка
настройка
конфиденциальность
защищать
данные
пользователь
настройка
конфиденциальность
доступный
настройка
рекламный
предпочтение
работать
наш
реклама
управлять
настройка
родительский
контроль
убеждаться
YouTube
подходить
весь
семья
автовоспроизведение
автовоспроизведение
отключать
правило
обзор
правило
правило
YouTube
помогать
поддерживать
безопасность
платформа
правило
сообщество
правило
действовать
YouTube
авторский
право
помогать
автор
управлять
контент
правило
монетизация
автор
мочь
монетизировать
контент
рамка
партнерский
программа
YouTube
удаление
основание
требование
местный
законодательство
политика
YouTube
отношение
контент
нарушать
местный
законодательство
достижение
борьба
опасный
контент
обеспечивать
соблюдение
правило
отношение
опасный
контент
статистика
история
успех
автор
YouTube
менять
свой
жизнь
жизнь
целый
сообщество
культура
тренд
составлять
представление
современный
автор
исполнитель
правило
правило
сообщество
правило
сообщество
разработка
правило
поиск
нарушение
жалоба
контент
применение
правило
обзор
правило
сообщество
помогать
обеспечивать
безопасность
YouTube
правило
определять
публиковать
YouTube
распространяться
тип
контент
включая
видео
комментарий
ссылка
значок
правило
разделять
несколько
категория
спам
мошенничество
искусственный
повышение
показатель
выдача
лицо
внешний
ссылка
спам
обман
мошенничество
деликатный
контент
безопасность
ребенок
значок
видео
обнаженный
натура
контент
сексуальный
характер
самоубийство
причинение
вред
видео
сцена
насилие
опасный
контент
оскорбление
угроза
опасный
действие
причинение
вред
дискриминационный
высказывание
преступный
террористический
организация
сцена
насилие
неприятный
изображение
ложный
медицинский
информация
COVID
товар
ограниченный
оборот
огнестрельный
оружие
продажа
незаконный
товар
продукция
ограниченный
оборот
дополнительно
прочий
правило
разрабатываться
обновляться
правило
очень
тщательно
подходить
работа
правило
должный
охватывать
контент
автор
мир
должный
противоречить
друг
друг
кроме
стремиться
добиваться
максимальный
точность
ясность
формулировка
создавать
правило
помогать
независимый
эксперт
автор
прежде
новое
правило
вступать
сила
неоднократно
тестировать
дальнейший
проверка
видео
специалист
уверенно
применять
последовательный
свой
решение
также
следить
правило
оставаться
актуальный
важный
баланс
безопасность
свобода
самовыражение
YouTube
выявляться
нарушение
правило
сообщество
каждый
минута
YouTube
загружаться
сотня
час
контент
проверять
специалист
алгоритм
машинный
обучение
современный
технология
позволять
быстро
обрабатывать
большой
количество
видео
находить
среди
похожий
удаленный
увидеть
зритель
делать
пользователь
видеть
недопустимый
контент
стараться
удалять
ролик
который
нарушать
наш
правило
увидеть
зритель
пользователь
считать
видео
нарушать
правило
сообщество
рассказывать
это
ролик
проверять
принимать
мера
нарушение
подтверждаться
мера
приниматься
отношение
недопустимый
контент
спам
повторно
загружать
видео
копия
который
наш
специалист
проверять
счесть
недопустимый
удаляться
автоматически
находить
помогать
система
основа
машинный
обучение
ролик
который
пожаловаться
пользователь
проверяться
вручную
видео
действительно
нарушать
наш
правило
удалять
однако
важный
контекст
материал
образовательный
документальный
научный
художественный
характер
сделать
исключение
контент
отвечать
правило
подходить
аудитория
устанавливать
возрастной
ограничение
предупреждение
нарушение
правило
сообщество
обнаруживать
недопустимый
видео
удалять
принимать
мера
отношение
автор
первый
нарушение
правило
сообщество
получать
обычный
уведомление
повторный
нарушение
выносить
предупреждение
отключать
канал
некоторые
функция
например
первый
предупреждение
автор
неделя
запрещаться
загружать
новый
видео
сюжет
также
проводить
трансляция
день
автор
получать
предупреждение
блокировать
канал
случай
многократный
серьезный
нарушение
мочь
заблокировать
канал
дожидаться
третий
предупреждение
автор
согласный
предупреждение
обжаловать
проводить
повторный
проверка
ресурс
предупреждение
нарушение
правило
сообщество
обжаловать
предупреждение
нарушение
правило
сообщество
возрастной
ограничение
некоторые
видео
подходить
несовершеннолетний
зритель
это
нарушение
правило
наш
сообщество
это
случай
устанавливать
возрастной
ограничение
ролик
недоступный
пользователь
который
достигать
год
входить
аккаунт
включать
безопасный
режим
устанавливать
возрастной
ограничение
мочь
автор
считать
контент
нежелательно
смотреть
ребенок
ресурс
контент
ограничение
возраст
статья
тема
борьба
опасный
контент
подробно
защита
опасный
контент
подробно
удаление
основание
требование
местный
законодательство
подробно
социальный
сеть
YouTube
YouTube
блог
работать
YouTube
вакансия
пресса
YouTube
Culture
Trends
продукт
YouTube
Kids
YouTube
Music
YouTube
Originals
YouTube
Podcasts
YouTube
Premium
YouTube
Select
YouTube
Studio
YouTube
TV
бизнес
разработчик
реклама
YouTube
автор
создание
контент
YouTube
ребенок
программа
исследование
YouTube
каталог
сертифицированный
компания
YouTube
музыкант
YouTube
Creators
YouTube
NextUp
YouTube
VR
наш
обязательство
Creators
for
Change
CSAI
Match
YouTube
общество
YouTube
продукт
бизнес
автор
наш
обязательство
YouTube
блог
работать
YouTube
вакансия
пресса
YouTube
Culture
Trends
YouTube
Kids
YouTube
Music
YouTube
Originals
YouTube
Podcasts
YouTube
Premium
YouTube
Select
YouTube
Studio
YouTube
TV
разработчик
реклама
YouTube
создание
контент
YouTube
ребенок
программа
исследование
YouTube
каталог
сертифицированный
компания
YouTube
музыкант
YouTube
Creators
YouTube
NextUp
YouTube
VR
Creators
for
Change
CSAI
Match
YouTube
общество
правило
безопасность
авторский
право
использование
бренд
конфиденциальность
условие
использование
Cookies
management
controls
справка
English
Deutsch
English
Australia
Nederlands
български
българия
Brasil
English
Canada
Deutsch
Deutschland
dansk
Danmark
eesti
Eesti
suomi
Suomi
France
hrvatski
Hrvatska
magyar
Bahasa
Indonesia
Bahasa
Indonesia
English
Ireland
English
India
italiano
Italia
Lietuva
Deutsch
Luxemburg
Latvija
Nederlands
Nederland
polski
Polska
Portugal
русский
россия
svenska
Sverige
Slovenija
Slovensko
English
United
Kingdom
Nam
Deutsch
Belgien
English
Belgium
English
Malta
Estados
Unidos
Belgique
Canada
Luxembourg
Gaeilge
Malti
Kiswahili
