блог
издательский
сервис
литрес
издательский
сервисылитрес
самиздатлитрес
чтецуслугилегенда
литресэфирырасписаниепрошедший
YouTubeКонкурсыСтать
авторомозвучивать
книгуискать
блогеписывать
книга
писать
книга
история
успех
публиковать
книга
публиковать
книга
продвигать
книга
продвигать
книга
расписание
вебинар
расписание
вебинар
чтец
чтец
топ
продажа
топ
продажа
конкурс
премия
конкурсыя
премия
новый
статья
блог
литература
культура
писать
страныхотить
создавать
английский
детектив
сага
викинг
современный
любовный
роман
американский
звезда
знать
писать
культурный
особенность
статья
разбираться
изучать
культура
вообще
это
стоять
делать
таро
литмоб
ко
день
святой
валентинаавтор
литрес
самиздат
организовывать
литмоб
февраль
опубликовывать
история
связанный
мир
интервью
автор
поделиться
мысль
будущее
ромфант
рассказывать
идея
литмоб
интересный
деталь
давать
напутствие
начинать
писатель
писать
черновик
который
читать
важный
советовчерновик
это
произведение
который
автор
писать
прямо
публиковать
глава
литрес
самиздат
правильно
писать
черновик
удерживать
интерес
читатель
делиться
самый
рабочий
совет
статья
опубликовывать
бесплатный
черновик
литресдруг
спешить
напоминать
литрес
публиковать
бесплатный
глава
черновик
полезный
функция
воспользоваться
сделать
черновик
эффективно
рассказывать
статья
идея
ориджинал
придумывать
сюжет
нуляглавный
сложность
ориджинал
автор
приходиться
начинать
ноль
зацепляться
готовый
герой
сеттинг
нащупывать
идея
превращать
интересный
сюжет
собирать
подборка
идея
который
мочь
ложиться
основа
ваш
история
статья
полезный
автор
литрес
самиздат
полезный
привычка
автор
чтецовнаверняка
знать
нужно
высыпаться
заниматься
творчество
регулярно
решать
взглядывать
полезный
привычка
новый
угол
делиться
совет
который
помогать
автор
чтец
прокачивать
навык
писать
озвучивать
часто
интересный
читать
книжный
тренд
новый
искренность
sweet
romance
восточный
азия
эротический
история
дракон
это
главный
тренд
литература
год
читать
статья
курс
актуальный
жанр
писать
вдохновение
найтиесли
вдохновение
целый
глава
рождаться
особый
труд
вдохновение
писать
это
конец
свет
вдохновение
вернуть
хотя
справляться
это
сделать
поделиться
эффективный
упражнение
совет
статья
правильно
загадывать
желаниема
учить
сжигать
бумажка
желание
высыпать
пепел
бокал
шампанское
пить
пока
бить
куранты
зато
поделиться
несколько
эффективный
техника
который
помогать
превращать
желание
достижимый
цель
читать
секрет
продавать
аннотациив
книжный
маркетинг
аннотация
книга
последний
шаг
покупка
произведение
поэтому
аннотация
нужно
писать
правило
продавать
текст
это
сделать
читать
статья
причина
писать
столписать
стол
создавать
литературный
произведение
публиковать
кто-то
это
вынужденный
мера
привычка
плюс
минус
рассказывать
статья
бороться
страх
автор
литрес
самиздат
работа
творчество
успевать
автор
литрес
самиздат
писать
замечательный
книга
работать
заниматься
семья
путешествовать
распределять
время
хватить
статья
собирать
лайфхаки
творческий
человек
манга
почему
говорятманга
просто
японский
комикс
это
характерный
черта
читать
манга
становиться
мировой
хит
отвечать
вопрос
статья
хотеть
получать
новый
статья
интересный
статья
начинать
авторамавтор
опытомчтецамначинать
авторамавтор
опытомчтецамлитература
культура
писать
страна
хотеть
создавать
английский
детектив
сага
викинг
современный
любовный
роман
американский
звезда
знать
писать
культурный
особенность
статья
разбираться
изучать
культура
вообще
это
стоять
делать
таро
литмоб
ко
день
святой
валентина
ирина
коняев
татьяна
серганова
лира
алый
наталья
мамлеев
екатерина
верхово
диана
рахманова
любовь
черников
матильда
старра
мстислава
черный
поделиться
мысль
будущее
ромфант
рассказывать
идея
литмоб
давать
совет
начинать
автор
писать
черновик
который
читать
важный
совет
черновик
это
произведение
который
автор
писать
прямо
публиковать
глава
литрес
самиздат
правильно
писать
книга
глава
удерживать
интерес
читатель
делиться
важный
совет
опубликовывать
бесплатный
черновик
литрес
знать
литрес
публиковать
бесплатный
глава
черновик
полезный
функция
воспользоваться
сделать
черновик
эффективно
рассказывать
статья
автор
литрес
самиздат
идея
ориджинал
придумывать
сюжет
ноль
главный
сложность
ориджинал
автор
приходиться
начинать
ноль
зацепляться
готовый
герой
сеттинг
это
бывать
фанфик
фэндома
нащупывать
идея
превращать
интересный
сюжет
собирать
подборка
идея
который
мочь
ложиться
основа
ваш
история
полезный
привычка
автор
чтец
наверняка
знать
нужно
высыпаться
заниматься
творчество
регулярно
решать
взглядывать
полезный
привычка
новый
угол
делиться
совет
который
помогать
автор
литрес
самиздат
чтец
проект
литрес
чтец
прокачивать
навык
писать
озвучивать
часто
интересный
книжный
тренд
новый
искренность
sweet
romance
восточный
азия
эротический
история
дракон
это
главный
тренд
литература
год
читать
статья
автор
литрес
самиздат
курс
актуальный
жанр
правильно
загадывать
желание
учить
сжигать
бумажка
желание
высыпать
пепел
бокал
шампанское
пить
пока
бить
куранты
зато
поделиться
несколько
эффективный
техника
который
помогать
превращать
желание
достижимый
цель
писать
вдохновение
находить
вдохновение
целый
глава
рождаться
особый
труд
вдохновение
писать
это
конец
свет
вдохновение
вернуть
хотя
справляться
это
сделать
поделиться
эффективный
упражнение
совет
статья
написать
исторический
детектив
опыт
юлия
ефимова
топовый
автор
литрес
юлия
ефимова
рассказывать
исторический
линия
делать
современный
детектив
интересный
почему
важно
уделять
внимание
незначительный
факт
перебарщивать
процент
авторский
фантазия
давать
узнавать
секрет
продавать
аннотация
каков
роль
аннотация
книжный
маркетинг
написать
аннотация
художественный
книга
читатель
купить
ваш
произведение
читать
секрет
продавать
аннотация
наш
статья
причина
писать
стол
писать
стол
создавать
литературный
произведение
публиковать
кто-то
это
вынужденный
мера
привычка
плюс
минус
рассказывать
статья
бороться
страх
автор
литрес
самиздат
написать
ориджинал
шаг
каждый
начинающий
автор
бывать
ситуация
хотеться
придумывать
собственный
сюжет
начинать
непонятно
статья
рассказывать
написать
ориджинал
это
нужно
создавать
новогодний
настроение
книга
создавать
новогодний
атмосфера
книга
подымать
новогодний
настроение
вдохновлять
читатель
статья
делиться
полезный
интересный
рекомендация
начинающий
опытный
автор
автор
работать
чтец
совет
нужно
сделать
прежде
отдавать
текст
озвучка
автор
литрес
самиздат
взаимодействовать
чтец
получаться
отличный
результат
совет
поделиться
топовый
чтец
литрес
оля
федорищев
опубликовывать
ориджинал
литрес
знать
среди
автор
который
писать
писать
фанфик
отличный
новость
добавлять
литрес
рассказывать
опубликовывать
ориджинал
вообще
это
стоять
делать
фанфик
ориджинал
разница
отвечать
автор
джек
гельба
финалист
премия
эксмо
книга
гойд
узнавать
должный
учитывать
автор
написание
публикация
ориджинал
LitRPG
автор
литрес
самиздат
данияр
сугралин
андрей
ефремов
рассказывать
ЛитРПГ
это
начинать
проработка
игровой
вселенная
стоять
отказываться
узнавать
наш
статья
написать
эротический
роман
тори
майрон
автор
литрес
самиздат
рассказывать
особенность
эротический
жанр
почему
полезно
выгодно
писать
эротика
создавать
интригующий
сюжет
завоевывать
любовь
читатель
читать
статья
New
adult
новое
направление
литература
входить
понятие
new
adult
проверять
писать
это
стиль
знать
это
способ
написать
синопсис
книга
совет
подготовить
хороший
синопсис
заинтересовывать
человек
свой
книга
вредный
совет
автор
литрес
ваш
помощь
подготовить
список
ошибка
который
часто
совершать
начинающий
писатель
бета
работать
это
профессиональный
редактор
читатель
который
помогать
посмотреть
произведение
свежий
взгляд
разбираться
почему
это
полезно
написать
волшебный
новогодний
сказка
рассказывать
нужно
создание
волшебный
добрый
история
ретеллинг
писать
знакомый
сюжет
по-новому
разбираться
работать
сказочный
мифологический
сюжет
адаптировать
собственный
текст
автор
говорить
искать
свой
уникальный
голос
вырабатывать
собственный
стиль
вообще
нужный
писатель
арка
персонаж
работать
универсальный
инструмент
создание
сюжетный
динамика
должный
фантаст
разбираться
наука
оказываться
научный
фантастика
твердый
мягкий
давать
разбираться
это
значит
восемь
способ
оживлять
герой
заставлять
аудитория
проникаться
симпатия
ненависть
персонаж
совет
эмма
райца
написать
финальный
сцена
роман
заканчивать
произведение
читатель
откладывать
книга
сказать
вау
писать
сюжетный
твист
это
нужный
текст
разбираться
умение
удивлять
читатель
детектор
штамп
литрес
разбираться
избегать
литературный
клише
вырабатывать
свой
авторский
стиль
начинать
писать
год
интерес
писательство
возникать
любой
возраст
любовь
творчество
возраст
покорный
развеивать
стереотип
успех
приходить
юный
дерзкий
художественный
текст
нужный
конфликт
литературный
конфликт
обязательный
препятствие
путь
герой
цель
помогать
раскрывать
персонаж
развивать
сюжет
создавать
литературный
герой
рассказывать
писательский
техника
который
позволять
сделать
картонный
персонаж
живой
создавать
фэнтези
эпоха
средневековье
разбираться
вместе
писатель
белл
говорить
рыцарь
дракон
король
писать
первый
лицо
краткий
чек
хотеть
создавать
популярный
роман
становиться
востребовать
автор
настоящий
фантастика
учиться
создавать
новый
мир
рассказывать
литературный
термин
ворлдбилдинг
придумывать
художественный
реальность
искать
идея
книга
тема
произведение
придумывать
просто
переключать
канал
телевизор
это
реальный
пример
учиться
известный
автор
находить
идея
ваш
роман
жанр
писать
книга
ребенок
подросток
краткий
справочник
самый
популярный
литературный
направление
история
характерный
черта
детский
книга
сюжет
рассматривать
складываться
хороший
история
удерживать
интерес
читатель
антагонист
протагонист
разбираться
литературный
термин
рассказывать
особенность
взаимодействие
персонаж
сеттинг
книга
это
объяснять
создавать
художественный
реальность
складываться
писать
детский
книга
совет
пример
помогать
написать
увлекательный
текст
который
прочитывать
ребенок
подросток
взрослый
писать
космос
художественный
литература
вестерн
фэнтези
опера
текст
посвящать
космос
рассказывать
наш
обзор
мода
антиутопия
секрет
популярность
жанр
ес
интересный
автор
читатель
разбираться
антиутопия
откуда
взяться
написать
бывать
детектив
преступление
должно
случаться
преступление
должно
раскрываться
это
основа
любой
детектив
видимый
невооруженный
взгляд
давать
взять
лупа
рассматривать
нюанс
автофикшн
нона
разница
разбираться
отличие
нюанс
жанр
редактура
vs
корректура
разница
редактура
корректура
научный
фантастика
история
особенность
жанр
отличие
НФ
литература
знать
начинающий
автор
написать
книга
жанр
научный
фантастика
глоссарий
автор
простой
язык
объяснять
непонятный
слово
который
представлять
творчество
современный
автор
музыка
написать
творить
мелодия
помогать
музыка
писать
книга
композиция
творить
автор
спрашивать
современный
писатель
автофикшн
писать
издаваться
рассказывать
история
появление
автофикшн
писатель
это
жанр
автофикшн
также
делиться
совет
писать
автофикшн
публиковать
произведение
город
главный
герой
разбираться
оживлять
городской
пространство
сделать
часть
повествование
городской
фэнтези
разбираться
отличаться
городской
фэнтези
обычный
написать
синопсис
нужный
синопсис
состоять
написать
синопсис
книга
также
наиболее
частый
ошибка
написание
пример
статья
бывать
фэнтези
разбираться
разный
вид
фэнтези
давать
совет
написать
произведение
бывать
книга
путешествие
рассказывать
разнообразие
книга
путешествие
делиться
совет
писать
тема
разновидность
сказка
рассказывать
жанр
история
приводить
пример
произведение
нона
писать
литература
делиться
множество
направление
разбираться
объединять
емкий
словом
non
хороший
книга
начинающий
писатель
топ
книга
который
способный
помогать
писатель
опытный
очень
реализация
замысел
освоение
писательский
мастерство
написать
роман
книга
начинающий
писатель
придумывать
идея
книга
книга
развитие
креативность
автор
самиздат
рассказывать
почему
писать
книга
история
писательство
рассказывать
автор
литрес
самиздат
рамка
конкурс
группа
вконтакте
начинать
книга
руководство
автор
рассказывать
слово
начинать
произведение
зацеплять
читатель
композиция
литература
композиция
использовать
литература
разбираться
основной
композиционный
прием
придумывать
название
книга
способ
совет
придумывать
запоминаться
оригинальный
название
книга
который
соответствовать
жанр
привлекать
читатель
жанр
литература
таблица
список
определение
литературный
жанр
жанр
произведение
бывать
собирать
таблица
написать
рассказ
пособие
начинающий
автор
обсуждать
этап
написание
рассказ
поиск
идея
редактирование
текст
описание
персонаж
внешность
характер
герой
обсуждать
правило
способ
прием
описание
персонаж
книга
написать
хороший
детектив
инструкция
идея
собирать
правило
создание
хороший
детективный
произведение
идея
сюжет
пошаговый
план
написание
проработка
персонаж
написать
роман
быстро
эффективно
метод
снежинка
разбирать
метод
снежинка
рэнди
ингермансон
использовать
написание
книга
начинать
книга
подсматривать
писатель
справляться
писательский
болезнь
боязнь
чистый
лист
делать
знать
начинать
поиск
вдохновение
лайфхаки
писатель
несколько
лайфхаков
который
помогать
вернуть
творческий
порыв
начинать
продолжать
писать
произведение
автор
литрес
самиздат
писатель
история
успех
автор
николай
ободников
автор
должный
мечтатель
немножко
сумасшедший
победитель
конкурс
слово
очевидец
рассказывать
непростой
творческий
путь
свой
миссия
поделиться
секрет
создание
атмосферный
детектив
ужас
история
успех
автор
мэри
влад
автор
мэри
влад
рассказывать
начало
путь
шаг
успех
свой
книга
история
успех
автор
наталья
мамлеев
автор
наталья
мамлеев
рассказывать
начало
путь
шаг
успех
свой
книга
история
успех
автор
таня
танк
автор
таня
танк
рассказывать
начало
путь
шаг
успех
свой
книга
история
успех
автор
алан
чароит
автор
алан
чароит
рассказывать
начало
путь
шаг
успех
свой
книга
история
успех
автор
анна
орехов
автор
анна
орехов
рассказывать
начало
путь
шаг
успех
свой
книга
история
успех
автор
матильда
старра
автор
матильда
старра
рассказывать
начало
путь
шаг
успех
свой
книга
история
успех
автор
натали
смит
автор
натали
смит
рассказывать
начало
путь
шаг
успех
свой
книга
история
успех
автор
елена
бурмистров
автор
елена
бурмистров
рассказывать
начало
путь
шаг
успех
свой
книга
история
успех
автор
андрей
асковд
автор
андрей
асковд
рассказывать
начало
путь
шаг
успех
свой
книга
история
успех
автор
катя
степанцев
автор
катя
степанцев
рассказывать
начало
путь
шаг
успех
свой
книга
история
успех
автор
ясмин
сапфир
автор
ясмин
сапфир
рассказывать
начало
путь
шаг
успех
свой
книга
история
успех
автор
екатерина
бордон
автор
екатерина
бордон
рассказывать
начало
путь
шаг
успех
свой
книга
история
успех
автор
антон
мамон
автор
антон
мамон
рассказывать
начало
путь
шаг
успех
свой
книга
история
успех
автор
роман
прокофьев
автор
роман
прокофьев
рассказывать
начало
путь
шаг
успех
свой
книга
интервью
победительница
конкурс
почему
писать
книга
алиса
квин
отвечать
вопрос
появление
герой
тираж
книга
многое
друг
издаваться
подкаста
литрес
путь
независимый
автор
подкаста
издаваться
литрес
самиздат
начинаюшай
нона
писательница
работать
свой
книга
встречаться
разный
эксперт
литературный
конкурс
участие
конкурс
иметь
множество
плюс
особенно
начинающий
автор
это
способ
бесплатный
продвижение
рассказывать
участвовать
литературный
конкурс
подавать
заявка
способ
самопродвижение
начинающий
автор
глеб
кащей
автор
амбассадор
издательский
сервис
литрес
эксперт
вопрос
развитие
лояльность
клиент
повторный
продажа
рассказывать
главный
цель
воронка
продажа
польза
email
рекламный
отзыв
обложка
блерб
рассказывать
новый
термин
книжный
индустрия
повышать
активность
авторский
блог
соцсеть
собирать
идея
который
помогать
расшевеливать
подписчик
создавать
онлайн
собственный
книга
привлекать
новый
читатель
рассказывать
новый
бесплатный
способ
продвигать
собственный
творчество
весть
писательский
группа
вконтакте
автор
литрес
делиться
опыт
оформление
развитие
собственный
сообщество
буктрейлер
писатель
нужно
видео
автор
литрес
рассказывать
свой
опыт
работа
буктрейлер
повод
давать
читатель
скидка
личный
кабинет
автор
чтец
литрес
возможность
устанавливать
скидка
пользоваться
это
инструмент
реферальный
программа
литрес
рассказывать
автор
чтец
получать
дополнительный
доход
продвигать
соцсеть
писать
пост
свой
творчество
секрет
успешный
рекламный
текст
рэнди
ингермансон
разбираться
кликбейт
писать
цеплять
заголовок
обманывать
аудитория
привлекать
интерес
публикация
побеждать
литературный
конкурс
литрес
лауреат
конкурс
любовь
строка
рассказывать
готовиться
участие
давать
победа
сто
продажа
электронный
книга
первый
неделя
топ
способ
продвижение
который
советовать
профессиональный
пиарщик
маркетолог
раскручивать
телегр
привлекать
новый
подписчик
бесплатно
паника
весть
телегр
читать
рассказывать
название
привлекать
подписчик
составлять
контент
привлекать
читатель
авторский
страница
литрес
анна
орехов
находить
свой
аудитория
литрес
самиздат
история
дорога
свобода
рассказывать
пример
классик
литература
самиздат
протестный
явление
способ
борьба
власть
превращаться
возможность
каждый
писатель
находить
свой
аудитория
помогать
продавать
книга
амбассадор
литрес
влад
ольховский
популярный
автор
мэри
влад
рассказывать
взгляд
нужно
книга
покупать
делать
книжный
иллюстрация
нейросеть
Digital
литрес
проводить
эксперимент
нейросеть
получаться
графоман
основной
признак
навсегда
разбираться
значит
термин
конец
статья
тест
писатель
графоман
издательство
самиздат
выбирать
разбираться
публиковать
книга
сколько
зарабатывать
автор
оформлять
профиль
автор
литрес
несколько
простой
правило
который
помогать
привлекать
ваш
творчество
читатель
инструкция
становиться
автор
литрес
простой
шаг
опубликовывать
свой
первый
книга
крупный
россия
литературный
площадка
платить
налог
инструкция
автор
чтец
литрес
разбираться
процент
взиматься
должный
вносить
нарратив
начинать
самый
главное
нарративный
текст
отличаться
писать
работать
главный
страница
литрес
рассказывать
устраивать
главный
страница
онлайн
почему
автор
важно
правильно
заполнять
карточка
книга
оформлять
текст
книга
Word
рассказывать
правильно
отформатировать
текст
книга
приятно
читать
также
избегать
ошибка
загрузка
файл
литрес
самиздат
издавать
книга
инструкция
начинающий
писатель
рассказывать
этап
работа
книга
ноль
тег
нужный
электронный
книга
нужный
тег
электронный
книга
выбирать
бесконечный
список
помогать
продвижение
ваш
книга
четыре
сервис
грамотный
текст
писатель
проверять
свой
текст
орфографический
пунктуационный
ошибка
бесплатный
текстовый
редактор
создавать
текст
формат
DOCX
установленный
Microsoft
Word
находить
иллюстрация
свой
книга
находить
картинка
обложка
свой
книга
нарушать
авторский
право
почему
PDF
почему
формат
PDF
рекомендоваться
публикация
электронный
книга
электронный
книга
отличаться
печатный
особенность
формат
создавать
собственный
электронный
книга
работа
творчество
успевать
автор
литрес
самиздат
писать
замечательный
книга
работать
заниматься
семья
путешествовать
успевать
статья
собирать
лайфхаки
правило
тайм
творческий
человек
запятая
подлежащее
сказуемое
редактор
корректор
часто
сталкиваться
неправильный
расстановка
запятая
предложение
самый
частый
ошибка
это
запятая
подлежащее
сказуемое
рассказывать
помогать
ресурс
пользоваться
нужный
отдых
метод
расслабление
творческий
человек
правильно
отдыхать
восполнять
творческий
ресурс
улетать
вдохновение
прерывать
работа
вообще
человек
отдыхать
вопрос
отвечать
врач
ю
громов
манга
почему
говорить
манга
это
просто
японский
комикс
манга
характерный
черта
читать
манга
становиться
мировой
хит
отвечать
вопрос
статья
калькулятор
расчет
авторский
лист
рассчитать
количество
авторский
лист
книга
литература
культура
писать
страна
хотеть
создавать
английский
детектив
сага
викинг
современный
любовный
роман
американский
звезда
знать
писать
культурный
особенность
статья
разбираться
изучать
культура
вообще
это
стоять
делать
опубликовывать
бесплатный
черновик
литрес
знать
литрес
публиковать
бесплатный
глава
черновик
полезный
функция
воспользоваться
сделать
черновик
эффективно
рассказывать
статья
автор
литрес
самиздат
книжный
тренд
новый
искренность
sweet
romance
восточный
азия
эротический
история
дракон
это
главный
тренд
литература
год
читать
статья
автор
литрес
самиздат
курс
актуальный
жанр
правильно
загадывать
желание
учить
сжигать
бумажка
желание
высыпать
пепел
бокал
шампанское
пить
пока
бить
куранты
зато
поделиться
несколько
эффективный
техника
который
помогать
превращать
желание
достижимый
цель
писать
вдохновение
находить
вдохновение
целый
глава
рождаться
особый
труд
вдохновение
писать
это
конец
свет
вдохновение
вернуть
хотя
справляться
это
сделать
поделиться
эффективный
упражнение
совет
статья
секрет
продавать
аннотация
каков
роль
аннотация
книжный
маркетинг
написать
аннотация
художественный
книга
читатель
купить
ваш
произведение
читать
секрет
продавать
аннотация
наш
статья
книга
самиздат
достойный
экранизация
лонг
конкурс
хай
организованный
литрес
самиздат
пк
среда
автор
работать
чтец
совет
нужно
сделать
прежде
отдавать
текст
озвучка
автор
литрес
самиздат
взаимодействовать
чтец
получаться
отличный
результат
совет
поделиться
топовый
чтец
литрес
оля
федорищев
опубликовывать
ориджинал
литрес
знать
среди
автор
который
писать
писать
фанфик
отличный
новость
добавлять
литрес
рассказывать
опубликовывать
ориджинал
вообще
это
стоять
делать
фокализация
фокальный
персонаж
поговорить
чей
глаз
читатель
видеть
событие
который
разворачиваться
книга
плутовской
роман
придумывать
герой
трикстер
написать
роман
который
главный
герой
обаятельный
мошенник
рассказывать
статья
образ
антигерой
литература
создавать
запоминаться
убедительный
образ
атрибуция
диалог
атрибуция
пользоваться
учиться
грамотно
оформлять
прямой
речь
герой
магия
книга
писать
джоан
роулинг
делать
автор
который
хотеть
добавлять
повествование
немного
волшебство
литературный
тропа
стилистический
фигура
главный
задача
достижение
выразительность
образность
художественный
текст
разбирать
пример
написать
книга
любовь
рассказ
любовный
роман
рассказывать
писать
романтический
отношение
автор
нужно
обращать
особый
внимание
литературный
архетип
создавать
литературный
персонаж
сложный
противоречивый
характер
написать
хоррор
давать
рецепт
страшно
интересный
роман
рассказ
космический
текст
писать
вселенная
давать
совет
отправлять
герой
читатель
луна
обратно
женский
проза
феномен
история
развитие
разбираться
это
изучать
пример
смотреть
развиваться
это
неоднозначный
направление
литература
Young
adult
немного
романтик
разбираться
почему
YA
популярный
романтический
линия
книга
искать
добавлять
свой
история
писатель
справляться
выгорание
делиться
проверенный
способ
классик
атмосфера
произведение
атмосфера
литературный
произведение
хороший
сеттинг
передавать
атмосфера
описание
место
город
главный
герой
разбираться
оживлять
городской
пространство
сделать
часть
повествование
думать
открытый
финал
книга
предлагать
художественный
прием
написание
книга
разбираться
правило
строиться
повествование
открытый
финал
писать
регулярно
радмила
хаков
ведущая
писательский
курс
автор
книга
свидание
колумнистка
журнал
Marie
Claire
рассказывать
простой
техника
который
помогать
автор
писать
регулярно
грамотный
самиздат
писаться
числительный
рассказывать
правописание
числительный
русский
язык
частый
ошибка
русский
язык
экспрессо
ихний
чу
изучать
ошибка
который
часто
встречаться
текст
современный
автор
рассказывать
избегать
описание
персонаж
внешность
характер
герой
обсуждать
правило
способ
прием
описание
персонаж
книга
бесить
редактор
нужно
проверять
рукопись
прежде
предлагать
роман
издательство
право
фантазия
интеллектуальный
воровство
нужно
знать
фанфик
разбираться
писать
фанфик
становиться
вор
нарушитель
авторский
правый
поиск
вдохновение
лайфхаки
писатель
несколько
лайфхаков
который
помогать
вернуть
творческий
порыв
начинать
продолжать
писать
произведение
автор
литрес
самиздат
писатель
совет
писатель
русский
классик
читать
научаться
писать
совет
лев
толстой
максим
горький
виктор
шкловский
составлять
план
нона
эксперт
публикация
бизнес
ирина
гусинская
рассказывать
составлять
план
книга
раскладывать
стопочка
Young
Adult
новый
черный
писательница
ведущий
подкаста
ковный
дура
рассуждать
популярность
литература
молодой
взрослый
рассказывать
написать
хороший
книга
это
жанр
словарь
экранизация
вместе
Best
Case
Agency
подготовить
словарик
термин
кинопродюсер
изучать
подавать
заявка
онлайн
подкаста
издаваться
литрес
самиздат
начинаюшай
нона
писательница
работать
свой
книга
встречаться
разный
эксперт
отбирать
книга
премия
электронный
буква
запись
расшифровка
вебинар
эксперт
литературный
премия
область
электронный
аудиокнига
электронный
буква
литературный
конкурс
участие
конкурс
иметь
множество
плюс
особенно
начинающий
автор
это
способ
бесплатный
продвижение
рассказывать
участвовать
литературный
конкурс
подавать
заявка
сделать
мерч
книга
совет
автор
литрес
учиться
создавать
мерч
книга
свечка
стикер
Telegram
реклама
vs
продвижение
соцсеть
выбирать
популярный
digital
литрес
делиться
стратегия
продвижение
продавать
опубликовывать
самиздат
книга
автор
литрес
делиться
опыт
бесплатный
платный
продвижение
книга
рынок
digital
популярный
жанр
ожидание
аудитория
рассказывать
читать
человек
именно
ждать
digital
автор
нужный
блог
LiveLib
разбираться
LiveLib
влиять
узнаваемость
писатель
делиться
секрет
работа
площадка
участвовать
литературный
конкурс
начинающий
писатель
заявлять
использовать
бесплатный
возможность
продвижение
получать
продвинутый
статус
эмма
райца
увеличивать
продажа
находить
свой
аудитория
литрес
создавать
весть
свой
телегр
рассказывать
скачать
Telegram
зарегистрировать
канал
подключать
реакция
комментарий
готовиться
первый
публикация
автор
сотрудничать
культурный
организация
разбираться
договариваться
библиотека
книжный
площадка
это
писатель
важный
продвижение
книга
бренд
писатель
вспоминать
паблик
ММКЯ
спикер
евгения
кретова
алекс
передерий
мир
янин
автор
работать
блогер
рассказывать
блогер
автор
сотрудничать
находить
нужный
правильно
договариваться
реклама
буктрейлер
показывать
пример
наверняка
видеть
трейлер
фильм
буктрейлер
самый
литературный
произведение
разбираться
помогать
продвижение
книга
программа
сделать
совет
писатель
продвижение
соцсеть
разбираться
привлекать
новый
читатель
помощь
контент
зарабатывать
писательство
книга
который
помогать
это
обзор
книга
который
помогать
это
непростой
дело
определять
цена
книга
разбираться
складываться
цена
ваш
книга
сделать
слишком
низкий
неоправданно
высокий
получать
дополнительный
заработок
книжный
магазин
знать
мочь
зарабатывать
продавать
собственный
книга
рассказывать
именно
это
сделать
благодаря
крупный
онлайн
продавать
свой
книга
рано
поздно
начинающий
писатель
задаваться
вопрос
продавать
свой
книга
разбираться
начинать
инструмент
использовать
зарабатывать
писатель
рассматривать
способ
получать
деньги
создавать
текст
изучать
полезный
книга
составлять
подборка
совет
который
помогать
зарабатывать
писательство
автор
создавать
продавать
сайт
пошаговый
инструкция
создание
страница
потенциальный
покупатель
книга
должный
приходить
услышать
рекомендация
ваш
книга
увидеть
реклама
издание
сайт
рекламный
баннер
узнавать
гугл
полезный
социальный
сеть
LiveLib
писатель
способ
привлекать
аудитория
крупный
россия
читательский
социальный
сеть
вещь
который
помогать
писатель
продавать
книга
вложение
перевод
статья
роба
дирк
Entrepreneur
продвигать
электронный
книга
находить
свой
читатель
бюджетный
способ
находить
читатель
интернет
электронный
книга
книга
попадать
читатель
объяснять
алгоритм
который
книга
самиздат
попадать
каталог
литрес
отдавать
право
электронный
аудиокнига
амбассадор
литрес
евгения
кретова
рассказывать
оставлять
право
издание
электронный
аудиокнига
главное
почему
это
выгодно
работать
дизайнер
обложка
книга
рассказывать
составлять
технический
задание
дизайнер
совет
автор
специалист
литрес
корректура
отличие
корректура
редактура
корректура
текст
это
устранение
пунктуационный
типографический
орфографический
ошибка
опечатка
перевод
латинский
язык
слово
corrector
означать
исправитель
литературный
портрет
вид
функция
портрет
литература
это
целостный
характеристика
каждый
отдельно
взять
персонаж
помощь
портрет
герой
литература
писатель
показывать
личный
отношение
персонаж
писатель
тираж
свой
книга
несколько
идея
литрес
сделать
тираж
печатный
книга
цена
читатель
купить
книга
разбираться
ценообразование
статистика
психология
рассказывать
простой
слово
почему
дешевый
книга
вызывать
недоверие
читатель
нецензурный
выражение
книга
разбираться
случай
необходимо
указывать
ваш
книга
нецензурный
брань
написать
аннотация
книга
литрес
самиздат
составлять
схема
проработка
аннотация
художественный
нонфикшн
книга
это
схема
помогать
начинать
автор
написать
хороший
аннотация
призма
время
книжный
обложка
путь
проходить
книжный
обложка
самый
древний
время
наш
день
материал
помогать
придумывать
свой
обложка
история
цикличный
возрастной
рейтинг
книжный
продукция
россия
рассказывать
нужно
ставить
возрастной
метка
книга
это
работать
литрес
самиздат
находить
подходящий
иллюстратор
художник
обложка
сколько
это
стоять
The
content
is
king
контент
король
согласный
это
утверждение
визуальный
сторона
книга
это
одновременно
продавать
сильный
психологический
вовлекать
рычаг
сегодня
кликабельный
век
потребитель
любить
картинка
нуждаться
иллюстратор
классный
яркий
талантливый
находить
иллюстратор
издание
задача
непростой
выполнимый
главное
говорить
язык
создавать
электронный
книга
свой
рука
инструкция
создание
электронный
книга
компьютер
создавать
обложка
книга
сервис
создание
обложка
рассказывать
создавать
необычный
книжный
обложка
полчаса
работа
творчество
успевать
автор
литрес
самиздат
писать
замечательный
книга
работать
заниматься
семья
путешествовать
успевать
статья
собирать
лайфхаки
правило
тайм
творческий
человек
запятая
подлежащее
сказуемое
редактор
корректор
часто
сталкиваться
неправильный
расстановка
запятая
предложение
самый
частый
ошибка
это
запятая
подлежащее
сказуемое
рассказывать
помогать
ресурс
пользоваться
нужный
отдых
метод
расслабление
творческий
человек
правильно
отдыхать
восполнять
творческий
ресурс
улетать
вдохновение
прерывать
работа
вообще
человек
отдыхать
вопрос
отвечать
врач
ю
громов
полезный
привычка
автор
чтец
наверняка
знать
нужно
высыпаться
заниматься
творчество
регулярно
решать
взглядывать
полезный
привычка
новый
угол
делиться
совет
который
помогать
автор
литрес
самиздат
чтец
проект
литрес
чтец
прокачивать
навык
писать
озвучивать
часто
интересный
плагин
де
рассказывать
плагин
уменьшение
устранение
реверберация
аудиозапись
давать
наглядный
инструкция
использование
инструкция
пользоваться
плагин
обработка
звук
разбираться
VST
плагин
нужный
вредный
совет
чтец
литрес
ваш
помощь
подготовить
список
ошибка
который
часто
совершать
начинающий
чтец
постобработка
сигнал
Audacity
подробный
инструкция
рассказывать
улучшать
аудиозапись
этап
постобработка
выбирать
микрофон
чтец
литрес
рассказывать
микрофон
подходить
озвучка
аудиокнига
компрессия
правильно
применять
разбираться
технический
тонкость
учиться
работать
звуковой
редактор
выплата
роялти
проект
литрес
чтец
объяснять
пример
выводить
деньги
карта
кейс
становиться
чтец
аудиокнига
участник
проект
литрес
чтец
рассказывать
начинать
озвучивать
аудиокнига
работать
это
хороший
звуковой
карта
выбирать
настраивать
рассказывать
звуковой
карта
подходить
чтец
работа
инструкция
использовать
эквалайзер
Audacity
рассказывать
нужный
инструмент
работать
звуковой
редактор
правильно
ставить
ударение
инструкция
хотеть
говорить
грамотно
разбираться
трудность
русский
язык
бонус
тест
знание
ударение
инструкция
становиться
чтец
литрес
рассказывать
вливаться
большой
литературный
проект
зарабатывать
роялти
артикуляционный
упражнение
составлять
небольшой
разминка
подготавливаться
комфортный
запись
аудио
отрегулировать
баланс
громкость
наушники
инструкция
работа
Audacity
рассказывать
вариант
простой
эффективный
лайфхаки
наталья
беляева
подводить
итог
серия
вебинар
топовый
чтец
делиться
совет
запись
монтаж
аудиокнига
выбирать
программа
рассказывать
выбирать
подходящий
аудиоредактор
работа
озвучка
книга
быстро
осваивать
литрес
чтец
договор
объяснять
простой
язык
нужный
договор
проект
литрес
чтец
состоять
история
успех
чтец
наталья
беляев
диктор
проект
литрес
чтец
рассказывать
первый
озвучивать
книга
делиться
совет
озвучка
книга
домашний
условие
доказывать
качественный
звук
получать
большой
затрата
узнавать
тысяча
голос
рассказывать
самый
популярный
востребовать
чтец
приходить
создание
аудиокнига
дикция
единый
навык
нужный
уметь
сделать
книга
по-настоящему
живой
физиология
голос
изучать
технический
составлять
речевой
аппарат
подсказывать
лайфхаки
чистить
шум
Adobe
Audition
пошаговый
инструкция
избавляться
шум
запись
Adobe
Audition
выравнивать
громкость
звук
запись
помощь
Adobe
Audition
делиться
пошаговый
инструкция
работать
программа
улучшать
звук
запись
делиться
нюанс
совет
который
помогать
сделать
аудиокнига
история
успех
чтец
моран
история
девушка
который
становиться
диктор
проект
литрес
чтец
благодаря
упорство
любовь
чтение
история
успех
чтец
наталья
сидоренков
новый
рассказ
раздел
история
наш
чтец
интересный
дело
придавать
сила
самый
сложный
темный
период
жизнь
терять
оптимизм
смотреть
работа
голос
разбираться
поработать
собственный
голос
сделать
интересный
привлекательный
чтение
аудиокнига
сделать
первый
аудиозапись
книга
рассказывать
умение
навык
важно
обладать
стоять
научаться
начинать
записывать
аудиокнига
авторский
право
чтец
рассказывать
простой
язык
каждый
вид
авторский
право
пять
шаг
путь
хороший
дикция
человек
поставлять
голос
приятно
слушать
записывать
аудиокнига
наличие
хороший
дикция
просто
необходимо
история
успех
чтец
наталья
волков
озвучивать
фэнтези
любовно
уклон
независимый
чтец
история
успех
чтец
сергей
удел
любительский
озвучка
легальный
рынок
аудиокнига
история
успех
чтец
сергей
бельчик
радиодиджей
становиться
профессиональный
чтец
книга
быстро
восстанавливать
голос
совет
чтец
реальный
совет
действовать
диктор
беречь
свой
голос
восстанавливать
случай
перенапряжение
болезнь
неприятность
выбирать
наушник
делиться
критерий
который
нужно
выбирать
наушник
работа
голос
пример
хороший
вариант
особенность
работа
дуэт
рассказывать
отличаться
озвучка
книга
радиоспектакль
диктор
работать
пара
расстояние
нюанс
озвучка
книга
разный
голос
музыка
аудиокнига
разбираться
нужно
аудиокнига
музыкальный
оформление
оно
должно
вызывать
претензия
слушатель
автор
композиция
ключ
успешный
прохождение
тестовый
задание
собирать
часто
допускать
ошибка
первый
запись
решать
помогать
новичок
разбираться
быстро
проблема
проходить
тестовый
задание
избавляться
шум
аудиокнига
инструкция
работа
Audacity
рассказывать
обработка
звуковой
дорожка
запись
аудиокнига
программа
Audacity
озвучка
аудиокнига
часть
рассказывать
работать
дыхание
артикуляция
интонация
тембр
диапазон
ваш
голос
озвучка
аудиокнига
часть
рассказывать
сделать
озвучка
книга
подготавливаться
сессия
запись
оборудование
купить
история
успех
чтец
кристина
сосков
участница
проект
рассказывать
любимый
дикторский
прием
организация
рабочий
процесс
возвращение
мечта
история
успех
чтец
ева
ларина
чтец
ева
ларина
рассказывать
начало
путь
шаг
успех
свой
книга
история
успех
чтец
тина
ковалева
чтец
тина
ковалева
рассказывать
начало
путь
шаг
успех
свой
книга
история
успех
чтец
анастасия
шаркова
чтец
анастасия
шаркова
рассказывать
начало
путь
шаг
успех
свой
книга
история
успех
чтец
григорий
андрианов
топовый
чтец
григорий
андрианов
рассказывать
начало
путь
шаг
успех
свой
книга
история
успех
чтец
катя
роман
топовый
чтец
катя
роман
рассказывать
начало
путь
шаг
успех
свой
книга
история
успех
чтец
андрей
кучер
топовый
чтец
андрей
кучер
рассказывать
начало
путь
шаг
успех
свой
книга
история
успех
чтец
наталья
фролова
топовый
чтец
наталья
фролова
рассказывать
начало
путь
шаг
успех
свой
книга
история
успех
чтец
михаил
архипов
топовый
чтец
михаил
архипов
рассказывать
начало
путь
шаг
успех
свой
книга
история
успех
чтец
михаил
золкин
топовый
чтец
михаил
золкин
рассказывать
начало
путь
шаг
успех
свой
книга
история
успех
чтец
елена
легошин
чтец
елена
легошин
рассказывать
начало
путь
шаг
успех
свой
книга
история
успех
чтец
светлана
шаклеин
чтец
светлана
шаклеин
рассказывать
начало
путь
шаг
успех
свой
книга
история
успех
чтец
оля
федорищев
чтец
оля
федорищев
рассказывать
начало
путь
шаг
успех
свой
книга
история
успех
чтец
саша
степанов
чтец
саша
степанов
рассказывать
начало
путь
шаг
успех
свой
книга
история
успех
чтец
валерия
егоров
чтец
валерия
егоров
рассказывать
начало
путь
шаг
успех
свой
книга
история
успех
чтец
валерия
савельева
чтец
валерия
савельева
рассказывать
начало
путь
шаг
успех
свой
книга
история
успех
чтец
лина
ветлицкая
чтец
лина
ветлицкая
рассказывать
начало
путь
шаг
успех
свой
книга
история
успех
чтец
олег
троицкий
чтец
олег
троицкий
рассказывать
начало
путь
шаг
успех
свой
книга
история
успех
чтец
григорий
метелица
чтец
григорий
метелица
рассказывать
начало
путь
шаг
успех
свой
книга
история
успех
чтец
наталья
аверин
чтец
наталья
аверин
рассказывать
начало
путь
шаг
успех
свой
книга
история
успех
чтец
константин
загацкий
чтец
константин
загацкий
рассказывать
начало
путь
шаг
успех
свой
книга
история
успех
чтец
илья
дементьев
чтец
илья
дементьев
рассказывать
начало
путь
шаг
успех
свой
книга
история
успех
чтец
михаил
обухов
чтец
михаил
обухов
рассказывать
начало
путь
шаг
успех
свой
книга
история
успех
чтец
карина
ким
чтец
карина
ким
рассказывать
начало
путь
шаг
успех
свой
книга
история
успех
чтец
анна
басс
чтец
анна
басс
рассказывать
начало
путь
шаг
успех
свой
книга
нужный
отдых
метод
расслабление
творческий
человек
правильно
отдыхать
восполнять
творческий
ресурс
улетать
вдохновение
прерывать
работа
вообще
человек
отдыхать
вопрос
отвечать
врач
ю
громов
статья
подписываться
новый
статья
блог
развивать
писательский
мастерство
навык
чтец
вместе
EmailВаше
имяхотить
получать
письмавыбирать
тип
рассылкидля
авторовдля
чтецовя
читатель
подписываться
нажимать
кнопка
давать
согласие
обработка
персональный
данный
соглашаться
c
политика
конфиденциальность
спасибо
подписываться
наш
рассылка
пожалуйста
проверять
свой
почитать
подтвердить
подписка
получать
письмо
течение
минута
проверять
папка
спам
промоакция
вконтактем
Telegram
издательский
сервис
литрес
литрес
самиздатиздательский
платформа
написать
мечтать
написать
свой
книга
опубликовывать
свой
книга
литрес
бесплатно
следить
статистика
получать
вознаграждение
каждый
покупка
ваш
книга
автор
литрес
чтецподарить
свой
голос
книга
становиться
участник
проект
литрес
чтец
достаточно
микрофон
уверенный
дикция
желание
выбирать
произведение
озвучка
наш
каталог
получать
процент
продажа
каждый
аудиокнига
издательский
услугиподготовка
книга
ключ
место
заказывать
корректура
редактура
обложка
верстка
ваш
электронный
книга
подготовить
книга
публикация
услуга
команда
издательский
сервис
литрес
делать
блог
вести
соцсеть
проводить
вебинара
офлайн
елизавета
богдановаредактор
блог
издательский
сервис
литресполин
баймановаруководитель
отдел
привлеченияя
контент
литресденис
лукьяновконтент
литреснаташа
лукинадизайнер
удержание
литрес
социальный
сеть
находить
поддержка
автор
получать
отзыв
читатель
пообщаться
поклонник
наш
социальный
сеть
чат
автор
мск
москва
красногвардейский
проезд
дом
офис
литрес
литрес
самиздатый
сервисео
премииуслугиконкурсыблогподдержкаконтактыбаз
знанийпервый
шаг
работа
сервисомпубликация
электронный
книгипубликация
печатный
книгипубликация
черновикачастый
вопросыдокументылицензионный
договор
резидент
рфлицензионный
договор
нерезидент
рфдоговор
оказание
услугполитика
конфиденциальность
резидент
рфполитика
конфиденциальность
нерезидент
рф
