Store
литрес
книга
аудиокнига
Global
Nav
открывать
меню
Global
Nav
закрывать
меню
Apple
корзина
поиск
apple
отменять
Apple
магазин
Mac
iPad
iPhone
Watch
AirPods
TV
дом
Apple
аксессуар
поддержка
корзина
отменять
предпросмотр
App
Store
литрес
книга
аудиокнига
читать
слушать
онлай
LitRes
OOO
книга
категория
оценка
тыс
бесплатно
включать
встроенный
покупка
снимок
экран
iPhone
iPad
Apple
Watch
описание
читать
слушать
книга
подкаста
приложение
литрес
подписка
неудобно
читать
переключаться
аудио
слушать
место
останавливать
чтение
приложение
чтение
книга
AppStore
самый
большой
каталог
электронный
книга
аудиокнига
подкастовый
горячий
новинка
мировой
бестселлер
эксклюзивный
произведение
доступный
литресчитывать
слушать
удобный
формат
литрес
подписка
доступ
книга
текст
аудио
книга
каждый
месяц
включая
новинка
эксклюзив
доступный
литрес
литрес
абонемент
включать
любой
книга
стоимость
книга
подборка
редактор
продлевать
абонемент
получать
скидка
весь
остальной
каталог
литрес
месяц
использование
стоимость
абонемент
месяц
выбирать
отдельность
миллион
произведение
самый
большой
электронный
библиотека
россия
снг
прочитывать
прослушивать
бесплатный
фрагмент
покупка
купить
книга
оставаться
ваш
коллекция
навсегда
книга
бесплатно
книга
доступно
приложение
бесплатно
отечественный
зарубежный
классика
детский
сказка
многое
приложение
смочь
первый
читать
новинка
большинство
новинка
книжный
рынок
появляться
каталог
литрес
одновременно
выход
бумажный
книга
узнавать
акция
скидка
удобный
формат
сторис
также
получать
умный
рекомендация
основа
ваш
книга
читать
рекомендация
искать
книга
категория
знать
фамилия
автор
думать
почитать
жанр
фэнтези
улучшать
поиск
находить
нужный
книга
становиться
просто
изучать
отзыв
покупатель
писать
свой
понравиться
отзыв
рецензия
подписываться
автор
становиться
книжный
критик
чей
отзыв
доверять
подписываться
уведомление
новинка
любимый
автор
посмотреть
биография
книга
страница
профиль
особенность
удобный
читалка
гибкий
настройка
менять
яркость
размер
шрифт
цвет
фон
следить
прогресс
сколько
страница
прочитывать
сколько
оставаться
использовать
ночной
режим
комфортный
чтение
плеер
аудиокнига
возможность
менять
скорость
воспроизведение
слушать
книга
фоновый
режим
таймер
сон
позволять
останавливать
прослушивание
нужный
момент
приложение
слушать
читать
книга
интернет
скачать
книга
iPhone
iPad
иметь
доступ
офлайн
например
режим
полет
роуминг
переключаться
текст
аудио
обратно
электронный
книга
аудиоверсия
нажимать
переходить
текстовой
продолжать
чтение
прослушивание
место
использовать
аккаунт
iPhone
iPad
ваш
библиотека
прогресс
чтение
синхронизироваться
автоматически
жанрызарубежный
литературафантастика
фэнтезихудожественный
литературалюбовный
роман
историистрашилка
ужасыподкастыдетективыбоевикибизнескнига
саморазвитиюкнига
психологииэзотерикаобразованиесказка
аудиокнига
детейкнига
английскомкомикс
манга
многое
жанровизвестный
авторымайк
омер
борис
акунин
э
л
джеймс
александра
маринина
сергей
лукьяненко
дарья
донцова
дина
рубин
татьяна
устинов
роман
злотников
джоджо
мойес
татьяна
поляков
пауло
коэльо
андрей
курпатов
джордж
мартин
вадим
панов
дмитрий
глуховский
стивен
кинг
макс
фрай
мария
метлицкая
олег
рой
андрей
круз
донна
тартта
дэн
браун
виктор
пелевин
джеймс
роллинс
оскар
уайлд
анна
ахматова
роберт
гэлбрейт
вадим
зеланд
александр
мазин
эрих
мария
ремарк
наталья
жильцов
ю
несба
альтернативный
называние
приложение
литрес
читать
слушать
литрес
продавец
лицензионный
электронный
книга
россия
снг
доверять
ведущий
издательство
автор
издаваться
русский
язык
компания
литрес
основывать
год
являться
крупный
продавец
лицензионный
электронный
книга
россия
новое
февр
г
версия
приложение
настраивать
работа
слабовидящий
пользователь
исправление
улучшенияесли
пожелание
вопрос
работа
приложение
сталкиваться
проблема
купить
книга
скачаться
появляться
проблема
списание
деньги
пожалуйста
написать
прямо
приложение
профиль
сообщать
проблема
оценка
отзыв
оценка
тыс
оценка
тыс
AmyKehah
хороший
приложение
бесплатный
книга
платный
доступный
цена
успевать
дочитывать
книга
мочь
вернуться
место
который
останавливаться
пролистывать
прочитывать
страница
очень
удобный
приложение
Elle
отличный
приложение
удобный
приложение
красивый
оформление
интуитивный
интерфейс
плюс
являться
отрегулировать
яркость
поменять
фон
страница
размер
шрифт
коллекция
больший
находить
книга
любой
вкус
больший
часть
книга
заинтересовывать
платный
это
несомненно
дешево
покупать
бумажный
вид
прежде
покупать
книга
прочитывать
ознакомительный
фрагмент
довольно
большой
решать
подходить
книга
заинтересовывать
спасибо
аннаазарий
хороший
удобный
приложение
книга
рука
событие
доступно
премьера
анонимус
дело
бог
плутос
доступно
премьера
мишель
саймс
врач
конфиденциальность
приложение
разработчик
LitRes
OOO
указывать
соответствие
политика
конфиденциальность
приложение
данные
мочь
обрабатываться
описывать
ниже
подробный
сведение
доступный
политика
конфиденциальность
разработчик
данные
использовать
отслеживание
информация
следующий
данные
мочь
использоваться
отслеживание
информация
пользователь
приложение
сайт
принадлежать
компания
данные
использование
связанный
пользователь
данные
вестись
сбор
следовать
данный
который
связанный
личность
пользователь
покупка
контактный
данные
история
поиск
идентификатор
данные
использование
связанный
пользователь
данные
вестись
сбор
следовать
данный
который
связанный
личность
пользователь
идентификатор
данные
использование
диагностика
конфиденциальный
данные
мочь
использоваться
по-разному
зависимость
ваш
возраст
задействовать
функция
фактор
подробно
информация
провайдер
LitRes
OOO
размер
мб
категория
книга
совместимость
iPhone
требоваться
iOS
новый
iPad
требоваться
iPadOS
новый
iPod
touch
требоваться
iOS
новый
Apple
Watch
требоваться
watchOS
новый
язык
русский
азербайджанский
английский
латышский
литовский
немецкий
польский
турецкий
узбекский
эстонский
возраст
малый
количество
сквернословие
грубый
юмор
малый
количество
предназначать
взрослый
малый
количество
вызывающий
ужас
страх
малый
количество
мультипликационный
фэнтезийный
насилие
малый
количество
контент
сексуальный
эротический
характер
малый
количество
использование
упоминание
алкогольный
табачный
продукция
наркотический
средство
малый
количество
медицинский
лечебный
тематика
Copyright
LitRes
цена
бесплатно
встроенный
покупка
электронный
книга
электронный
книга
электронный
книга
электронный
книга
электронный
книга
литрес
абонемент
литрес
подписка
месяц
электронный
книга
литрес
абонемент
new
абонемент
первый
месяц
р
сайт
разработчик
поддержка
приложение
политика
конфиденциальность
сайт
разработчик
поддержка
приложение
политика
конфиденциальность
приложение
это
разработчик
аудиокнига
литрес
книга
литрес
школа
книга
книгоед
Knigoed
книжный
викторина
вопрос
книга
угадывать
книга
игра
понравиться
книга
аудиокнига
MyBook
книга
книга
интернет
книга
строка
аудиокнига
подкаста
книга
букмейт
книга
аудиокнига
книга
читать
книга
слушать
аудиокнига
книга
россия
Apple
Inc
г
право
защищать
политика
конфиденциальность
использование
cookies
условие
использование
продажа
возврат
юридический
информация
карта
сайт
