TV
Home
Apple
AppleStoreMaciPadiPhoneWatchVisionAirPodsTV
HomeEntertainmentAccessoriesSupport
Apple
TV
Apple
TV
app
Apple
TV
HomePod
HomePod
mini
Home
app
Accessories
The
future
hits
home
TV
Home
Simply
connect
your
favorite
devices
and
transform
your
house
into
a
remarkably
smart
convenient
and
entertaining
home
Elevate
movie
night
with
theater
picture
and
sound
Play
any
song
in
any
room
from
anywhere
And
control
lights
locks
and
thermostats
using
Siri
All
with
the
security
and
privacy
of
Apple
HomePod
Profound
sound
Buy
Learn
more
HomePod
mini
Surprising
sound
for
its
size
Buy
Learn
more
The
ultimate
TVexperience
is
calling
Starting
at
Buy
Learn
more
Home
app
The
foundation
for
a
smarter
home
Learn
more
Every
reason
to
turn
your
house
into
a
smart
home
Easily
control
your
home
from
anywhere
with
your
favorite
devices
Learn
more
about
the
Home
app
Seamlessly
connected
entertainment
in
every
room
Learn
more
about
HomePod
Run
it
all
with
your
voice
Learn
more
about
Siri
Hey
Siri
set
my
bedtime
scene
Hey
Siri
make
it
warmer
Hey
Siri
turn
off
the
lights
downstairs
All
with
the
security
and
privacy
of
Apple
Learn
more
about
Privacy
Accessories
Around
your
home
and
across
your
devices
Shop
accessories
Lighting
Put
your
routine
on
a
timer
Or
set
the
mood
with
bulbs
and
switches
Shop
Lights
Bulbs
Outlets
and
Switches
Nanoleaf
Bulb
Security
Keep
an
eye
on
what
matters
most
with
cameras
doorbells
and
more
Shop
Cameras
and
Sensors
Logitech
Circle
View
Wired
Doorbell
Comfort
Turn
up
the
heat
or
keep
your
cool
with
temperature
controls
and
fans
Shop
Thermostats
ecobee
Smart
Thermostat
Premium
with
Siri
and
Built
Air
Quality
Monitor
Entry
Unlock
more
ways
to
access
your
home
with
locks
and
garage
door
openers
Shop
Sensors
and
Level
Lock
with
Home
Key
Support
Watch
sing
play
and
work
out
On
the
big
screen
Stream
award
Apple
Originals
on
every
screen
Try
it
Learn
more
Access
all
your
favorite
songs
and
sing
along
with
lyrics
view
Try
it
Learn
more
From
HIIT
to
Meditation
there
s
something
for
everyone
Try
it
Learn
more
Over
incredibly
fun
games
No
ads
No
in
purchases
Try
it
Learn
more
Apple
Footer
Fast
free
delivery
Or
pick
up
available
items
at
an
Apple
Store
Learn
more
Get
help
buying
Have
a
question
Call
a
Specialist
or
chat
online
Call
Contact
us
Customers
receive
an
Apple
Gift
Card
when
they
purchase
an
eligible
Apple
TV
at
a
Qualifying
Location
up
to
and
including
Only
one
Apple
Gift
Card
per
eligible
Apple
TV
and
a
maximum
purchase
limit
of
two
Apple
TVs
per
customer
Offer
subject
to
availability
While
supplies
last
Customers
shall
receive
a
discount
equal
to
the
value
of
the
Apple
Gift
Card
off
the
price
of
the
eligible
Apple
TV
but
will
be
charged
for
all
items
in
their
cart
Important
notice
regarding
the
checkout
receipt
and
monthly
statement
for
Apple
Card
Monthly
Installment
ACMI
purchases
with
this
promotion
Customers
selecting
ACMI
a
APR
payment
option
available
only
in
the
U
as
payment
type
at
checkout
shall
receive
a
discount
equal
to
the
value
of
the
Apple
Gift
Card
off
the
price
of
the
eligible
Apple
TV
This
will
result
in
one
ACMI
installment
plan
over
months
for
the
eligible
Apple
TV
discounted
by
the
instant
credit
and
a
second
ACMI
installment
plan
over
months
for
the
full
price
of
the
Apple
Gift
Card
The
total
combined
amount
charged
over
the
two
separate
ACMI
installment
plans
will
reflect
the
original
full
retail
price
of
the
Apple
TV
Separately
customers
will
receive
and
be
charged
for
the
Apple
Gift
Card
in
the
amount
of
the
applicable
discount
off
the
eligible
Apple
TV
ACMI
is
subject
to
credit
approval
and
credit
limit
Variable
APRs
for
Apple
Card
range
from
to
based
on
creditworthiness
Rates
as
of
February
Existing
customers
can
view
their
variable
APR
in
the
Wallet
app
or
card
you
choose
the
pay
or
one
option
for
an
ACMI
purchase
instead
of
choosing
ACMI
as
the
payment
option
at
checkout
that
purchase
will
be
subject
to
the
variable
APR
assigned
to
your
Apple
Card
Taxes
and
shipping
are
not
included
in
ACMI
transactions
and
are
subject
to
your
standard
purchase
APR
See
the
Apple
Card
Customer
Agreement
at
www
for
more
information
ACMI
is
not
available
for
purchases
made
online
at
the
following
special
stores
Apple
Employee
Purchase
Plan
participating
corporate
Employee
Purchase
Programs
Apple
at
Work
for
small
businesses
Government
and
Veterans
and
Military
Purchase
Programs
or
on
refurbished
devices
Apple
Card
is
issued
by
Goldman
Sachs
Bank
USA
Salt
Lake
City
Branch
Available
for
qualifying
applicants
in
the
United
States
If
you
reside
in
the
U
territories
please
call
Goldman
Sachs
at
with
questions
about
accessing
this
offer
or
applying
for
Apple
Card
Except
for
ACMI
this
offer
can
not
be
combined
with
other
Apple
promotion
s
or
financing
offers
that
are
directed
to
individual
end
customers
in
the
Qualifying
Location
This
offer
can
not
be
combined
with
the
Apple
Employee
Purchase
Plan
or
business
loyalty
pricing
Availability
of
in
promotion
offerings
may
be
limited
by
Apple
Store
location
closures
as
a
result
of
COVID
Additional
restrictions
apply
View
full
terms
and
conditions
of
offer
here
Product
availability
varies
by
country
New
subscribers
only
after
free
trial
Plan
automatically
renews
until
cancelled
Terms
apply
New
subscribers
only
after
free
trial
Plan
automatically
renews
until
cancelled
Terms
apply
Apple
Fitness
requires
iPhone
or
later
or
Apple
Watch
Series
or
later
paired
with
iPhone
or
later
New
subscribers
only
after
trial
Plan
automatically
renews
until
cancelled
Terms
apply
New
subscribers
only
after
free
trial
Plan
automatically
renews
until
cancelled
Terms
apply
Lunch
written
by
Jeff
Melvin
MELVV
Maude
Latour
Apple
TV
Home
Shop
and
Learn
Shop
and
Learn
Store
Mac
iPad
iPhone
Watch
Vision
AirPods
TV
Home
AirTag
Accessories
Gift
Cards
Apple
Wallet
Apple
Wallet
Wallet
Apple
Card
Apple
Pay
Apple
Cash
Account
Account
Manage
Your
Apple
ID
Apple
Store
Account
iCloud
Entertainment
Entertainment
Apple
One
Apple
TV
Apple
Music
Apple
Arcade
Apple
Fitness
Apple
News
Apple
Podcasts
Apple
Books
App
Store
Apple
Store
Apple
Store
Find
a
Store
Genius
Bar
Today
at
Apple
Apple
Camp
Apple
Store
App
Certified
Refurbished
Apple
Trade
In
Financing
Carrier
Deals
at
Apple
Order
Status
Shopping
Help
For
Business
For
Business
Apple
and
Business
Shop
for
Business
For
Education
For
Education
Apple
and
Education
Shop
for
K
Shop
for
College
For
Healthcare
For
Healthcare
Apple
in
Healthcare
Health
on
Apple
Watch
Health
Records
on
iPhone
For
Government
For
Government
Shop
for
Government
Shop
for
Veterans
and
Military
Apple
Values
Apple
Values
Accessibility
Education
Environment
Inclusion
and
Diversity
Privacy
Racial
Equity
and
Justice
Supplier
Responsibility
About
Apple
About
Apple
Newsroom
Apple
Leadership
Career
Opportunities
Investors
Ethics
Compliance
Events
Contact
Apple
More
ways
to
shop
Find
an
Apple
Store
or
other
retailer
near
you
Or
call
United
States
Copyright
Apple
Inc
All
rights
reserved
Privacy
Policy
Terms
of
Use
Sales
and
Refunds
Legal
Site
Map
