реклама
книга
заказывать
продвижение
книга
услугиверстка
электронный
книгперсональный
помощниккорректураредактурааудиокнигадизайн
обложкипродвижение
книгинаписание
аннотациибуктрейлерпечать
тиражався
услугисервисылитрес
самиздатлитрес
чтецлитрес
черновикиконкурс
электронный
буква
конкурсыблогзаказывать
рекламууслуга
литрес
самиздат
реклама
продвижение
ваш
книга
интернет
выбирать
услугувыбирать
пакет
услугподбирать
реклама
бюджет
продвигать
книга
подробнееизготовление
рекламный
баннер
баннер
любой
размер
баннерный
реклама
LiveLib
показ
баннерный
реклама
подвал
LiveLib
кол
переход
заказывать
хотеть
новый
читателейчитатель
литрес
пользователь
LiveLib
любитель
литература
социальный
сеть
знать
привлекать
внимание
хотеть
получать
узнаваемостьрекламный
кампания
позволять
повышать
узнаваемость
автор
создавать
ажиотаж
вокруг
книга
хотеть
увеличивать
продажиреклама
двигатель
торговля
запускать
продвижение
радоваться
рост
продажа
ваш
книга
комплексный
подход
популярность
пакет
состоять
разный
услуга
который
увеличивать
эффект
реклама
комплексный
использование
продвижение
разный
канал
увеличивать
охват
который
приносить
переход
продажа
пакет
выгодно
заказ
каждый
услуга
отдельность
проконсультироваться
эксперт
пакет
продвинутый
вместо
выгода
таргетированный
реклама
ВК
переход
пост
блогеровбаннер
страница
каталогасверху
показ
анонс
социальный
сеть
литресбаннер
жанровый
рассылка
выгода
таргетированный
реклама
ВК
переход
пост
блогеровбаннер
жанровый
рассылкебаннер
мувоокрекламный
арт
поджанр
пакет
мини
выгода
таргетированный
реклама
ВК
показ
пост
блогероввключение
жанровый
рассылкубаннер
страница
каталогасверху
показ
баннер
поисковый
выдача
показ
баннер
приложение
литрес
показ
анонс
социальный
сеть
литрес
топ
продажа
вместо
выгода
арт
популярный
показ
баннер
страница
каталогасверху
показ
баннер
поисковый
выдача
показ
баннер
главный
литрес
показ
баннер
приложение
литрес
показ
анонс
социальный
сеть
литресвключение
жанровый
рассылка
литрес
охват
охват
охват
охват
пакет
миниохват
уникальный
баннер
реклама
ваш
книга
подбирать
целевой
аудитория
возраст
география
интерес
запускать
кампания
рекламный
сеть
вконтакте
переход
размещать
пост
ваш
книга
книжный
блогер
размещать
баннер
витрина
MyBook
день
размещать
ваш
книга
третий
место
поджанр
ваш
книга
версия
сайт
день
размещать
баннер
ваш
книга
конец
письмо
близкий
жанровый
рассылка
литрес
продвигать
ваш
книга
комплексно
около
неделя
экономить
рубль
заказывать
пакет
мини
заказывать
продвижениеменеджер
связываться
течение
рабочий
день
согласование
деталь
подтверждение
заказ
запускать
течение
рабочий
день
согласование
рекламный
материал
наличие
свободный
место
пакет
продвинутый
охват
уникальный
баннер
реклама
ваш
книга
подбирать
целевой
аудитория
возраст
география
интерес
запускать
кампания
рекламный
сеть
вконтакте
переход
размещать
пост
ваш
книга
книжный
блогер
размещать
баннер
страница
каталог
литрес
сверху
показ
запускать
анонс
социальный
сеть
литрес
вконтакте
одноклассник
телегр
размещать
баннер
ваш
книга
конец
письмо
близкий
жанровый
рассылка
литрес
продвигать
ваш
книга
комплексно
около
неделя
экономить
рубль
заказывать
пакет
продвинутый
заказывать
продвижениеменеджер
связываться
течение
рабочий
день
согласование
деталь
подтверждение
заказ
запускать
течение
рабочий
день
согласование
рекламный
материал
наличие
свободный
место
пакет
топ
продажохват
уникальный
баннер
реклама
ваш
книга
подбирать
целевой
аудитория
возраст
география
интерес
запускать
кампания
рекламный
сеть
вконтакте
переход
включать
ваш
книга
баннер
жанровый
рассылка
литрес
читатель
размещать
баннер
страница
каталог
литрес
сверху
показ
размещать
пост
ваш
книга
книжный
блогер
запускать
анонс
социальный
сеть
литрес
вконтакте
одноклассник
телегр
размещать
баннер
поисковый
выдача
литрес
показ
размещать
баннер
главный
страница
приложение
литрес
показ
продвигать
ваш
книга
комплексно
около
неделя
экономить
рубль
заказывать
пакет
топ
продажа
заказывать
продвижениеменеджер
связываться
течение
рабочий
день
согласование
деталь
подтверждение
заказ
запускать
течение
рабочий
день
согласование
рекламный
материал
наличие
свободный
место
пакет
литресохват
уникальный
баннер
реклама
ваш
книга
включать
ваш
книга
баннер
жанровый
рассылка
литрес
читатель
размещать
баннер
главный
страница
литрес
показ
размещать
рекламный
арт
раздел
популярный
литрес
показ
размещать
баннер
страница
каталог
литрес
сверху
показ
размещать
баннер
поисковый
выдача
литрес
показ
размещать
баннер
главный
страница
приложение
литрес
показ
запускать
анонс
социальный
сеть
литрес
вконтакте
одноклассник
телегр
продвигать
ваш
книга
комплексно
около
неделя
экономить
рубль
заказывать
пакет
литрес
заказывать
продвижениеменеджер
связываться
течение
рабочий
день
согласование
деталь
подтверждение
заказ
запускать
течение
рабочий
день
согласование
рекламный
материал
наличие
свободный
место
вместо
выгода
рекламный
арт
раздел
новинка
баннер
главный
приложение
литрес
днейвместо
выгода
рекламный
арт
раздел
популярный
баннер
страница
поисковый
выдача
днейвместо
выгода
баннер
страница
каталог
сверху
вместо
выгода
включение
жанровый
рассылка
распроданобаннер
главный
litres
арт
поджанр
каталог
днейвместо
выгода
баннер
MyBook
арт
поджанр
каталог
днейбаннер
главный
litres
вместо
выгода
рекламный
арт
раздел
новинка
баннер
страница
поисковый
выдача
днейпост
блогер
вместо
выгода
рекламный
арт
раздел
популярный
баннер
страница
каталог
сбоку
днейвключение
жанровый
рассылка
вместо
выгода
баннер
главный
litres
баннер
главный
приложение
литрес
днейарт
поджанр
каталог
комбо
услуга
продвижение
выгода
арт
новинка
баннер
главный
приложение
сделать
мыразрабатывать
эксклюзивный
баннер
реклама
ваш
книгиразмещать
ваш
книга
третий
место
раздел
новинка
сайт
приложение
выделять
цвет
размещать
баннер
слайдер
главный
страница
приложение
литресбывать
показывать
реклама
ваш
книга
течение
день
примечание
рекламный
арт
размещаться
книга
возрастной
ограничение
стоимость
книга
должный
менее
рубль
реклама
использоваться
обложка
книга
маркироваться
данные
направляться
орд
оператор
рекламный
данный
маркировка
требоваться
полный
фио
заказчик
инн
вместо
выгода
купить
баннер
страница
каталог
сверху
включение
жанровый
рассылка
сделать
разрабатывать
баннер
реклама
ваш
книгиразмещать
баннер
ваш
книга
раздел
каталог
жанрахразмещать
ваш
книга
подборка
близкий
жанровый
рассылка
литрес
пользователь
регулярно
читать
наш
письмо
узнавать
новый
книга
показывать
реклама
ваш
книга
течение
день
примечание
стоимость
книга
должный
менее
рубль
реклама
использоваться
обложка
книга
маркироваться
данные
направляться
орд
оператор
рекламный
данный
маркировка
требоваться
полный
фио
заказчик
инн
осуществляться
единоразовый
книга
заказывать
данный
вид
продвижение
дважды
книга
ставиться
подборка
обложка
кнопка
купить
свой
текст
добавлять
дата
близкий
рассылка
назначаться
порядок
очередь
средний
время
ожидание
неделя
момент
оплата
жанр
книга
рассылка
определяться
исходить
тег
жанр
ваш
книга
сайт
литрес
рассылка
использовать
электронный
аудио
версия
книга
рассылка
использовать
сразу
версия
книга
данна
услуга
необходимый
предварительный
проверка
книга
редактор
рассылка
проверка
отправлять
ссылка
ваш
книга
почитать
support
selfpub
вместо
выгода
купить
арт
популярный
баннер
страница
поисковый
выдача
сделать
разрабатывать
эксклюзивный
баннер
реклама
ваш
книгиразмещать
ваш
книга
третий
место
раздел
популярный
сайт
приложение
выделять
цвет
размещать
баннер
вверху
страница
поисковый
выдача
литрес
десктоп
версия
сайт
литресбывать
показывать
реклама
ваш
книга
любой
поисковый
запрос
пользователь
литресбывать
показывать
реклама
ваш
книга
течение
день
примечание
рекламный
арт
размещаться
книга
возрастной
ограничение
стоимость
книга
должный
менее
рубль
реклама
использоваться
обложка
книга
маркироваться
данные
направляться
орд
оператор
рекламный
данный
маркировка
требоваться
полный
фио
заказчик
инн
вместо
выгода
купить
баннер
главный
литрес
рекламный
арт
поджанр
сделать
разрабатывать
эксклюзивный
баннер
реклама
ваш
книгиразмещать
ваш
книга
третий
место
поджанр
ваш
книга
версия
сайт
приложенииразмещать
баннер
слайдер
главный
страница
сайт
литрес
десктоп
версиибывать
показывать
реклама
ваш
книга
течение
день
примечание
рекламный
арт
размещаться
книга
возрастной
ограничение
стоимость
книга
должный
менее
рубль
реклама
использоваться
обложка
книга
маркироваться
данные
направляться
орд
оператор
рекламный
данный
маркировка
требоваться
полный
фио
заказчик
инн
вместо
выгода
купить
баннер
MyBook
арт
поджанр
баннер
главный
сделать
разрабатывать
эксклюзивный
баннер
реклама
ваш
книгиразмещать
ваш
книга
третий
место
поджанр
ваш
книгиразмещать
баннер
слайдер
главный
страница
сайт
литрес
десктоп
версииразмещать
баннер
витрина
книжный
сервис
мувоокрекламный
баннер
MyBook
весть
пользователь
карточка
книга
MyBook
карточка
книга
литрес
усмотрение
авторабыть
показывать
реклама
ваш
книга
течение
день
примечание
рекламный
арт
размещаться
книга
возрастной
ограничение
стоимость
книга
должный
менее
рубль
реклама
использоваться
обложка
книга
маркироваться
данные
направляться
орд
оператор
рекламный
данный
маркировка
требоваться
полный
фио
заказчик
инн
вместо
выгода
купить
арт
новинка
баннер
страница
поисковый
выдача
пост
блогер
сделать
разрабатывать
эксклюзивный
баннер
реклама
ваш
книгиразмещать
ваш
книга
третий
место
раздел
новинка
сайт
приложение
выделять
цветомразмещать
баннер
вверху
страница
поисковый
выдача
литрес
десктоп
версия
сайтабыть
показывать
реклама
ваш
книга
любой
поисковый
запрос
пользователь
литресразмещать
реклама
ваш
книга
блогер
примечание
рекламный
арт
размещаться
книга
возрастной
ограничение
стоимость
книга
должный
менее
рубль
реклама
использоваться
обложка
книга
маркироваться
данные
направляться
орд
оператор
рекламный
данный
маркировка
требоваться
полный
фио
заказчик
инн
вместо
выгода
купить
арт
популярный
баннер
страница
каталог
сбоку
включение
жанровый
сделать
разрабатывать
баннер
реклама
ваш
книгиразмещать
баннер
ваш
книга
раздел
каталог
жанрахразмещать
ваш
книга
подборка
близкий
жанровый
рассылка
литрес
пользователь
регулярно
читать
наш
письмо
узнавать
новый
книга
ваш
книга
третий
место
раздел
популярный
сайт
приложение
выделять
цветомбудь
показывать
реклама
ваш
книга
течение
день
примечание
стоимость
книга
должный
менее
рубль
реклама
использоваться
обложка
книга
маркироваться
данные
направляться
орд
оператор
рекламный
данный
маркировка
требоваться
полный
фио
заказчик
инн
осуществляться
единоразовый
книга
заказывать
данный
вид
продвижение
дважды
книга
ставиться
подборка
обложка
кнопка
купить
свой
текст
добавлять
дата
близкий
рассылка
назначаться
порядок
очередь
средний
время
ожидание
неделя
момент
оплата
жанр
книга
рассылка
определяться
исходить
тег
жанр
ваш
книга
сайт
литрес
рассылка
использовать
электронный
аудио
версия
книга
рассылка
использовать
сразу
версия
книга
данна
услуга
необходимый
предварительный
проверка
книга
редактор
рассылка
проверка
отправлять
ссылка
ваш
книга
почитать
support
selfpub
вместо
выгода
купить
баннер
главный
литрес
баннер
приложение
литрес
арт
поджанр
сделать
разрабатывать
эксклюзивный
баннер
реклама
ваш
книгиразмещать
ваш
книга
третий
место
поджанр
ваш
книгиразмещать
баннер
слайдер
главный
страница
сайт
литрес
десктопразмещать
баннер
главный
страница
приложение
литресбывать
показывать
реклама
ваш
книга
течение
день
примечание
рекламный
арт
размещаться
книга
возрастной
ограничение
стоимость
книга
должный
менее
рубль
реклама
использоваться
обложка
книга
маркироваться
данные
направляться
орд
оператор
рекламный
данный
маркировка
требоваться
полный
фио
заказчик
инн
вместо
выгода
купить
заявлять
рекламный
продвижение
автор
который
хотеть
начинать
свой
продвижение
привлекать
первый
читатель
страница
каталог
баннер
витрина
MyBook
приложение
литрес
жанровый
рассылка
литрес
книга
социальный
сеть
подвал
жанровый
рассылка
литрес
баннер
страница
каталог
фантастика
детектив
психология
любой
жанр
начинаться
ваш
книга
lid
ls
loff
li
sb
li
space
li
li
space
lid
ls
loff
li
rg
li
colvo
li
li
li
li
li
colvo
lid
ls
loff
li
tx
li
lid
ls
loff
li
fr
li
price
li
colvo
space
li
li
colvo
li
y
li
price
сделать
разрабатывать
баннер
реклама
ваш
книга
размещать
баннер
вверху
страница
каталог
литрес
показывать
реклама
ваш
книга
выбирать
количество
показ
данный
рекламный
баннер
размещаться
сайт
Litres
версия
пк
примечание
стоимость
книга
должный
менее
рубль
создаваться
основа
обложка
аннотация
ваш
книга
маркироваться
данные
направляться
орд
оператор
рекламный
данный
маркировка
требоваться
полный
фио
заказчик
инн
баннер
страница
каталог
сбоку
находить
свой
читатель
быстро
сделать
разрабатывать
баннер
реклама
ваш
книга
размещать
баннер
левый
часть
страница
каждый
жанр
литрес
показывать
реклама
ваш
книга
выбирать
количество
показ
данный
рекламный
баннер
размещаться
сайт
Litres
версия
пк
примечание
стоимость
книга
должный
менее
рубль
создаваться
основа
обложка
аннотация
ваш
книга
маркироваться
данные
направляться
орд
оператор
рекламный
данный
маркировка
требоваться
полный
фио
заказчик
инн
данный
услуга
данный
момент
доступный
продажа
предлагать
заказывать
рекламный
арт
раздел
популярный
новинка
получать
новый
продажа
книга
сделать
разрабатывать
баннер
реклама
ваш
книга
размещать
баннер
витрина
книжный
сервис
MyBook
показывать
реклама
ваш
книга
протяжение
день
показ
данный
рекламный
баннер
размещаться
сайт
MyBook
книга
увидеть
пользователь
MyBook
баннер
весть
пользователь
карточка
книга
MyBook
карточка
книга
литрес
усмотрение
автор
баннер
витрина
MyBook
ваш
книга
раздел
выбирать
книжный
сервис
MyBook
примечание
стоимость
книга
должный
менее
рубль
создаваться
основа
обложка
аннотация
ваш
книга
маркироваться
данные
направляться
орд
оператор
рекламный
данный
отчет
предоставляться
количество
показ
баннер
маркировка
требоваться
полный
фио
заказчик
инн
купить
Stories
приложение
литрес
сделать
разрабатывать
уникальный
баннер
реклама
ваш
книга
размещать
баннер
хайлайт
ваш
жанр
приложение
литрес
показывать
реклама
ваш
книга
течение
день
ваш
книга
увидеть
читатель
ваш
жанр
примечание
стоимость
книга
должный
менее
рубль
отчетность
скриншот
размещение
статистика
баннерный
размещение
stories
предоставляться
купить
включение
жанровый
рассылка
литрес
сделать
размещать
ваш
книга
подборка
близкий
жанровый
рассылка
литрес
пользователь
регулярно
читать
наш
письмо
узнавать
новый
книга
примечание
стоимость
книга
менее
рубль
рассылка
осуществляться
единоразовый
книга
заказывать
данный
вид
продвижение
дважды
книга
ставиться
подборка
обложка
кнопка
купить
свой
текст
добавлять
дата
близкий
рассылка
назначаться
порядок
очередь
средний
время
ожидание
неделя
момент
оплата
жанр
книга
рассылка
определяться
исходить
тег
жанр
ваш
книга
сайт
литрес
рассылка
использовать
электронный
аудио
версия
книга
рассылка
использовать
сразу
версия
книга
данна
услуга
необходимый
предварительный
проверка
книга
редактор
рассылка
проверка
отправлять
ссылка
ваш
книга
почитать
support
selfpub
купить
включение
жанровый
рассылка
литресстоимость
ваш
книга
подборка
близкий
жанровый
рассылка
литрес
пользователь
регулярно
читать
наш
письмо
узнавать
новый
книга
примечание
стоимость
книга
менее
рубль
рассылка
осуществляться
единоразовый
книга
заказывать
данный
вид
продвижение
дважды
книга
ставиться
подборка
обложка
кнопка
купить
свой
текст
добавлять
дата
близкий
рассылка
назначаться
порядок
очередь
средний
время
ожидание
неделя
момент
оплата
жанр
книга
рассылка
определяться
исходить
тег
жанр
ваш
книга
сайт
литрес
рассылка
использовать
электронный
аудио
версия
книга
рассылка
использовать
сразу
версия
книга
данна
услуга
необходимый
предварительный
проверка
книга
редактор
рассылка
проверка
отправлять
ссылка
ваш
книга
почитать
support
selfpub
вернуться
назад
анонс
социальный
сеть
литрес
вконтакте
телегр
одноклассник
стоимость
информация
ваш
книга
написать
интересный
пост
книга
размещать
подборка
книга
наш
социальный
сеть
аудитория
человек
стоимость
назад
баннер
жанровый
рассылка
литрес
сделать
размещать
баннер
ваш
книга
конец
письмо
близкий
жанровый
рассылка
литрес
пользователь
регулярно
читать
наш
письмо
узнавать
новый
книга
примечание
стоимость
книга
менее
рубль
рассылка
осуществляться
единоразовый
книга
заказывать
данный
вид
продвижение
дважды
баннер
согласовываться
автор
заранее
дата
близкий
рассылка
назначаться
порядок
очередь
средний
время
ожидание
неделя
момент
оплата
жанр
книга
рассылка
определяться
исходить
тег
жанр
ваш
книга
сайт
литрес
рассылка
использовать
электронный
аудио
версия
книга
рассылка
использовать
сразу
версия
книга
данна
услуга
необходимый
предварительный
проверка
книга
редактор
рассылка
проверка
отправлять
ссылка
ваш
книга
почитать
support
selfpub
купить
расширять
свой
популярность
страница
поисковый
выдача
литрес
рекламный
арт
безграничный
возможность
расширение
ваш
читательский
аудитория
главный
litres
главный
приложение
литрес
артва
жанр
баннерв
жанр
баннер
главный
litres
вставать
ряд
мировой
бестселлер
lid
ls
loff
li
rg
li
colvo
li
количество
показ
li
li
li
li
colvo
lid
ls
loff
li
tx
li
цена
рубль
тысяча
показ
рубль
неделя
выгода
рубль
охват
аудитория
показ
деньсрок
размещение
неделя
либо
оплачивать
показ
день
lid
ls
loff
li
fr
li
price
li
colvo
li
руб
li
цена
ваш
услуга
баннер
главный
litres
colvo
показ
li
y
li
price
сделать
разрабатывать
баннер
реклама
ваш
книга
размещать
баннер
слайдер
главный
страница
сайт
литрес
главный
страница
приложение
литрес
показывать
реклама
ваш
книга
выбирать
количество
показ
данный
рекламный
баннер
размещаться
сайт
Litres
примечание
стоимость
книга
должный
менее
рубль
создаваться
основа
обложка
аннотация
ваш
книга
маркироваться
данные
направляться
орд
оператор
рекламный
данный
маркировка
требоваться
полный
фио
заказчик
инн
заказывать
рубль
день
баннер
главный
приложение
литрес
вставать
ряд
мировой
бестселлер
lid
ls
loff
li
rg
li
colvo
li
количество
показ
li
li
li
li
colvo
lid
ls
loff
li
tx
li
цена
рубль
тысяча
показ
рубль
неделя
выгода
рубль
охват
аудитория
показ
деньсрок
размещение
неделя
либо
оплачивать
показ
день
lid
ls
loff
li
fr
li
price
li
colvo
li
руб
li
цена
ваш
услуга
баннер
главный
приложение
литрес
colvo
показ
li
y
li
price
сделать
разрабатывать
баннер
реклама
ваш
книга
размещать
баннер
главный
страница
приложение
литрес
показывать
реклама
ваш
книга
выбирать
количество
показ
данный
рекламный
баннер
размещаться
наш
приложение
примечание
стоимость
книга
должный
менее
рубль
создаваться
основа
обложка
аннотация
ваш
книга
маркироваться
данные
направляться
орд
оператор
рекламный
данный
маркировка
требоваться
полный
фио
заказчик
инн
заказывать
рубль
день
рекламный
арт
раздел
популярный
литрес
расширять
понятие
популярность
lid
ls
loff
li
rg
li
colvo
li
количество
показ
li
li
li
li
colvo
lid
ls
loff
li
tx
li
цена
рубль
тысяча
показовить
рубль
неделя
выгода
рубль
охват
аудитория
показ
деньсрок
размещение
неделя
либо
оплачивать
показ
день
lid
ls
loff
li
fr
li
price
li
colvo
li
руб
li
цена
ваш
услуга
рекламный
арт
литрес
популярный
colvo
показ
li
y
li
price
сделать
размещать
ваш
книга
место
подборка
раздел
популярный
выделять
ваш
книга
среди
помощь
цвет
показывать
ваш
книга
раздел
выбирать
количество
показ
данный
рекламный
баннер
размещаться
сайт
Litres
примечание
рекламный
арт
размещаться
книга
возрастной
ограничение
стоимость
книга
должный
менее
рубль
реклама
использоваться
обложка
книга
маркироваться
данные
направляться
орд
оператор
рекламный
данный
маркировка
требоваться
полный
фио
заказчик
инн
заказывать
рубль
день
рекламный
арт
раздел
новинка
привлекать
максимум
внимание
новинка
lid
ls
loff
li
rg
li
colvo
li
количество
показ
li
li
li
li
colvo
lid
ls
loff
li
tx
li
цена
рубль
тысяча
показовить
рубль
неделя
выгода
рубль
охват
аудитория
деньсрок
размещение
неделя
либо
оплачивать
показ
день
lid
ls
loff
li
fr
li
price
li
colvo
li
руб
li
цена
ваш
услуга
рекламный
арт
литрес
новинка
colvo
показ
li
y
li
price
сделать
размещать
ваш
книга
место
подборка
раздел
новинка
выделять
ваш
книга
среди
помощь
цвет
показывать
ваш
книга
раздел
выбирать
количество
показ
данный
рекламный
баннер
размещаться
сайт
Litres
примечание
рекламный
арт
размещаться
книга
возрастной
ограничение
стоимость
книга
должный
менее
рубль
реклама
использоваться
обложка
книга
маркироваться
данные
направляться
орд
оператор
рекламный
данный
маркировка
требоваться
полный
фио
заказчик
инн
заказывать
рубль
день
рекламный
арт
привлекать
максимум
внимание
новинка
популярный
lid
ls
loff
li
sb
li
tips
li
li
li
tips
lid
ls
loff
li
rg
li
colvo
li
li
li
li
li
colvo
lid
ls
loff
li
tx
li
lid
ls
loff
li
fr
li
price
li
colvo
li
li
colvo
li
y
li
price
сделать
размещать
ваш
книга
место
подборка
раздел
популярный
новинка
выделять
ваш
книга
среди
помощь
цвет
показывать
ваш
книга
раздел
выбирать
количество
показ
данный
рекламный
баннер
размещаться
сайт
Litres
приложение
литрес
примечание
рекламный
арт
размещаться
книга
возрастной
ограничение
стоимость
книга
должный
менее
рубль
реклама
использоваться
обложка
книга
маркироваться
данные
направляться
орд
оператор
рекламный
данный
маркировка
требоваться
полный
фио
заказчик
инн
баннер
страница
поисковый
выдача
litres
ваш
книга
первый
любой
запрос
читатель
литрес
искать
lid
ls
loff
li
rg
li
colvo
li
количество
показ
li
li
li
li
colvo
lid
ls
loff
li
fr
li
price
li
colvo
li
руб
li
цена
ваш
услуга
баннер
страница
поисковый
выдача
литрес
colvo
показ
li
y
li
price
lid
ls
loff
li
tx
li
цена
рубль
тысяча
показовить
рубль
неделя
выгода
рубль
охват
аудитория
показ
деньсрок
размещение
неделя
либо
оплачивать
показ
день
сделать
разрабатывать
баннер
реклама
ваш
книга
размещать
баннер
вверху
страница
поисковый
выдача
литрес
показывать
реклама
ваш
книга
любой
поисковый
запрос
пользователь
литрес
данный
рекламный
баннер
размещаться
сайт
Litres
версия
пк
примечание
стоимость
книга
должный
менее
рубль
создаваться
основа
обложка
аннотация
ваш
книга
маркироваться
данные
направляться
орд
оператор
рекламный
данный
маркировка
требоваться
полный
фио
заказчик
инн
заказывать
рубль
день
баннер
жанровый
рассылка
литресстоимость
баннер
ваш
книга
конец
письмо
близкий
жанровый
рассылка
литрес
пользователь
регулярно
читать
наш
письмо
узнавать
новый
книга
примечание
стоимость
книга
менее
рубль
рассылка
осуществляться
единоразовый
книга
заказывать
данный
вид
продвижение
дважды
баннер
согласовываться
автор
заранее
дата
близкий
рассылка
назначаться
порядок
очередь
средний
время
ожидание
неделя
момент
оплата
жанр
книга
рассылка
определяться
исходить
тег
жанр
ваш
книга
сайт
литрес
рассылка
использовать
электронный
аудио
версия
книга
рассылка
использовать
сразу
версия
книга
данна
услуга
необходимый
предварительный
проверка
книга
редактор
рассылка
проверка
отправлять
ссылка
ваш
книга
почитать
support
selfpub
вернуться
назад
рекламный
арт
жанр
ваш
книга
выбирать
жанр
lid
ls
loff
li
sb
li
tips
li
li
li
tips
lid
ls
loff
li
tx
li
lid
ls
loff
li
fr
li
price
li
tips
li
li
li
y
li
price
сделать
размещать
арт
ваш
книга
жанр
ваш
книга
выделять
ваш
книга
среди
помощь
цвет
показывать
ваш
книга
раздел
течение
день
данный
рекламный
баннер
размещаться
веб
сайт
мобильный
версия
промаркировать
реклама
согласно
законодательство
передавать
данные
орд
оператор
рекламный
данный
примечание
жанровый
арт
размещаться
книга
возрастной
ограничение
размещение
происходить
основное
жанр
книга
поджанр
пример
фантастика
попаданец
детектив
любовный
роман
биография
мемуары
стоимость
книга
должный
менее
рубль
реклама
использоваться
обложка
книга
маркировка
требоваться
полный
фио
заказчик
инн
обязательно
автор
рекламный
баннер
жанр
реклама
ваш
книга
необходимый
жанр
lid
ls
loff
li
sb
li
tips
li
li
li
tips
lid
ls
loff
li
tx
li
lid
ls
loff
li
fr
li
price
li
tips
li
li
li
y
li
price
сделать
размещать
баннер
ваш
книга
жанр
ваш
книга
показывать
ваш
книга
раздел
течение
день
данный
рекламный
баннер
размещаться
веб
сайт
мобильный
версия
промаркировать
реклама
согласно
законодательство
передавать
данные
орд
оператор
рекламный
данный
примечание
баннер
размещаться
книга
возрастной
ограничение
размещение
происходить
основное
жанр
книга
поджанр
пример
фантастика
попаданец
детектив
любовный
роман
биография
мемуары
стоимость
книга
должный
менее
рубль
реклама
использоваться
обложка
книга
маркировка
требоваться
полный
фио
заказчик
инн
обязательно
автор
универсальный
реклама
который
помогать
решать
множество
писательский
задача
любой
ситуация
блогер
реклама
LiveLib
реклама
вконтакте
таргетированный
реклама
вконтакте
находить
свой
читатель
быстро
lid
ls
loff
li
sb
li
colvo
li
количество
показ
li
переход
руб
переход
руб
переход
руб
li
colvo
lid
ls
loff
li
tx
li
цена
переход
руб
переход
руб
выгода
переход
руб
выгода
lid
ls
loff
li
fr
li
price
li
colvo
li
руб
li
цена
ваш
услуга
таргетированный
реклама
вконтакте
colvo
li
y
li
price
разрабатывать
уникальный
баннер
реклама
ваш
книга
подбирать
целевой
аудитория
возраст
география
интерес
запускать
кампания
рекламный
сеть
вконтакте
который
появляться
новостной
лента
пользователь
показывать
реклама
ваш
книга
около
неделя
гарантированный
количество
переход
примечание
закон
маркировка
реклама
заказ
данный
вид
реклама
обязательно
указывать
полный
фамилия
имя
отчество
заказчик
пост
блогер
находить
свой
читатель
быстро
подбирать
книжный
блогер
подходящий
целевой
аудитория
договариваться
формат
время
размещение
размещать
рекламный
пост
телегр
вконтакте
обзор
книга
блогер
проконтролировать
удалять
общий
аудитория
подписчик
блогер
lid
ls
loff
li
sb
li
colvo
li
li
li
colvo
lid
ls
loff
li
tx
li
lid
ls
loff
li
fr
li
price
li
colvo
li
li
colvo
li
y
li
price
баннерный
реклама
LiveLib
разрабатывать
уникальный
баннер
реклама
ваш
книга
размещать
рекламный
баннер
сайт
LiveLib
показывать
реклама
ваш
книга
десктоп
мобильный
версия
сайт
около
неделя
количество
показ
количество
переход
примечание
маркировка
требоваться
полный
фио
заказчик
инн
lid
ls
loff
li
sb
li
colvo
li
li
LiveLib
LiveLib
li
colvo
lid
ls
loff
li
tx
li
LiveLib
LiveLib
lid
ls
loff
li
fr
li
price
li
colvo
li
li
colvo
li
y
li
price
LiveLib
это
крупный
книжный
рекомендательный
сервис
баннерный
реклама
LiveLibСтоимость
уникальный
баннер
реклама
ваш
книга
размещать
рекламный
баннер
LiveLib
показывать
реклама
ваш
книга
десктоп
сайт
около
неделя
гарантированный
количество
показ
маркировка
требоваться
полный
фио
заказчик
инн
купить
назад
баннерный
реклама
подвал
LiveLibСтоимость
уникальный
баннер
реклама
ваш
книга
размещать
рекламный
баннер
подвал
сайт
LiveLib
показывать
реклама
ваш
книга
десктоп
мобильный
версия
сайт
около
неделя
гарантированный
количество
переход
маркировка
требоваться
полный
фио
заказчик
инн
купить
назад
lid
ls
loff
li
nm
li
ваш
фио
li
y
li
Name
lid
ls
loff
li
em
li
ваш
Email
li
указывать
email
который
использовать
вход
selfpub
li
y
li
Email
lid
ls
loff
li
ph
li
ваш
номер
телефон
li
y
li
a
li
RU
li
Phone
lid
ls
loff
li
in
li
ссылка
ваш
книга
литрес
li
y
li
ссылка
ваш
книга
литрес
lid
ls
loff
li
in
li
ваш
комментарий
li
ваш
комментарий
lid
ls
loff
y
li
sb
li
услуга
который
интересный
li
y
li
рекламный
арт
раздел
популярный
страница
поисковый
выдача
литрес
страница
жанр
сверху
страница
жанр
сбоку
витрина
MyBook
главный
страница
litres
приложение
литрес
жанровый
рассылка
литрес
подвал
жанровый
рассылка
литрес
книга
социальный
сеть
реклама
социальный
сеть
вконтакте
рекламный
баннер
пост
блогер
li
услуга
который
интересный
lid
ls
loff
li
nm
li
ваш
фио
li
y
li
Name
lid
ls
loff
li
em
li
ваш
Email
li
указывать
email
который
использовать
вход
selfpub
li
y
li
Email
lid
ls
loff
li
ph
li
ваш
номер
телефон
li
y
li
a
li
RU
li
Phone
lid
ls
loff
li
in
li
ссылка
ваш
книга
литрес
li
y
li
ссылка
ваш
книга
литрес
lid
ls
loff
li
rg
li
ваш
рекламный
бюджет
li
li
li
li
li
ваш
рекламный
бюджет
lid
ls
loff
y
li
in
li
ваш
комментарий
li
ваш
комментарий
lid
ls
loff
li
sb
li
цель
реклама
li
y
li
находить
первый
читатель
новый
читатель
автор
книга
li
цель
реклама
процесс
работа
заявка
оплатав
выбирать
наиболее
подходящий
способ
продвижение
книга
оформлять
заявка
оплачивать
заказ
получение
оплата
менеджер
связываться
течение
рабочий
день
уточнение
деталь
начинать
работа
запуск
рекламым
подготовить
необходимый
рекламный
материал
согласовывать
запускать
кампания
предоставлять
доступ
статистика
опция
доступный
тип
продвижение
обычно
реклама
запускаться
течение
день
стараться
делать
это
быстро
мочь
уточнять
примерный
срок
выполнение
конкретный
услуга
заранее
связываться
менеджер
support
selfpub
анализ
корректировкианализировать
результат
первый
день
рекламный
кампания
оптимизировать
корректировать
рекламный
бюджет
настройка
аудитория
это
позволять
добиваться
максимальный
эффективность
обо
важный
изменение
узнавать
менеджер
предлагать
комплексный
продвижение
реклама
книга
интернет
вместе
привлекать
новый
читатель
сделать
ваш
книга
популярный
узнавать
заказывать
реклама
популярный
вопрос
ответ
делать
баннер
рекламный
баннер
разрабатываться
наш
команда
дизайнер
свой
баннер
реклама
использовать
присылать
баннер
согласование
мочь
вносить
правка
баннер
разрабатывать
дизайнер
литрес
проходить
согласование
автор
замечание
вносить
правка
бесплатно
запуститься
реклама
средний
время
запуск
реклама
рабочий
день
момент
согласование
рекламный
материал
однако
некоторые
услуга
срок
запуск
рекламный
кампания
увеличивать
мочь
просматривать
статистика
рекламный
кампания
завершать
мочь
присылать
промежуточный
результат
запрос
завершение
кампания
присылать
итоговый
результат
почитать
заказывать
реклама
портал
LiveLib
статистика
доступный
режим
онлайн
уникальный
ссылка
который
получать
ваш
менеджер
почему
мало
просмотр
определять
примерный
количество
переход
каждый
рекламный
пакет
каждый
рекламный
услуга
переход
стоимость
показатель
мочь
варьироваться
тематика
книга
целевой
аудитория
общий
рекламный
охват
заказ
реклама
социальный
сеть
гарантировать
указанный
количество
переход
остальной
случай
сожаление
результат
предсказывать
невозможно
устраивать
текущий
результат
рекламный
кампания
мочь
приостанавливать
например
скорректировать
условие
таргет
изменять
баннер
бесплатно
повышать
эффективность
мочь
заменять
книга
опубликовывать
баннер
сожаление
книга
утверждать
опубликовывать
баннер
заменять
реклама
работать
мочь
вернуть
деньги
реклама
запускать
осуществлять
возврат
средство
делать
зависеть
ситуация
возникать
почему
книга
купить
время
публикация
реклама
покупка
книга
также
влиять
оформление
сайт
наличие
продавать
аннотация
цена
регулярность
длительность
рекламный
кампания
команда
литрес
стараться
получать
оптимальный
результат
каждый
автор
мочь
гарантировать
интерес
читатель
конкретный
книга
делать
начинающий
автор
который
разбираться
продвижение
рекомендовать
заказывать
рекламный
услуга
блок
заявлять
помогать
успешно
начинать
рекламный
кампания
хотеть
заказывать
услуга
узнавать
аудитория
посоветовать
пакетный
реклама
блок
комплексный
подход
популярность
иедальный
вариант
ваш
продвижение
закон
маркировка
реклама
заказ
данный
вид
реклама
обязательно
указывать
полный
фамилия
имя
отчество
заказчик
также
инн
инн
заказчик
рекламынеобходимый
маркировка
рекламыссылка
ваш
книга
литрес
активироватьобязательный
полепроверять
правильность
e
адресавводить
корректный
имяпроверять
правильность
номер
телефонауказанный
значение
слишком
короткий
оплачивать
обязательный
полепроверять
правильность
e
адресавводить
корректный
имяпроверять
правильность
номер
телефонауказанный
значение
слишком
короткий
нажимать
кнопка
давать
согласие
обработка
персональный
данный
соглашаться
политика
конфиденциальность
условие
договор
оказание
услуга
мск
москва
красногвардейский
проезд
дом
офис
литрес
литрес
самиздатый
сервисео
премииуслугинаш
партнерыблогконтактыбаз
знанийпервый
шаг
работа
сервисомпубликация
электронный
книгипубликация
печатный
книгипубликация
черновикачастый
вопросыдокументылицензионный
договор
резидент
рфлицензионный
договор
нерезидент
рфдоговор
оказание
услуга
