Watch
Apple
AppleStoreMaciPadiPhoneWatchVisionAirPodsTV
HomeEntertainmentAccessoriesSupport
Apple
Watch
Series
Apple
Watch
Ultra
Apple
Watch
SE
Apple
Watch
Nike
Apple
Watch
Apple
Watch
Studio
Compare
Bands
AirPods
Accessories
Apple
Fitness
watchOS
Shop
Watch
Apple
Watch
Get
months
of
Apple
Fitness
when
you
buy
any
Apple
Watch
Shop
Apple
Watch
Apple
Watch
Unity
in
bloom
The
new
Black
Unity
watch
band
and
face
symbolize
the
growth
and
resilience
of
generations
working
together
for
a
more
equitable
world
One
where
everyone
blooms
Black
Unity
Sport
Band
Unity
Bloom
Buy
Find
out
more
Download
theUnity
Bloom
watch
face
Open
this
page
on
your
iPhone
to
download
the
Unity
Bloom
watch
face
Requires
iOS
and
watchOS
or
later
Download
theUnity
Bloom
watch
face
Add
watch
face
Requires
iOS
and
watchOS
or
later
The
beauty
of
unity
The
new
Unity
Bloom
watch
band
and
matching
watch
face
are
inspired
by
the
growth
and
resilience
of
generations
working
together
to
address
injustice
and
dismantle
systemic
barriers
The
flowers
all
have
a
handcrafted
appearance
as
if
cut
from
paper
Together
they
serve
as
emblems
of
truth
power
and
solidarity
The
bands
have
tiny
variations
from
the
complex
manufacturing
process
and
the
inherent
qualities
of
the
material
meaning
each
one
is
unique
Designed
by
Black
creatives
and
allies
at
Apple
this
band
and
watch
face
are
for
anyone
committed
to
ending
systemic
racism
and
building
a
more
equitable
world
One
where
everyone
blooms
The
new
Black
Unity
Sport
Band
features
a
custom
handcrafted
floral
design
Truth
Power
Solidarity
message
with
one
of
four
unique
flower
emblems
laser
on
the
pin
closure
Bouquets
of
joy
Celebrate
Black
unity
with
the
Unity
Bloom
watch
face
Whenever
you
raise
your
wrist
the
flowers
fill
in
with
joyful
hues
Choose
from
single
or
full
variations
with
multiple
color
options
Bloom
Together
Show
your
support
with
free
iOS
and
iPadOS
wallpapers
Four
bands
One
purpose
Shop
the
full
Black
Unity
Collection
four
Special
Edition
bands
celebrating
and
supporting
Black
communities
around
the
world
New
Black
Unity
Sport
Band
Unity
Bloom
Buy
Black
Unity
Sport
Loop
Buy
Black
Unity
Braided
Solo
Loop
Buy
Black
Unity
Sport
Band
Buy
The
Racial
Equity
and
Justice
Initiative
Through
our
Racial
Equity
and
Justice
Initiative
Apple
is
proud
to
support
these
global
organizations
focused
on
expanding
opportunities
for
Black
Hispanic
and
Indigenous
communities
to
create
meaningful
change
Boys
Girls
Clubs
of
America
Boys
Girls
Clubs
of
America
is
developing
the
next
generation
of
innovators
and
community
leaders
by
designing
opportunities
for
members
to
code
create
and
connect
with
community
Boys
Girls
Clubs
of
America
knows
the
power
of
offering
opportunities
to
young
people
by
helping
them
build
technical
and
real
skills
to
enter
and
shape
the
workforce
of
tomorrow
Based
in
Atlanta
Georgia
with
locations
across
the
United
States
on
Native
lands
and
on
military
bases
around
the
world
The
Studio
Museum
in
Harlem
The
Studio
Museum
in
Harlem
is
the
nexus
for
artists
of
African
descent
locally
nationally
and
internationally
and
for
work
that
has
been
inspired
and
influenced
by
Black
culture
It
is
a
site
for
the
dynamic
exchange
of
ideas
about
art
and
society
The
museum
is
equally
engaged
as
a
cultural
anchor
in
Harlem
and
as
a
presiding
influence
and
thought
leader
for
the
international
art
world
Battersea
Arts
Centre
Battersea
Arts
Centre
creates
welcoming
and
inclusive
spaces
where
communities
artists
and
audiences
can
connect
and
be
creative
Based
in
London
Art
Gallery
of
New
South
Wales
The
Art
Gallery
of
New
South
Wales
s
Djamu
Youth
Justice
Program
supports
Indigenous
young
people
in
the
New
South
Wales
youth
justice
system
by
creating
meaningful
connections
to
art
and
culture
Forging
positive
relationships
between
these
young
people
and
members
of
the
Aboriginal
and
Great
Ocean
arts
community
the
program
provides
mentorship
and
vocational
pathways
post
Based
in
Sydney
Australia
Ghetto
Film
School
Ghetto
Film
School
educates
develops
and
celebrates
the
next
generation
of
great
storytellers
through
film
and
media
with
locations
in
New
York
City
Los
Angeles
and
London
The
National
Museum
of
African
American
Music
The
National
Museum
of
African
American
Music
is
the
only
museum
of
its
kind
dedicated
to
educating
the
world
through
preserving
and
celebrating
the
central
role
African
Americans
play
in
creating
the
American
soundtrack
Located
in
Nashville
Tennessee
Learn
more
about
the
initiative
Apple
Watch
Series
Smarter
Brighter
Mightier
Buy
Learn
more
Watch
the
film
Apple
Watch
Ultra
Next
level
adventure
Buy
Learn
more
Apple
Watch
SE
A
great
deal
to
love
Buy
Learn
more
Carbon
Neutral
A
first
for
Apple
Watch
Apple
Learn
how
Which
Apple
Watch
is
right
for
you
Apple
Watch
SE
All
the
essentials
Light
on
price
Buy
Learn
more
or
aluminum
case
size
Carbon
neutral
combinations
Retina
displayUp
to
nits
SiP
Siri
Find
iPhone
High
and
low
heart
rate
notifications
Irregular
Low
cardio
fitness
notifications
Cycle
Emergency
International
emergency
Fall
Detection
and
Crash
Water
resistant
GPS
Available
cellular
Supports
Family
Setup
GPS
Cellular
models
Connect
family
members
who
don
t
have
an
Up
to
Low
Power
Mode
more
Apple
Watch
Series
Powerful
sensors
advanced
health
features
Buy
Learn
more
or
aluminum
or
stainless
steel
case
size
Carbon
neutral
combinations
Always
Retina
displayUp
to
nits
SiP
Double
tap
gesture
Faster
on
Siri
with
health
data
access
Precision
Finding
for
iPhone
ECG
High
and
low
heart
rate
notifications
Irregular
Low
cardio
fitness
notifications
Temperature
Cycle
Trackingwith
retrospective
ovulation
Emergency
International
emergency
Fall
Detection
and
Crash
Water
resistant
GPS
Available
cellular
Supports
Family
Setup
GPS
Cellular
models
Connect
family
members
who
don
t
have
an
Up
to
Up
to
hours
inLow
Power
Fast
Apple
Watch
Ultra
The
most
rugged
and
capable
Buy
Learn
more
titanium
case
size
Carbon
neutral
combinations
Always
Retina
displayUp
to
nits
SiP
Double
tap
gesture
Faster
on
Siri
with
health
data
access
Precision
Finding
for
iPhone
ECG
High
and
low
heart
rate
notifications
Irregular
Low
cardio
fitness
notifications
Temperature
Cycle
Trackingwith
retrospective
ovulation
Emergency
International
emergency
Fall
Detection
and
Crash
Siren
Water
resistant
High
water
sports
Recreational
dive
to
Precision
dual
GPS
Cellular
Supports
Family
Setup
GPS
Cellular
models
Connect
family
members
who
don
t
have
an
Up
to
Up
to
hours
inLow
Power
Fast
Compare
all
models
Shop
Apple
Watch
Family
Setup
Your
family
joined
at
the
wrist
Now
family
members
who
don
t
have
an
iPhone
can
stay
in
touch
with
Apple
Watch
Learn
more
Shop
Apple
Watch
Family
Setup
One
iPhone
makes
everyone
Apple
Watch
tick
Family
Setup
Modal
With
Family
Setup
everyone
in
the
family
like
your
kids
and
older
adults
can
have
an
Apple
Watch
Even
those
who
don
t
have
their
own
iPhone
yet
It
s
all
the
connectivity
wellness
and
safety
features
you
love
for
everyone
you
love
Fun
and
independence
for
them
Peace
of
mind
for
you
Pairing
is
caring
Family
Setup
lets
you
pair
watches
for
your
children
and
older
family
members
to
your
iPhone
Everyone
gets
their
own
phone
number
and
you
can
manage
each
watch
using
the
Apple
Watch
app
on
your
iPhone
A
great
call
for
kids
With
Family
Setup
kids
get
to
experience
many
of
the
capabilities
of
Apple
Watch
They
can
stay
in
touch
with
the
people
you
approve
by
calling
and
texting
And
have
fun
streaming
music
downloading
apps
and
paying
for
stuff
with
Apple
Cash
Family
You
can
also
schedule
Schooltime
to
limit
Apple
Watch
features
when
they
need
to
focus
Even
the
Activity
rings
have
been
rethought
to
better
reflect
how
they
exercise
tracking
Move
minutes
instead
of
active
calories
And
with
location
sharing
you
ll
get
alerts
when
kids
get
home
or
aren
t
where
they
re
expected
to
be
A
smart
call
for
older
adults
Apple
Watch
can
open
up
a
whole
new
world
for
older
family
members
They
get
the
same
connectivity
benefits
of
Apple
Watch
like
calling
texting
and
location
sharing
to
stay
close
to
the
family
And
if
they
need
it
they
can
make
the
text
larger
or
bolded
Safety
features
Apple
Watch
comes
with
important
safety
features
like
fall
detection
which
can
detect
if
your
loved
ones
have
taken
a
hard
fall
If
it
senses
they
immobile
Emergency
SOS
will
connect
them
with
emergency
services
even
if
they
have
n
signed
up
for
a
cellular
plan
They
can
also
get
help
in
an
emergency
all
over
the
world
by
simply
pressing
and
holding
the
side
button
Health
features
Apple
Watch
can
alert
family
members
if
it
detects
unusually
high
or
low
heart
rates
as
well
as
measure
their
current
heart
rate
And
all
the
Activity
goals
including
Stand
hours
and
Exercise
minutes
can
be
customized
to
a
level
that
works
for
older
family
members
Apple
Fitness
Plus
From
HIIT
to
Meditation
there
s
something
for
everyone
Try
it
Learn
more
Get
credit
toward
a
new
Apple
Watch
With
Apple
Trade
In
just
give
us
your
eligible
Apple
Watch
and
get
credit
for
a
new
one
It
s
good
for
you
and
the
planet
Find
your
trade
value
Apple
Card
Monthly
Installments
Pay
for
your
new
Apple
Watch
over
months
interest
with
Apple
Card
Learn
more
Apple
Watch
Studio
Any
case
Any
band
Any
style
you
want
Create
your
style
Why
Apple
Watch
It
s
the
ultimate
device
for
a
healthy
life
Learn
more
watchOS
Everything
you
love
Like
never
before
Learn
more
Apple
Watch
essentials
Set
your
watch
to
stylish
Shop
the
latest
bands
Magic
runs
in
the
family
Explore
all
AirPods
models
and
find
the
best
ones
for
you
Learn
more
Fast
delivery
or
pickup
Enjoy
two
delivery
from
an
Apple
Store
free
delivery
or
easy
pickup
Learn
more
Apple
Card
Monthly
Installments
Pay
for
your
new
Apple
Watch
over
time
interest
when
you
choose
to
check
out
with
Apple
Card
Monthly
Installments
Learn
more
Get
help
buying
Have
a
question
Call
a
Specialist
or
chat
online
Call
Contact
us
Get
more
out
of
Apple
Watch
Apple
One
Bundle
up
to
six
Apple
services
And
enjoy
more
for
less
Try
it
Learn
more
Apple
Music
Over
million
songs
Start
listening
for
free
today
Try
it
Learn
more
Health
app
See
more
of
yourself
in
Health
Learn
more
Apple
Research
app
The
future
of
health
research
is
you
Learn
more
Apple
Footer
Apple
Card
Monthly
Installments
ACMI
is
a
APR
payment
option
that
is
only
available
if
you
select
it
at
checkout
in
the
U
for
eligible
products
purchased
at
Apple
Store
locations
apple
the
Apple
Store
app
or
by
calling
and
is
subject
to
credit
approval
and
credit
limit
See
support
for
more
information
about
eligible
products
APR
ranges
may
vary
based
on
when
you
accepted
an
Apple
Card
Cardholders
who
accept
an
Apple
Card
on
and
after
February
Variable
APRs
for
Apple
Card
other
than
ACMI
range
from
to
based
on
creditworthiness
Rates
as
of
February
Existing
cardholders
See
your
Customer
Agreement
for
applicable
rates
and
fee
If
you
buy
an
ACMI
eligible
product
by
choosing
to
pay
in
full
with
Apple
Card
instead
of
using
ACMI
that
purchase
is
subject
to
the
Apple
Card
variable
APR
not
APR
Taxes
and
shipping
on
ACMI
purchases
are
subject
to
the
variable
APR
not
APR
When
you
buy
an
iPhone
with
ACMI
you
ll
need
to
select
AT
T
T
or
Verizon
as
your
carrier
when
you
check
out
An
iPhone
purchased
with
ACMI
is
always
unlocked
so
you
can
switch
carriers
at
any
time
ACMI
is
not
available
for
purchases
made
online
at
the
following
special
stores
Apple
Employee
Purchase
Plan
participating
corporate
Employee
Purchase
Programs
Apple
at
Work
for
small
businesses
Government
and
Veterans
and
Military
Purchase
Programs
or
on
refurbished
devices
The
last
month
s
payment
for
each
product
will
be
the
product
s
purchase
price
less
all
other
payments
at
the
monthly
payment
amount
ACMI
financing
is
subject
to
change
at
any
time
for
any
reason
including
but
not
limited
to
installment
term
lengths
and
eligible
products
See
support
for
information
about
upcoming
changes
to
ACMI
financing
See
the
Apple
Card
Customer
Agreement
for
more
information
about
ACMI
financing
Apple
Fitness
requires
iPhone
or
later
or
Apple
Watch
Series
or
later
paired
with
iPhone
or
later
New
subscribers
only
after
trial
Plan
automatically
renews
until
cancelled
Terms
apply
Learn
more
at
apple
Irregular
rhythm
notification
requires
the
latest
version
of
watchOS
and
iOS
It
is
not
intended
for
use
by
people
under
years
old
or
those
who
have
been
previously
diagnosed
with
atrial
fibrillation
AFib
Cycle
Tracking
app
should
not
be
used
for
birth
control
or
to
diagnose
a
health
condition
Emergency
SOS
requires
a
cellular
connection
or
Wi
calling
with
an
internet
connection
from
your
Apple
Watch
or
nearby
iPhone
Requires
Apple
Watch
Series
SE
Ultra
or
later
For
a
list
of
supported
countries
and
regions
see
apple
Apple
Watch
SE
has
a
water
resistance
rating
of
meters
under
ISO
standard
This
means
that
it
may
be
used
for
shallow
activities
like
swimming
in
a
pool
or
ocean
Apple
Watch
SE
should
not
be
used
for
scuba
diving
waterskiing
or
other
activities
involving
high
water
or
submersion
below
shallow
depth
Water
resistance
is
not
a
permanent
condition
and
can
diminish
over
time
For
additional
information
see
support
Wireless
service
plan
required
for
cellular
service
Contact
your
service
provider
for
more
details
Connection
may
vary
based
on
network
availability
Check
apple
for
participating
wireless
carriers
and
eligibility
See
support
for
additional
setup
instructions
Not
all
features
will
be
available
if
the
Apple
Watch
is
set
up
through
Family
Setup
Wireless
service
plan
required
for
cellular
service
Contact
your
service
provider
for
more
details
Check
apple
for
participating
wireless
carriers
and
eligibility
All
battery
life
is
based
on
the
following
use
time
checks
notifications
minutes
of
app
use
and
a
workout
with
music
playback
from
Apple
Watch
via
Bluetooth
over
the
course
of
hours
Apple
Watch
SE
generation
GPS
usage
includes
connection
to
iPhone
via
Bluetooth
during
the
entire
test
Apple
Watch
SE
generation
GPS
Cellular
usage
includes
a
total
of
hours
of
LTE
connection
and
hours
of
connection
to
iPhone
via
Bluetooth
over
the
course
of
hours
Testing
conducted
by
Apple
in
August
using
preproduction
Apple
Watch
SE
generation
GPS
and
Apple
Watch
SE
generation
GPS
Cellular
each
paired
with
an
iPhone
all
devices
tested
with
prerelease
software
Battery
life
varies
by
use
configuration
cellular
network
signal
strength
and
many
other
factors
actual
results
will
vary
ECG
app
is
available
on
Apple
Watch
Series
and
later
excluding
Apple
Watch
SE
and
can
generate
an
ECG
similar
to
a
single
electrocardiogram
Intended
for
use
by
people
years
old
and
over
The
temperature
sensing
feature
is
not
intended
for
medical
use
Apple
Watch
Series
has
a
water
resistance
rating
of
meters
under
ISO
standard
This
means
that
it
may
be
used
for
shallow
activities
like
swimming
in
a
pool
or
ocean
However
Apple
Watch
Series
should
not
be
used
for
scuba
diving
waterskiing
or
other
activities
involving
high
water
or
submersion
below
shallow
depth
Water
resistance
is
not
a
permanent
condition
and
can
diminish
over
time
For
additional
information
see
support
All
battery
life
is
based
on
the
following
use
time
checks
notifications
minutes
of
app
use
and
a
workout
with
music
playback
from
Apple
Watch
via
Bluetooth
over
the
course
of
hours
Apple
Watch
Series
GPS
usage
includes
connection
to
iPhone
via
Bluetooth
during
the
entire
test
Apple
Watch
Series
GPS
Cellular
usage
includes
a
total
of
hours
of
LTE
connection
and
hours
of
connection
to
iPhone
via
Bluetooth
over
the
course
of
hours
Battery
life
in
Low
Power
Mode
is
based
on
the
following
use
time
checks
notifications
minutes
of
app
use
and
a
workout
with
music
playback
from
Apple
Watch
via
Bluetooth
over
the
course
of
hours
Apple
Watch
Series
GPS
usage
includes
connection
to
iPhone
via
Bluetooth
during
the
entire
test
Apple
Watch
Series
GPS
Cellular
usage
includes
on
LTE
connection
and
hours
of
connection
to
iPhone
via
Bluetooth
over
the
course
of
hours
Testing
conducted
by
Apple
in
August
using
preproduction
Apple
Watch
Series
GPS
and
Apple
Watch
Series
GPS
Cellular
each
paired
with
an
iPhone
all
devices
tested
with
prerelease
software
Battery
life
varies
by
use
configuration
cellular
network
signal
strength
and
many
other
factors
actual
results
will
vary
Charge
times
are
from
and
using
the
included
Apple
Watch
Magnetic
Fast
Charging
USB
Cable
Testing
conducted
by
Apple
in
August
using
preproduction
Apple
Watch
Series
GPS
and
Apple
Watch
Series
GPS
Cellular
each
paired
with
an
iPhone
all
devices
tested
with
prerelease
software
Apple
Watch
Magnetic
Fast
Charging
USB
Cable
Model
and
Apple
USB
Power
Adapter
Model
Charge
time
varies
with
region
settings
and
environmental
factors
actual
results
will
vary
Apple
Watch
Ultra
has
a
water
resistance
rating
of
meters
under
ISO
standard
It
may
be
used
for
recreational
scuba
diving
with
compatible
third
app
from
the
App
Store
to
meters
and
high
water
sports
Apple
Watch
Ultra
should
not
be
used
for
diving
below
meters
Water
resistance
is
not
a
permanent
condition
and
can
diminish
over
time
For
additional
information
see
support
All
battery
life
is
based
on
the
following
use
time
checks
notifications
minutes
of
app
use
and
a
workout
with
music
playback
from
Apple
Watch
via
Bluetooth
over
the
course
of
hours
Apple
Watch
Ultra
GPS
Cellular
usage
includes
a
total
of
hours
of
LTE
connection
and
hours
of
connection
to
iPhone
via
Bluetooth
over
the
course
of
hours
Battery
life
in
Low
Power
Mode
is
based
on
the
following
use
time
checks
notifications
minutes
of
app
use
and
two
workouts
with
music
playback
from
Apple
Watch
via
Bluetooth
over
the
course
of
hours
Apple
Watch
Ultra
GPS
Cellular
usage
includes
on
LTE
connection
and
hours
of
connection
to
iPhone
via
Bluetooth
over
the
course
of
hours
Testing
conducted
by
Apple
in
August
using
preproduction
Apple
Watch
Ultra
GPS
Cellular
paired
with
an
iPhone
all
devices
tested
with
prerelease
software
Battery
life
varies
by
use
configuration
cellular
network
signal
strength
and
many
other
factors
actual
results
will
vary
Charge
times
are
from
and
using
the
included
Apple
Watch
Magnetic
Fast
Charging
USB
Cable
Testing
conducted
by
Apple
in
August
using
preproduction
Apple
Watch
Ultra
GPS
Cellular
paired
with
an
iPhone
all
devices
tested
with
prerelease
software
Apple
Watch
Magnetic
Fast
Charging
USB
Cable
Model
and
Apple
USB
Power
Adapter
Model
Charge
time
varies
with
region
settings
and
environmental
factors
actual
results
will
vary
Trade
value
based
on
an
Apple
Watch
Series
Stainless
Steel
Cellular
in
good
condition
Trade
values
will
vary
based
on
the
condition
year
and
configuration
of
your
eligible
trade
device
Not
all
devices
are
eligible
for
credit
You
must
be
at
least
years
old
to
be
eligible
to
trade
in
for
credit
or
for
an
Apple
Gift
Card
Trade
value
may
be
applied
toward
qualifying
new
device
purchase
or
added
to
an
Apple
Gift
Card
Actual
value
awarded
is
based
on
receipt
of
a
qualifying
device
matching
the
description
provided
when
estimate
was
made
Sales
tax
may
be
assessed
on
full
value
of
a
new
device
purchase
In
trade
requires
presentation
of
a
valid
photo
ID
local
law
may
require
saving
this
information
Offer
may
not
be
available
in
all
stores
and
may
vary
between
in
and
online
trade
Some
stores
may
have
additional
requirements
Apple
or
its
trade
partners
reserve
the
right
to
refuse
or
limit
quantity
of
any
trade
transaction
for
any
reason
More
details
are
available
from
Apple
s
trade
partner
for
trade
and
recycling
of
eligible
devices
Restrictions
and
limitations
may
apply
The
Apple
One
free
trial
includes
only
services
that
you
are
not
currently
using
through
a
free
trial
or
a
subscription
Plan
automatically
renews
after
trial
until
cancelled
Restrictions
and
other
terms
apply
New
subscribers
only
after
free
trial
Plan
automatically
renews
after
trial
until
cancelled
The
ability
to
measure
blood
oxygen
is
no
longer
available
on
Apple
Watch
units
sold
by
Apple
in
the
United
States
beginning
January
These
are
indicated
with
part
numbers
ending
in
LW
Learn
how
to
identify
your
Apple
Watch
Learn
more
about
how
Apple
Card
applications
are
evaluated
at
support
To
access
and
use
all
Apple
Card
features
and
products
available
only
to
Apple
Card
users
you
must
add
Apple
Card
to
Wallet
on
an
iPhone
or
iPad
that
supports
and
has
the
latest
version
of
iOS
or
iPadOS
Apple
Card
is
subject
to
credit
approval
available
only
for
qualifying
applicants
in
the
United
States
and
issued
by
Goldman
Sachs
Bank
USA
Salt
Lake
City
Branch
If
you
reside
in
the
U
territories
please
call
Goldman
Sachs
at
with
questions
about
Apple
Card
Case
and
band
combinations
can
be
made
within
collections
Apple
Watch
and
Apple
Watch
only
Apple
Watch
Ultra
Apple
Watch
Series
and
Apple
Watch
SE
require
iPhone
Xs
or
later
with
iOS
or
later
Features
are
subject
to
change
Some
features
applications
and
services
may
not
be
available
in
all
regions
or
all
languages
View
complete
list
Bands
subject
to
availability
Apple
Watch
Shop
and
Learn
Shop
and
Learn
Store
Mac
iPad
iPhone
Watch
Vision
AirPods
TV
Home
AirTag
Accessories
Gift
Cards
Apple
Wallet
Apple
Wallet
Wallet
Apple
Card
Apple
Pay
Apple
Cash
Account
Account
Manage
Your
Apple
ID
Apple
Store
Account
iCloud
Entertainment
Entertainment
Apple
One
Apple
TV
Apple
Music
Apple
Arcade
Apple
Fitness
Apple
News
Apple
Podcasts
Apple
Books
App
Store
Apple
Store
Apple
Store
Find
a
Store
Genius
Bar
Today
at
Apple
Apple
Camp
Apple
Store
App
Certified
Refurbished
Apple
Trade
In
Financing
Carrier
Deals
at
Apple
Order
Status
Shopping
Help
For
Business
For
Business
Apple
and
Business
Shop
for
Business
For
Education
For
Education
Apple
and
Education
Shop
for
K
Shop
for
College
For
Healthcare
For
Healthcare
Apple
in
Healthcare
Health
on
Apple
Watch
Health
Records
on
iPhone
For
Government
For
Government
Shop
for
Government
Shop
for
Veterans
and
Military
Apple
Values
Apple
Values
Accessibility
Education
Environment
Inclusion
and
Diversity
Privacy
Racial
Equity
and
Justice
Supplier
Responsibility
About
Apple
About
Apple
Newsroom
Apple
Leadership
Career
Opportunities
Investors
Ethics
Compliance
Events
Contact
Apple
More
ways
to
shop
Find
an
Apple
Store
or
other
retailer
near
you
Or
call
United
States
Copyright
Apple
Inc
All
rights
reserved
Privacy
Policy
Terms
of
Use
Sales
and
Refunds
Legal
Site
Map
