авторский
право
добросовестный
использование
контент
YouTube
работать
YouTube
переходить
контент
наш
принцип
защита
опасный
контент
YouTube
защищать
зритель
недопустимый
материал
противостояние
ненависть
YouTube
защищать
пользователь
дискриминация
оскорбление
угроза
борьба
недостоверный
информация
YouTube
бороться
недостоверный
информация
противодействие
радикализм
YouTube
бороться
радикальный
контент
сотрудничество
исследователь
YouTube
сотрудничать
исследователь
предотвращение
предвзятость
делать
YouTube
допускать
предвзятость
алгоритм
безопасность
ребенок
делать
YouTube
защита
ребенок
защита
данный
пользователь
YouTube
обеспечивать
конфиденциальность
пользователь
защита
авторский
правый
YouTube
защищать
авторский
контент
распределение
доход
YouTube
источник
доход
благополучие
цифровой
мир
YouTube
помогать
зритель
формировать
полезный
цифровой
привычка
функция
поиск
YouTube
поиск
YouTube
помогать
находить
нужный
контент
рекомендовать
видео
рекомендовать
видео
который
интересно
посмотреть
монетизация
автор
автор
зарабатывать
YouTube
трансляция
общаться
аудитория
реальный
время
настройка
настройка
конфиденциальность
защищать
данные
пользователь
настройка
конфиденциальность
доступный
настройка
рекламный
предпочтение
работать
наш
реклама
управлять
настройка
родительский
контроль
убеждаться
YouTube
подходить
весь
семья
автовоспроизведение
автовоспроизведение
отключать
правило
обзор
правило
правило
YouTube
помогать
поддерживать
безопасность
платформа
правило
сообщество
правило
действовать
YouTube
авторский
право
помогать
автор
управлять
контент
правило
монетизация
автор
мочь
монетизировать
контент
рамка
партнерский
программа
YouTube
удаление
основание
требование
местный
законодательство
политика
YouTube
отношение
контент
нарушать
местный
законодательство
достижение
борьба
опасный
контент
обеспечивать
соблюдение
правило
отношение
опасный
контент
статистика
история
успех
автор
YouTube
менять
свой
жизнь
жизнь
целый
сообщество
культура
тренд
составлять
представление
современный
автор
исполнитель
правило
авторский
право
обзор
исключение
авторский
право
жалоба
реализация
авторский
правый
заключаться
суть
авторский
право
автор
мочь
загружать
видео
который
создавать
который
разрешение
использование
слово
разрешение
публиковать
добавлять
свой
ролик
контент
право
принадлежать
автор
это
мочь
например
фрагмент
программа
музыкальный
трек
видео
создавать
пользователь
исключение
авторский
право
исключение
позволять
использовать
материал
защищать
авторский
право
разрешение
владелец
соблюдение
определенный
условие
сша
самый
распространять
вид
исключение
авторский
право
это
добросовестный
использование
решать
относиться
иной
случай
добросовестный
использование
суд
учитывать
четыре
фактор
цель
публикация
характер
контент
защищать
авторский
право
размер
значимость
использовать
фрагмент
относительно
весь
работа
также
последствие
точка
зрение
возможность
дальнейший
продажа
прибыльность
оригинальный
контент
разрешаться
использовать
материал
цель
освещение
новость
комментирование
критика
принцип
добросовестный
использование
направлять
защита
свобода
самовыражение
некоторые
страна
принимать
романо
право
включая
многие
страна
ес
решение
исключение
авторский
право
приниматься
исходить
какой-либо
фактор
учет
относиться
использование
определенный
категория
категория
перечислять
статья
директива
авторский
право
единый
цифровой
рынок
ес
это
цитирование
критика
обзор
карикатура
пародия
стилизация
повседневный
речь
слово
мочь
использоваться
привычный
значение
также
закреплять
законодательство
каждый
страна
ес
трактоваться
определенный
образ
национальный
суд
европейский
суд
кроме
важно
учитывать
контекст
использоваться
материал
нужно
исключение
авторский
право
цель
находить
компромисс
требование
правообладатель
свобода
автор
самовыражение
некоторые
страна
например
австралия
великобритания
канада
придерживаться
смешанный
подход
суд
учитывать
соблюдаться
критерий
добросовестный
использование
относиться
контент
определенный
категория
категория
относиться
цитирование
обычный
часть
освещение
новость
критика
обзор
также
карикатура
пародия
стилизация
большинство
страна
подписывать
бернский
конвенция
международный
соглашение
который
позволять
использовать
контент
определенный
цель
включая
освещение
новость
цитирование
хотя
мир
правило
отношение
исключение
авторский
право
похожий
закон
разный
страна
значительный
отличие
поэтому
мочь
называть
строго
обозначать
правило
который
подходить
каждый
случай
окончательный
решение
принимать
суд
создавать
YouTube
каждый
возможность
узнавать
мир
вокруг
выражать
исключение
авторский
право
очень
важный
это
поддерживать
свобода
творчество
поэтому
просить
правообладатель
сначала
проверять
подпадать
использование
контент
исключение
прежде
подавать
запрос
удаление
видео
связь
нарушение
авторский
правый
уверять
достигать
баланс
интерес
правообладатель
свобода
самовыражение
автор
также
создавать
новый
сервис
который
помогать
находить
информация
делиться
интересный
материал
создавать
контент
наш
фонотека
собирать
качественный
музыкальный
запись
звуковой
эффект
который
использовать
опасение
нарушать
чей-то
авторский
право
YouTube
Shorts
позволять
создавать
короткий
видео
основа
контент
автор
разрешение
также
продолжать
улучшать
каталог
Creator
Music
автор
участвовать
партнерский
программа
YouTube
мочь
приобретать
лицензия
использование
коммерческий
музыка
свой
видео
делиться
доход
правообладатель
ресурс
добросовестный
использование
правообладатель
пожаловаться
нарушение
пользователь
YouTube
доступ
инструмент
защита
авторский
правый
предоставлять
правообладатель
наиболее
подходить
функция
соответствие
объем
опубликовывать
контент
доступный
возможность
ответственный
управление
несколько
способ
заявлять
нарушение
авторский
правый
веб
автор
мочь
попросить
удалять
нелегальный
копия
свой
материал
помощь
форма
отправка
жалоба
закон
сша
авторский
право
цифровой
эпоха
DMCA
это
самый
простой
способ
доступный
любой
пользователь
язык
инструмент
поиск
совпадение
инструмент
основывать
технология
поиск
совпадение
система
Content
ID
доступный
миллион
канал
позволять
автор
находить
полностью
идентичный
копия
материал
который
опубликовывать
канал
обнаруживать
совпадение
автор
отправлять
запрос
удаление
видео
написать
владелец
канал
просто
отправлять
совпадение
архив
хотеть
предпринимать
никакой
действие
любой
пользователь
который
ранее
успешно
отправлять
запрос
удаление
помощь
веб
запрашивать
доступ
это
инструмент
Content
ID
система
Content
ID
предназначать
требоваться
расширять
возможность
управление
право
суть
это
система
отслеживание
видео
правообладатель
загружать
ролик
качество
цифровой
отпечаток
проверять
YouTube
копия
это
контент
какой-либо
пользователь
загружать
видео
система
Content
ID
проверять
наличие
совпадение
база
данный
совпадение
находить
выполняться
действие
заранее
заданный
владелец
контент
настройка
полный
блокировка
видео
это
случай
пользователь
загружать
ролик
получать
предупреждение
нарушение
авторский
правый
добавление
реклама
цель
монетизация
некоторые
случай
доход
делиться
правообладатель
пользователь
загружать
видео
отслеживание
статистика
просмотр
большинство
случай
правообладатель
нужно
заявлять
нарушение
вместо
удалять
видео
добавлять
реклама
начинать
получать
доход
ресурс
инструмент
защита
авторский
правый
YouTube
предупреждение
нарушение
авторский
правый
YouTube
поступать
нарушитель
авторский
правый
правообладатель
подавать
обоснованный
жалоба
веб
удалять
видео
выносить
опубликовывать
пользователь
предупреждение
нарушение
авторский
правый
предупреждение
день
аккаунт
пользователь
удалять
вместе
связанный
канал
также
давать
возможность
исправлять
ситуация
пользователь
подождать
пока
истекать
срок
действие
предупреждение
день
отправлять
встречный
уведомление
попросить
автор
отзывать
претензия
система
Content
ID
работать
иначе
обнаруживать
совпадение
действие
отношение
нелегальный
копия
предпринимать
автоматически
зависимость
настройка
заданный
правообладатель
мочь
заблокировать
видео
монетизировать
включать
отслеживание
просмотр
это
пользователь
загружать
ролик
получать
предупреждение
нарушение
авторский
правый
ресурс
работать
предупреждение
нарушение
авторский
правый
отзывать
жалоба
нарушение
авторский
правый
подавать
встречный
уведомление
статья
тема
правило
сообщество
подробно
защита
авторский
правый
подробно
правило
монетизация
подробно
социальный
сеть
YouTube
YouTube
блог
работать
YouTube
вакансия
пресса
YouTube
Culture
Trends
продукт
YouTube
Kids
YouTube
Music
YouTube
Originals
YouTube
Podcasts
YouTube
Premium
YouTube
Select
YouTube
Studio
YouTube
TV
бизнес
разработчик
реклама
YouTube
автор
создание
контент
YouTube
ребенок
программа
исследование
YouTube
каталог
сертифицированный
компания
YouTube
музыкант
YouTube
Creators
YouTube
NextUp
YouTube
VR
наш
обязательство
Creators
for
Change
CSAI
Match
YouTube
общество
YouTube
продукт
бизнес
автор
наш
обязательство
YouTube
блог
работать
YouTube
вакансия
пресса
YouTube
Culture
Trends
YouTube
Kids
YouTube
Music
YouTube
Originals
YouTube
Podcasts
YouTube
Premium
YouTube
Select
YouTube
Studio
YouTube
TV
разработчик
реклама
YouTube
создание
контент
YouTube
ребенок
программа
исследование
YouTube
каталог
сертифицированный
компания
YouTube
музыкант
YouTube
Creators
YouTube
NextUp
YouTube
VR
Creators
for
Change
CSAI
Match
YouTube
общество
правило
безопасность
авторский
право
использование
бренд
конфиденциальность
условие
использование
Cookies
management
controls
справка
English
Deutsch
English
Australia
Nederlands
български
българия
Brasil
English
Canada
Deutsch
Deutschland
dansk
Danmark
eesti
Eesti
suomi
Suomi
France
hrvatski
Hrvatska
magyar
Bahasa
Indonesia
Bahasa
Indonesia
English
Ireland
English
India
italiano
Italia
Lietuva
Deutsch
Luxemburg
Latvija
Nederlands
Nederland
polski
Polska
Portugal
русский
россия
svenska
Sverige
Slovenija
Slovensko
English
United
Kingdom
Nam
Deutsch
Belgien
English
Belgium
English
Malta
Estados
Unidos
Belgique
Canada
Luxembourg
Gaeilge
Malti
Kiswahili
