электронный
буква
литературный
премия
digital
диктор
лонг
главнуюшорты
отправлять
заявка
премия
переходить
страница
чтец
автор
лонг
трансляция
главный
номинациядль
автор
главнаяноминациядль
автор
книга
год
скрытый
королевство
ядар
книга
первый
путешествие
туда
жить
мертвыеабрамкин
елена
печать
клятвыабрамович
евгений
ребенок
полутениагатова
кристина
мужик
воскресать
вторникамазар
даниил
навигаторалександра
райт
лишниеалексеева
ольга
расстояние
кадраанастасия
астра
темноморьеанна
т
ф
преданный
печать
одиночестваашир
хаан
незавидный
холостякайрашин
олег
депортациябалашов
виктория
вино
нотка
смертибатищев
валентина
настасьябанников
иван
сверхубатчаев
яна
беркутч
украсть
тенибекка
чейз
ключ
опасный
дверибуланова
наталья
оборотень
объявление
запретный
парабурмистров
денис
эпоха
маска
книга
первый
демон
стальбушмарина
юлия
напрасный
надеждавать
твайз
поэма
любовьваль
саар
печать
безмолвиявер
ард
шесть
восьмивелес
анна
черный
человеквинокурова
майя
проклятый
против
судьбывилонова
мария
шаманвлад
райбер
твой
друзьяволчяк
татьяна
холодный
голос
академия
редкий
дар
высоковский
евгения
странный
школа
город
дождявзгляд
дмитрий
день
великий
пустошь
изгойвивьен
таня
мистериум
поместье
голденбурггаврилов
александр
помощник
шериф
иной
деламгектор
шульц
семьягаршина
александра
хранительница
источниковголубицкая
марина
писатель
ключ
чердакагостевский
алексей
сэмпайгорелов
святослав
книжный
маньякгригоров
юлия
наследник
родовгромова
екатерина
пока
живыгрон
ольга
кольцо
повелитель
туман
невеста
драконагреза
регина
пока
небо
молчатД
ковальск
последний
фотодаркмун
наташа
мертвый
бабочкидым
наталья
дело
N
потрошителядэйли
скай
самый
темный
часдеть
нира
призрак
зазеркальяершов
елена
медвежий
молокоесин
наталья
время
годаепифанов
николай
дорогой
мартажарков
алексей
анна
адептка
демон
плохой
научитзагора
валерий
удаганказайцева
мария
кошка
жить
крышезлата
иволга
время
вспоминатьиделия
марс
сторона
двериильичев
евгений
последний
контактиман
кальби
любовь
адмиралаирад
нури
золото
кровикадулина
татьяна
проклятый
берегкарпова
наталья
оборотень
мир
сумереккатерина
Ши
служба
контроль
убивать
стажеракобер
дмитрий
лиса
дракон
история
химикокогтев
рина
однажды
замкекононова
татьяна
гроза
моремкопатько
евгений
предел
антарктидыкорнелюк
алексей
головоломка
бизнес
ксения
диалогикушкин
милена
свекровь
чудовищакузнецов
евгений
псыгыпский
душителькорра
кристина
заноза
ректор
переполох
академия
тьмаговкрис
джостный
легенда
трехглавый
змиекруминьш
ирина
дорога
навьлан
легкий
лисенок
прочий
неприятность
бандиталаска
анджей
остров
звездлебедь
никита
жребий
ваалаленева
елена
тайна
лоэнгриналемешев
ирина
сторона
памятилесневская
вероника
сбегать
жена
босс
развод
луговцова
полина
тролльхолляпин
елена
радогощьлунин
алиса
фонтанка
ожидаться
солнечный
ветермакаров
сергей
адвокат
братство
враждымамлеев
наталья
красавица
драконищемамон
антон
власть
кровавый
лунымалинина
маргарита
поздравлять
смертьюмаркмирова
екатерина
селектамельников
сергей
хозяин
остров
эйлин
наталья
тайна
крепость
бомарсундмихайлов
павел
эхо
ужасамирослава
чайка
прозрачный
доммуравская
ирина
перст
судьбынекрасова
саша
гора
обещать
тебянестерин
елена
ауриканикишин
николай
орден
превыше
всегонова
мир
ведьмин
пес
детство
цербераободников
николай
сирена
амаяонегина
женя
Escape
выходпальмира
керлис
повелительница
тьма
офисепатеев
тимур
патерпашкова
ксения
дар
прощенияпетров
елена
любимый
кажется
робот
пузырев
сергей
этюд
чернильный
тонахрадов
ирина
алленбергредченко
татьяна
бог
проклятыхруфов
анна
смерть
пахнуть
маргариткамироманова
елена
черт
куличкахрусинова
алиса
мальчик
который
умеррусич
антон
последний
оплотраевский
татьяна
равно
будемсакрытин
мария
смертнаясам
олег
знак
зажигалкисаяна
гэбб
игроксерж
винтеркей
антидемонсерпентинский
дина
хитничий
жиласергиенко
евгения
луна
укрываться
волна
начинать
сначалаславская
ирина
судьба
убежишьсмеклоф
жить
яркий
смирнов
ольга
вслед
тень
книга
перваяструкова
марина
хозяйка
рассказ
человек
нелюдяхсоколова
наталья
лимбсоболева
ульяна
позвать
менясоловьев
игорь
пока
цвести
смородинасоветовый
валерия
золотой
кнопка
царицыстаржинский
людмила
побег
детстватимофеева
алена
темный
мир
сарытимошенко
наталья
хранительница
болоттрогон
александр
крепость
дьяволатур
кирилл
первый
проекцияувалов
валерий
звездыфиндр
милослава
песня
русалкифить
елена
процент
совпаденияфильченкова
татьяна
пепел
возродитсяхельга
петерсон
код
красныйхомутовская
мария
башня
грифоновчайковская
диана
сказание
лесныхчерриз
ксения
поклонницачернявский
владимир
телефонистшитов
екатерина
домовушкаштольман
виталий
холостяк
выживать
разводаэллисон
майклс
тень
водойэльберг
анастасия
тишина
эфиреэмили
азимар
приводить
мечтыэмиль
элькант
поймать
людоедаюлия
квартирый
королевство
евыякжин
вероника
побег
атахэйлаяновский
ирина
девятый
арканиз
книга
лонг
выбирать
победитель
спецноминация
номинациядль
автор
главнаяноминациядль
автор
дебют
год
бондарчук
надежда
агония
земной
сплавабояровская
валерия
ESPБыстрова
анна
мир
иллюзия
мистер
редфордавенер
незабываемый
путешествие
планетыгеорг
отахов
летопись
летать
остров
книга
терние
терниямдашкова
марина
арка
новый
голландиизиланова
марта
китеже
возвращение
кузар
часть
IКасьян
юлия
отшиб
полумраккарина
финкель
безднакрис
кэмбелл
крамблроулевченко
виталий
серенький
волчоклабунсский
анжелика
Arbo
de
vivo
предел
садамайоров
жанна
детективный
агентство
джулаймиронов
иван
квартира
номер
северская
магия
серебряный
танцамузыченко
виталий
жизнь
человек
глаз
кроликовольга
коля
убийство
бухта
ангеловпустовойтов
сергей
наследствосербин
лариса
порт
прага
рим
марсельтусь
топалова
гость
сосед
гайд
владивостокухаррисон
темирбулат
юрий
интернатский
сентиментальность
бой
неуместнатетерин
анна
повелительница
бурьчетвериков
елена
счастливый
тропинка
валентиныхарламова
надежда
змея
цветокэрр
алексей
ана
несовременный
романясоль
однажды
становиться
снегомглавный
номинациядль
чтец
голос
год
главнаяноминациядль
чтец
спец
чтец
алина
рай
стражалехин
илья
пожарский
зверев
BadCatStudio
бал
хризантемархипов
михаил
свет
это
мыберезина
елена
буркин
историибеляев
наталья
светорад
янтарнаябулавин
вячеслав
сон
летний
ночьбориарт
александра
стеклянный
домбраун
егор
антиутопия
господин
шивинаващенко
семен
сон
наявувасильева
олеся
свободный
отношение
боссомветлицкая
лина
госпожа
северный
земля
право
оборотнявильям
киссинджер
крепостнаягорыня
галина
остановка
бесконечностиголовина
надежда
однугорбылев
владислав
павшиегордиенко
татьяна
Escape
выходгрэй
аня
родной
кровь
часть
сергей
правило
солодедушка
перун
сторона
чернота
ларина
взрслый
людиегоров
валерия
пари
милорд
зиман
яна
мариигнатьев
анжелика
игрушка
смертииванов
александр
элирмы
VIКузнецов
дмитрий
игра
наблюдающегокурнай
сергей
старателькуликов
ольга
тень
водойконьтяков
екатерина
веснянкалоз
попадаться
бабник
лилия
ива
последний
письмо
уходить
летамакаров
римма
ведьма
открытиямаликов
анастасия
казначей
смертимайский
виктория
аракчеевский
сынокметелица
григорий
свечной
башнямило
манышева
идеальный
парамиролюбов
тася
дилетантка
чисто
английский
привидениемироненко
юрий
псих
сила
ум
надомухина
екатерина
вершитель
книга
тень
чернобоганекрячий
александр
санай
сарацин
изюминканордшир
михаил
плато
ветровосоченко
екатерина
наследницапананкова
наталья
поместье
бэкхауспаршаков
людмила
музыкальный
шкатулка
анна
монспермяков
екатерина
пробуждениероман
катя
золотой
кнопка
царицыроманова
наташа
мужчина
сон
мариярыжов
юля
семьясоловьев
алексей
номинарсуменков
владимир
ковчег
AViСиняя
краска
сюрприз
покойникасулимов
виталий
джиразольстряпко
анастасия
напарник
киборгсубботин
федор
смерть
аплодисментыаркадьевич
романовиммигрантский
сказкисоколова
алиса
менять
душтроицкий
олег
брянский
капкантрунин
ирина
бросать
находить
себяудел
сергей
ревизор
возвращение
ссср
оля
проклятие
принцесса
алтаяфинагин
андрей
оружейный
баронфролова
наталья
хозяйка
проклятый
островашустова
юлия
жена
секрет
попаданка
дракон
параширокий
ксения
мама
эланский
катерина
дар
тьмыюджин
найт
советникященко
игорь
сага
бессмертный
дух
книга
молитва
ПрокисаOtrashevska
наталия
близкие
людиStrega
частица
магия
огонь
маг
наш
миреSibiryak
линия
обесточенаиз
чтец
лонг
выбирать
победитель
спецноминация
номинациядль
чтец
спец
чтец
дебют
год
главнаяноминациядль
чтец
Alex
семья
волшебниковагма
колдун
мечтыандронов
роман
мир
историибабинцев
евгений
контрабандист
сталинавойнов
елена
поэма
голодный
человекевишневецкая
ольга
дом
вверх
дномверико
мужчина
игорь
страна
вечный
детстваекатерина
катерина
викторовна
манаков
философия
жизнь
стихахиванов
юрий
душенькакотовый
ана
марсианский
туманамикотов
маша
подсолнухильвов
александра
заразамаштаков
ксения
замуж
днейрязанцев
мария
яшка
страна
нарисовать
картинростова
наталья
хороший
обществопарменова
галина
кольцо
златовласый
ведьмыпавлюков
борис
дворец
камышахпожидаева
мария
волга
впадать
гудзонпогорелый
ирина
смородинкапылин
надежда
логово
снежный
барсасеменова
рита
новый
путьтемников
максим
плен
лесной
духачеремис
александр
маленький
девочка
обретение
семьичеренкова
марина
зеркалешвецов
игорь
одуванчикспецноминациидля
автор
спец
автор
актуальность
вне
временисамыя
неоднозначный
финаллюбовь
каждый
словенереальный
реальностьроман
взросленияактуальность
вне
временисамыя
неоднозначный
финаллюбовь
каждый
словенереальный
реальностьроман
взросленияваль
саар
печать
безмолвиявинокурова
майя
проклятый
против
судьбыесин
наталья
время
год
корнелюк
алексей
головоломка
бизнес
ксения
диалогилабунсский
анжелика
Arbo
de
vivo
предел
садалемешев
ирина
сторона
памятилунин
алиса
фонтанка
ожидаться
солнечный
ветермузыченко
виталий
жизнь
человек
глаз
кролик
онегина
женя
Escape
выходрадов
ирина
алленберграевский
татьяна
равно
будемрегина
греза
пока
небо
молчатруфов
анна
смерть
пахнуть
маргариткамисам
олег
знак
зажигалкисерпентинский
дина
хитничий
жиластрукова
марина
хозяйка
рассказ
человек
нелюдяхтемирбулат
юрий
интернатский
сентиментальность
бой
неуместнатопалова
туся
гость
сосед
гайд
владивостокуштольман
виталий
холостяк
выживать
разводаэрр
алексей
ана
несовременный
романюлия
квартирыА
скрытый
королевство
ядар
книга
первый
путешествие
туда
жить
мертвыеабрамович
евгений
ребенок
полутениагатова
кристина
мужик
воскресать
вторникамазар
даниил
навигаторалександра
райт
лишний
балашов
виктория
вино
нотка
смертибушмарина
юлия
напрасный
надеждавелес
анна
черный
человеквер
ард
шесть
восьмивилонова
мария
шаманвлад
райбер
твой
друзьягаврилов
александр
помощник
шериф
иной
деламгорелов
святослав
книжный
маньякгостевский
алексей
сэмпайд
ковальск
последний
фотодаркмун
наташа
мертвый
бабочкидея
нира
призрак
зазеркальядым
наталья
дело
N
потрошителядэйли
скай
самый
темный
часершов
елена
медвежий
молокозагора
валерий
удаганказлатый
иволга
время
вспоминатьиделия
марс
сторона
двериирад
нури
золото
кровикадулина
татьяна
проклятый
берегкасьян
юлия
отшиб
полумраккогтев
рина
однажды
замкекопатько
евгений
предел
антарктидыкузнецов
евгений
псыгыпский
душительлебедь
никита
жребий
ваалалевченко
виталий
серенький
волчокленева
елена
тайна
лоэнгриналуговцова
полина
тролльхолмайоров
жанна
детективный
агентство
джулаймакаров
сергей
адвокат
братство
враждымалинина
маргарита
поздравлять
смертьюмамон
антон
власть
кровавый
лунымаркмирова
екатерина
селектамельников
сергей
хозяин
остров
эйлин
наталья
тайна
крепость
бомарсундмиронов
иван
квартира
номер
павел
эхо
ужасанекрасова
саша
гора
обещать
тебяободников
николай
сирена
амаяольга
коля
убийство
бухта
ангеловпашкова
ксения
дар
прощенияпузырев
сергей
этюд
чернильный
тонахпустовойтов
сергей
наследствославский
ирина
судьба
убежишьтаня
вивьен
мистериум
поместье
голденбургтимошенко
наталья
хранительница
болотфиль
елена
процент
совпаденияфинкель
карина
безднахомутовская
мария
башня
грифоновшитовый
екатерина
домовушкаэллисон
майклс
тень
водойэльберг
анастасия
тишина
эфиреэмиль
элькант
поймать
людоедать
королевство
евыалексеева
ольга
расстояние
кадраашир
хаан
незавидный
холостякбатищев
валентина
настасьябекка
чейз
ключ
опасный
дверибуланова
наталья
оборотень
объявление
запретный
парабыстров
анна
мир
иллюзия
мистер
редфордавать
твайз
поэма
любовьголубицкая
марина
писатель
ключ
чердакадашкова
марина
арка
новый
голландиижнец
анна
адептка
демон
плохой
научитзайцева
мария
кошка
жить
крышеиман
кальби
любовь
адмиралалан
легкий
лисенок
прочий
неприятность
бандиталесневская
вероника
сбегать
жена
босс
развод
мила
северская
магия
серебряный
танцамирослава
чайка
прозрачный
домольга
грон
кольцо
повелитель
туман
невеста
драконасербин
лариса
порт
прага
рим
марсельсергиенко
евгения
луна
укрываться
волна
начинать
сначаласмирнов
ольга
вслед
тень
книга
перваясоболева
ульяна
позвать
менясоветовый
валерия
золотой
кнопка
царицыфиндр
милослава
песня
русалкихарламова
надежда
змея
цветокхельга
петерсон
код
красныйчерриз
ксения
поклонницаэмили
азимар
приводить
мечтыякжин
вероника
побег
атахэйлаабрамкин
елена
печать
клятвыайрашин
олег
депортацияанна
т
ф
преданный
печать
одиночествабанников
иван
сверхубурмистров
денис
эпоха
маска
книга
первый
демон
стальвзгляд
дмитрий
день
великий
пустошь
изгойволчяк
татьяна
холодный
голос
академия
редкий
дар
гаршина
александра
хранительница
источниковгеорг
отахов
летопись
летать
остров
книга
терние
терниямгригоров
юлия
наследник
родовгромова
екатерина
пока
живыжарки
алексей
евгений
последний
контакткарпова
наталья
оборотень
мир
сумереккатерина
Ши
служба
контроль
убивать
стажеракобер
дмитрий
лиса
дракон
история
химикокононова
татьяна
гроза
моремкрис
джостный
легенда
трехглавый
змиекрис
кэмбелл
крамблроукристина
корра
заноза
ректор
переполох
академия
тьмаговкруминьш
ирина
дорога
навькушкин
милена
свекровь
чудовищаласка
анджей
остров
звездмамлеев
наталья
красавица
драконищемуравская
ирина
перст
судьбынестерин
елена
ауриканикишин
николай
орден
превыше
всегонова
мир
ведьмин
пес
детство
церберапальмира
керлис
повелительница
тьма
офисепатеев
тимур
патерпетров
елена
любимый
кажется
робот
редченко
татьяна
бог
проклятыхроманова
елена
черт
куличкахрусич
антон
последний
оплотсаяна
гэбб
игроксерж
винтеркей
антидемонсмеклоф
жить
яркий
соколов
наталья
лимбсоловьев
игорь
пока
цвести
смородинатимофеева
алена
темный
мир
сарытрогон
александр
крепость
дьяволатур
кирилл
первый
проекцияувалов
валерий
звездыфильченкова
татьяна
пепел
возродитсячайковская
диана
сказание
лесныхчернявский
владимир
телефонистяновский
ирина
девятый
арканясоль
однажды
становиться
снегоманастасия
астра
темноморьебатчаев
яна
беркутч
украсть
тенибондарчук
надежда
агония
земной
сплавабояровская
валерия
ESPВысоковская
евгения
странный
школа
город
дождягектор
шульц
семьяепифанов
николай
дорогой
мартазиланова
марта
китеже
возвращение
кузар
часть
IЛяпина
елена
радогощьрусинова
алиса
мальчик
который
умерсакрытин
мария
смертнаястаржинский
людмила
побег
детстватетерин
анна
повелительница
бурьхаррисон
венера
незабываемый
путешествие
планетычетвериков
елена
счастливый
тропинка
валентиныспецноминациидля
чтец
спец
чтец
хороший
озвучка
жанр
остросюжетный
проза
хороший
озвучка
жанр
любовный
роман
хороший
озвучка
жанр
фэнтези
фантастика
хороший
дуэтлучший
озвучка
жанр
остросюжетный
проза
хороший
озвучка
жанр
любовный
роман
хороший
озвучка
жанр
фэнтези
фантастика
хороший
дуэтагм
деревенский
встречиалехин
илья
пожарскийандронов
роман
зверь
аркадьевич
романов
отвагуархипов
михаил
пасть
дракулыбеляев
наталья
визит
черный
вдовыващенко
семен
золотой
правило
этикиверико
мужчина
киссинджер
венчур
риск
ради
добычивишневецкая
ольга
оставаться
надеждавойнов
елена
покаянный
рукописьгорбылев
владислав
павшиегордиенко
татьяна
любитьгорыня
галина
это
правда
грэй
аня
металлический
генгусаков
сергей
двадцать
пять
рассказ
призракахдемидов
игорь
моросьегоров
валерия
невольница
восточный
пустыня
страсть
демоназиман
яна
грымза
камелиямииванов
юрий
вернуться
кладбище
усталыеив
лилия
дом
торфяной
болотаигнатьев
анжелика
идентичностьконьтяков
екатерина
разрушать
планетакотовый
ана
эра
дракон
сборник
рассказовкузнецов
дмитрий
монстр
твой
шкафукуликов
ольга
тень
водойкурнай
сергей
погрешностьльвов
александра
заразамайский
виктория
зло
имя
твоеммаштаков
ксения
галактика
вкус
ромаметелица
григорий
врановый
погонямиролюбов
тася
дилетантка
чисто
английский
привидениемироненко
юрий
сторонумухина
екатерина
жертванекрячий
александр
нелюдьнордшир
михаил
колыбельный
смертиосоченко
екатерина
хозяйка
рассказ
человек
нелюдяхпавлюков
борис
дворец
камышахпананкова
наталья
поместье
бэкхауспарменова
галина
самый
надежноепаршаков
людмила
музыкальный
шкатулка
анна
монспермяков
екатерина
воздушный
замок
вид
пропастьпожидаева
мария
волга
впадать
гудзонпылин
надежда
дитя
порок
мститьростова
наталья
хороший
обществосеменова
рита
убивать
бессмертиесиний
краска
сюрприз
покойникасоколова
алиса
дамский
вендеттасубботин
федор
смерть
аплодисментысулимов
виталий
билет
таиландсуменков
владимир
филер
уголовный
сыскаудел
сергей
убийство
темзойфедорищев
оля
проклятие
принцесса
алтаяфинагин
андрей
оружейный
барон
марина
рекламный
паузашвецов
игорь
очевидный
метаморфозаширокий
ксения
алисашустова
юлия
призрак
человечность
план
альмондиэланский
катерина
дар
тьмыюджин
найт
симбиоз
ген
древнихященко
игорь
коронный
дознатчик
АгентSibiryak
мир
душ
технология
обманаStrega
неевклидов
пространствоагма
измена
вернуть
женуалина
рай
аромат
тьмыандрей
зверев
BadCatStudio
бал
хризантембеляев
наталья
свенельда
хазарский
мечберезина
елена
дорога
оют
наперегонки
время
оют
бориарт
александра
мужской
вакансия
женщина
борт
несчастьювасильева
олеся
свободный
отношение
боссомверико
разглядеть
меняветлицкая
лина
вишневый
счастие
оборотнейвильям
киссинджер
прощание
любить
игрушкойвишневецкая
ольга
спорить
разводиться
войнов
елена
звездный
зелье
люцифераголовина
надежда
гордиенко
татьяна
Escape
выходгусаков
сергей
половинка
насев
ларина
взрослый
людиекатерина
катерина
викторовна
манаков
эмоция
любовьзиман
яна
марииванов
юрий
бортоломеоив
лилия
последний
письмо
уходить
летаконьтяков
екатерина
река
течь
море
книга
II
каждый
своекотов
ана
случайный
соседкузнецов
дмитрий
поручик
ржевский
дама
солонкойлоз
попадаться
бабник
майский
виктория
леди
далекий
свет
макаров
римма
серебряный
кожа
история
который
невозможно
оторватьсямаликова
анастасия
часы
полночьмаштаков
ксения
замуж
днейметелица
григорий
сумасшедшаямило
манышева
эффект
федорамиролюбов
тася
агентство
последний
шанс
екатерина
целовать
рименордшир
михаил
колыбельный
смертиосоченко
екатерина
вируспарменова
галина
случайный
снегурочкапаршаков
людмила
влюбленный
памятипермяков
екатерина
злодей
романапогорелый
ирина
подменапылин
надежда
твой
невестароман
катя
почувствовать
это
сновароманова
наташа
птичкаростова
наталья
отец
бывшегорыжов
юля
согревать
нежно
босс
анастасия
напарник
киборгсиний
краска
тьма
кровисубботин
федор
инициация
отчаяние
сулимов
виталий
любить
нельзятемников
максим
дорога
диснейлендфедорищев
оля
папа
сладкий
булочкифролова
наталья
телохранитель
стервычеремис
александр
последниечеренкова
марина
очень
близкий
другширокий
ксения
милослава
сложный
выборшустова
юлия
нимфоманка
отдаваться
пятерымюджин
найт
мертвый
мыслиStrega
ливень
судьбыOtrashevska
наталия
сказка
песок
and
cowboyАлёхин
илья
пожарский
рай
избранный
короляандрей
зверев
BadCatStudio
санай
сарацин
темный
делоандронов
роман
колобокаркадьевич
романов
даркут
великий
переломбабинцев
евгений
контрабандист
сталин
книга
елена
условный
реальностьбориарт
александра
дора
люкс
прыжок
перезагрузка
егор
игрушка
боговбулавин
вячеслав
Maximus
Rex
семен
циничный
алхимикветлицкая
лина
госпожа
северный
земля
право
оборотнявильям
киссинджер
путь
кшарь
дар
великихвишневецкая
ольга
дом
вверх
дномвойнов
елена
гридень
варяг
грекиголовина
надежда
алкохимия
софа
философский
каменьгордиенко
татьяна
FalciparumГорыня
галина
остановка
бесконечность
избавлениегрэй
аня
металлический
турниргусаков
сергей
последний
повелитель
марсадедушка
перун
сторона
чернота
игорь
полюс
сборник
забывать
фантастика
полюсомево
ларина
идти
валерия
академия
драго
тьмаг
притворяться
парнемзиман
яна
невероятный
приключение
мия
марко
пророчество
никола
теслыиванов
александр
возвратаиванов
юрий
жизнь
смерть
кашмар
маштагаллыигнатьев
анжелика
игрушка
смертиконьтяков
екатерина
веснянкакотовый
ана
марсианский
туманамикотов
маша
душа
врагакузнецов
дмитрий
тело
беспризорникакуликова
ольга
любовь
объективекурнай
сергей
старательлоз
ритуал
призыв
профессоральвовый
александра
русалка
драконмайский
виктория
дистанция
CompletionМакарова
римма
ивасик
анастасия
казначей
смертимаштаков
ксения
варя
рыжий
кот
семейный
проклятьеметелица
григорий
черный
человекмило
манышева
больница
гоблинский
переулкемироненко
юрий
поездатый
путешествие
срывать
оковымухина
екатерина
история
бернарда
тайра
арханенекрячий
александр
слуга
тихий
омутанордшир
михаил
плато
ветровпавлюков
борис
корпорация
русский
америка
форпост
миссисипипарменова
галина
старухапаршаков
людмила
ведьмакпермяков
екатерина
пробуждениепожидаева
мария
игра
морокапылин
надежда
логово
снежный
барс
часть
катя
ведьма
изменять
мирроманова
наташа
месть
доктор
вебераростова
наталья
древо
мир
игра
прошлымрязанцев
мария
капелька
обыкновенный
путешествиесеменова
рита
новый
путьсиний
краска
твой
последний
летосоколова
алиса
менять
душсоловьев
алексей
номинарстряпко
анастасия
твой
выход
бен
субботин
федор
сансара
оборот
второй
приходить
творецсулимов
виталий
заслонять
радугусуменков
владимир
кровавый
цепитемников
максим
гарантия
покупка
сборник
рассказовтроицкий
олег
столица
мятежный
окраинытрунин
ирина
беглянка
академия
драконаудел
сергей
драгун
кавказ
федорищев
оля
личный
ведьма
палачафинагин
андрей
оружейный
баронфролова
наталья
колючка
академия
магия
большой
турнирчеремис
александр
Z
марина
лаборатория
дубльвэшвецов
игорь
вход
шахрайширокий
ксения
дама
галечный
пляжшустова
юлия
ведьма
наследствуэланский
катерина
ледяной
рыцарьюджин
найт
советникященко
игорь
коронный
дознатчик
ЛегавыйAlex
мясной
борSibiryak
ЗвездоборьеStrega
медвежество
прочий
неприятностиOtrashevska
наталия
размах
крыльевалина
рай
курнай
сергей
внебрачный
сын
мэрааркадьевич
романов
богарадя
елена
непобедимый
право
семьюбеляев
наталья
лебедев
евгений
последний
родаващенко
семен
еремкин
екатерина
нужнаветлицкая
лина
потеряев
александр
беременный
боссагрэй
аня
андрианов
григорий
оставаться
мнойегоров
валерия
Luigi
одержимый
послеиванов
александр
еремкин
екатерина
пышка
вызовукурнай
сергей
алина
рай
внебрачный
сын
мэрамакаров
римма
горыня
галина
наследникмаликов
анастасия
оксана
конык
ольга
петров
павел
костин
юрий
сельчихин
рецидивмиролюбов
тася
андрианов
григорий
принадлежать
емумироненко
юрий
шаклеин
светлана
улей
книга
катя
меньшов
игорь
факультет
уникальный
магия
возвращение
домойфролова
наталья
сулимов
виталий
любить
нельзяSibiryak
еремкин
екатерина
скайлер
март
прием
заявка
лонг
ММКЯ
шорты
non
финал
держимсякурс
организатор
лидер
рынок
лицензионный
электронный
аудиокнига
россиии
страна
снг
ассортимент
сайт
миллион
электронныхи
аудиокнига
русский
иностранный
язык
среди
который
около
бесплатный
книга
новый
книга
каждый
месяц
вопрос
писать
email
support
selfpub
вопрос
сотрудничество
сми
pr
litres
