Apple
Accessories
for
Apple
Watch
iPhone
iPad
and
Mac
Apple
Apple
Store
Mac
iPad
iPhone
Watch
Vision
AirPods
TV
Home
Entertainment
Accessories
Support
Accessories
Browse
all
Shop
by
Product
Mac
iPad
iPhone
Watch
Apple
Vision
Pro
TV
Home
All
products
Shop
by
Category
AirTag
and
Accessories
Apple
Vision
Pro
Apple
Watch
Bands
Cases
Protection
Charging
Essentials
Creative
Tools
Gaming
Headphones
Speakers
Health
Fitness
Home
Office
MagSafe
Mice
Keyboards
New
Arrivals
Photography
Smart
Home
Accessories
Software
Storage
Browse
by
Product
Browse
by
Category
Mac
iPad
iPhone
Watch
Apple
Vision
Pro
TV
Home
New
Arrivals
Cases
Protection
Charging
Essentials
MagSafe
Headphones
Speakers
Apple
Watch
Bands
Apple
Vision
Pro
Home
Office
Mice
Keyboards
AirTag
and
Accessories
Health
Fitness
Gaming
Photography
Creative
Tools
Smart
Home
Accessories
Software
Storage
Featured
iPhone
Accessories
New
iPhone
Pro
FineWoven
Case
with
MagSafe
Taupe
Available
colors
New
iPhone
Pro
Clear
Case
with
MagSafe
USB
Power
Adapter
MagSafe
Charger
New
iPhone
Silicone
Case
with
MagSafe
Light
Pink
Available
colors
New
iPhone
FineWoven
Wallet
with
MagSafe
Pacific
Blue
Available
colors
USB
Charge
Cable
m
New
USB
to
Lightning
Adapter
New
OtterBox
Figura
Series
Case
with
MagSafe
for
iPhone
Pro
Multicolor
Available
colors
New
OtterBox
Lumen
Series
Case
with
MagSafe
for
iPhone
Pro
Max
Gray
Available
colors
Shop
all
iPhone
accessories
Apple
Watch
Bands
Light
Pink
Sport
Loop
Available
colors
Mulberry
Sport
Band
M
Available
colors
Gold
Milanese
Loop
Available
colors
Game
Royal
Nike
Sport
Loop
Available
colors
Taupe
Magnetic
Link
M
Available
colors
Apple
Watch
Orange
Kilim
Single
Tour
Available
colors
Indigo
Alpine
Loop
Medium
Available
colors
Only
at
Apple
Guava
Braided
Solo
Loop
Size
Available
colors
Only
at
Apple
Winter
Blue
Solo
Loop
Size
Available
colors
Cargo
Khaki
Nike
Sport
Band
M
Available
colors
Shop
all
bands
Featured
iPad
Accessories
New
Apple
Pencil
USB
Smart
Folio
for
iPad
generation
Sky
Available
colors
Magic
Keyboard
Folio
for
iPad
generation
Free
Engraving
Apple
Pencil
generation
Magic
Keyboard
for
iPad
Pro
generation
and
iPad
Air
generation
Black
Available
colors
Smart
Folio
for
iPad
Air
generation
Dark
Cherry
Available
colors
Apple
Pencil
generation
USB
to
Apple
Pencil
Adapter
Smart
Folio
for
iPad
Pro
generation
Marine
Blue
Available
colors
Smart
Folio
for
iPad
mini
generation
Black
Available
colors
Shop
all
iPad
accessories
Sound
Essentials
Free
Engraving
AirPods
Pro
generation
with
MagSafe
Charging
Case
USB
Free
Engraving
AirPods
generation
with
Lightning
Charging
Case
HomePod
Midnight
Available
colors
HomePod
mini
Blue
Available
colors
Free
Engraving
AirPods
Max
Green
Available
colors
Free
Engraving
AirPods
generation
with
MagSafe
Charging
Case
Special
Beats
Studio
Pro
Wireless
Headphones
Sandstone
Available
colors
Special
Beats
Studio
Buds
True
Wireless
Noise
Cancelling
Earbuds
Transparent
Available
colors
Free
Engraving
Beats
Fit
Pro
True
Wireless
Earbuds
Stone
Purple
Available
colors
Beats
Flex
All
Wireless
Earphones
Flame
Blue
Available
colors
Shop
Headphones
and
Speakers
Featured
Mac
Accessories
Studio
Display
Magic
Keyboard
with
Touch
ID
and
Numeric
Keypad
Available
colors
Magic
Mouse
Available
colors
Magic
Trackpad
Available
colors
USB
Charge
Cable
m
USB
Digital
AV
Multiport
Adapter
USB
to
USB
Adapter
Thunderbolt
USB
Pro
Cable
m
Polishing
Cloth
USB
to
Lightning
Cable
m
Shop
all
Mac
Accessories
AirTag
Free
Engraving
AirTag
New
AirTag
FineWoven
Key
Ring
Black
Available
colors
AirTag
Loop
White
Free
Engraving
AirTag
pack
OtterBox
Lumen
Series
Case
for
AirTag
pack
Evo
Clear
case
for
AirTag
Two
Pack
OtterBox
Figura
Series
Case
for
AirTag
Available
colors
Belkin
Secure
Holder
with
Strap
for
AirTag
Black
Available
colors
OtterBox
Rugged
Case
for
AirTag
Available
colors
Belkin
Secure
Holder
with
Wire
Cable
for
AirTag
Available
colors
Fast
delivery
or
pickup
Enjoy
two
delivery
from
an
Apple
Store
free
delivery
or
easy
pickup
Learn
more
Fast
free
delivery
Free
and
easy
returns
Complete
your
return
online
or
take
it
to
an
Apple
Store
Learn
more
Free
and
easy
returns
Buy
with
Apple
Card
Get
Daily
Cash
back
when
you
shop
at
Apple
with
Apple
Card
Learn
moreBuy
with
Apple
Card
We
approximate
your
location
from
your
internet
IP
address
by
matching
it
to
a
geographic
region
or
from
the
location
entered
during
your
previous
visit
to
Apple
Footer
Apple
All
Accessories
Shop
and
Learn
Shop
and
Learn
Store
Mac
iPad
iPhone
Watch
Vision
AirPods
TV
Home
AirTag
Accessories
Gift
Cards
Apple
Wallet
Apple
Wallet
Wallet
Apple
Card
Apple
Pay
Apple
Cash
Account
Account
Manage
Your
Apple
ID
Apple
Store
Account
iCloud
Entertainment
Entertainment
Apple
One
Apple
TV
Apple
Music
Apple
Arcade
Apple
Fitness
Apple
News
Apple
Podcasts
Apple
Books
App
Store
Apple
Store
Apple
Store
Find
a
Store
Genius
Bar
Today
at
Apple
Apple
Camp
Apple
Store
App
Certified
Refurbished
Apple
Trade
In
Financing
Carrier
Deals
at
Apple
Order
Status
Shopping
Help
For
Business
For
Business
Apple
and
Business
Shop
for
Business
For
Education
For
Education
Apple
and
Education
Shop
for
K
Shop
for
College
For
Healthcare
For
Healthcare
Apple
in
Healthcare
Health
on
Apple
Watch
Health
Records
on
iPhone
For
Government
For
Government
Shop
for
Government
Shop
for
Veterans
and
Military
Apple
Values
Apple
Values
Accessibility
Education
Environment
Inclusion
and
Diversity
Privacy
Racial
Equity
and
Justice
Supplier
Responsibility
About
Apple
About
Apple
Newsroom
Apple
Leadership
Career
Opportunities
Investors
Ethics
Compliance
Events
Contact
Apple
More
ways
to
shop
Find
an
Apple
Store
or
other
retailer
near
you
Or
call
United
States
Copyright
Apple
Inc
All
rights
reserved
Privacy
Policy
Terms
of
Use
Sales
and
Refunds
Legal
Site
Map
