Rene
s
Top
Five
on
YouTube
February
Edition
YouTube
Blog
Skip
to
Main
Content
News
Events
Creator
Artist
Stories
Culture
Trends
Inside
YouTube
Made
On
YouTube
Subscribe
Submit
Search
Search
Input
Subscribe
Rene
s
Top
Five
on
YouTube
February
Edition
Copy
link
Copy
link
Submit
Search
Search
Input
Creator
and
Artist
Stories
Rene
s
Top
Five
on
YouTube
February
Edition
By
Rene
Ritchie
YouTube
Creator
Liaison
Feb
minute
read
Copy
link
Copy
link
These
are
the
top
things
I
saw
this
week
Like
and
subscribe
Wait
no
this
is
a
blog
Read
and
share
Because
your
friendly
neighborhood
YouTube
Creator
Liaison
is
once
again
liaising
between
creators
and
YouTube
to
bring
you
the
most
impactful
YouTube
X
Instagram
Threads
and
Discord
news
you
need
to
know
I
Confronted
YouTubes
New
CEO
CEOs
in
a
tiny
truck
getting
cappuccino
Take
one
of
the
most
popular
streamers
in
the
world
Ludwig
pair
him
with
the
head
of
YouTube
Neal
and
what
do
you
get
An
almost
hour
long
interview
that
touches
on
almost
every
aspect
of
Ludwig
s
vision
for
his
career
and
Neal
s
vision
of
YouTube
Shorts
A
bakery
Live
NFTs
Retirement
Go
watch
the
whole
video
on
Lud
s
channel
And
once
you
ve
watched
that
check
out
Neal
s
reaction
to
ZHC
custom
YouTube
headquarters
Fun
fact
It
s
the
building
I
was
in
last
time
I
visited
HQ
and
I
can
vouch
for
how
brain
terrific
it
turned
out
Also
MrBeast
on
the
cover
of
Time
That
s
right
a
creator
ok
the
most
popular
creator
but
still
a
creator
It
s
just
another
sign
that
when
people
are
looking
for
entertainment
these
days
they
re
increasingly
looking
to
YouTube
Which
might
be
why
Where
the
eyeballs
are
And
that
might
be
why
Nielsen
crowned
YouTube
the
streaming
platform
in
America
for
months
straight
Neal
nailed
it
in
his
recent
letter
to
the
YouTube
community
When
I
started
at
YouTube
people
thought
about
content
from
major
studios
and
content
from
creators
as
entirely
different
But
today
that
stark
divide
is
gone
Viewers
want
everything
in
one
place
from
a
live
sports
game
to
the
BBC
to
Khan
Academy
and
NikkieTutorials
And
they
re
watching
YouTube
the
way
we
used
to
sit
down
together
for
traditional
TV
shows
on
the
biggest
screen
in
the
home
with
friends
and
family
And
yeah
get
creators
on
that
Emmy
stage
Immerse
yourself
It
s
no
secret
YouTube
is
increasingly
popular
on
television
The
number
of
top
creators
pulling
the
majority
of
their
watchtime
from
TV
has
increased
more
than
in
the
last
years
and
around
the
world
people
now
watch
more
b
hours
on
average
of
YouTube
on
their
TVs
every
day
To
match
that
level
of
immersion
YouTube
has
just
made
creator
channel
pages
even
more
immersive
The
feature
is
available
to
all
creators
already
and
it
s
rolling
out
to
viewers
starting
now
You
re
just
going
to
want
to
make
sure
you
update
your
channel
s
banner
art
to
make
use
of
the
full
aspect
ratio
so
you
really
fill
out
that
big
screen
We
ve
also
got
the
details
on
some
new
top
earning
content
analytics
on
Creator
Insider
and
the
new
Posts
feed
on
iOS
and
Android
via
YouTube
Creators
I
Customized
YouTube
Headquarters
Q
A
Is
it
even
statistically
possible
to
keep
publishing
videos
without
gaining
many
new
subscribers
And
yes
absolutely
On
my
personal
channel
I
pivoted
topics
and
I
ve
been
losing
subscribers
for
over
a
year
now
Also
some
audiences
based
on
factors
like
topics
and
demographics
simply
subscribe
at
lower
rates
But
here
s
the
thing
unless
you
re
really
pushing
to
unlock
features
or
get
a
play
button
award
subscribers
aren
t
something
that
should
be
high
on
creators
anxiety
list
Stats
like
unique
viewers
per
month
and
new
and
returning
viewers
will
give
you
a
much
better
indicator
of
your
channel
s
current
performance
If
you
really
do
want
or
need
subs
though
ask
for
them
Put
a
really
strong
call
to
action
in
your
video
like
Dream
s
famous
call
paraphrased
of
you
watching
this
video
right
now
haven
t
subscribed
so
please
consider
subscribing
so
we
can
build
the
biggest
community
on
YouTube
It
s
free
you
can
change
your
mind
at
any
time
There
may
be
a
retention
cost
for
a
call
that
obtrusive
and
an
opportunity
cost
against
other
conversions
like
sponsor
affiliate
or
getting
people
to
watch
another
one
of
your
videos
which
could
be
more
valuable
for
growth
over
time
Tip
of
the
Week
If
you
really
want
to
focus
on
growing
your
channel
and
not
just
your
subscriber
count
check
out
the
Audience
tab
in
YouTube
Analytics
Specifically
the
Videos
growing
your
audience
and
What
other
videos
your
audience
watches
sections
as
well
as
the
Research
tab
to
see
what
other
content
the
people
who
watch
your
videos
are
looking
for
but
can
t
find
yet
Then
focus
on
making
either
more
videos
like
those
or
videos
people
would
love
to
watch
after
watching
those
And
get
with
the
contenting
Related
Topics
Rene
Top
Creation
Want
more
from
The
YouTube
Blog
Join
our
newsletter
Subscribe
Explore
the
latest
company
news
creator
and
artist
profiles
culture
and
trends
analyses
and
behind
insights
on
the
YouTube
Official
Blog
Our
Channels
Toggle
Toggle
Accordion
YouTube
YouTube
Creators
Creator
Insider
TeamYouTube
Help
YouTube
Liaison
X
Twitter
Toggle
Toggle
Accordion
YouTube
YouTube
Liaison
YouTube
Creators
TeamYouTube
YouTube
Gaming
YouTube
TV
YouTube
Music
YouTubeInsider
Connect
About
YouTube
Toggle
Toggle
Accordion
About
Press
Jobs
How
YouTube
Works
YouTube
Culture
Trends
Community
Forum
YouTube
Products
Toggle
Toggle
Accordion
YouTube
Go
YouTube
Kids
YouTube
Music
YouTube
Originals
YouTube
Premium
YouTube
Studio
YouTube
TV
For
Business
Toggle
Toggle
Accordion
Advertising
Developers
For
Creators
Toggle
Toggle
Accordion
Artists
Creators
Creator
Academy
Creating
for
Kids
Creators
Research
Creators
Services
Directory
YouTube
NextUp
YouTube
Space
YouTube
VR
Our
Commitments
Toggle
Toggle
Accordion
Creators
for
Change
CSAI
Match
Social
Impact
Policy
Safety
Copyright
Brand
Guidelines
Privacy
Terms
Help
Deutsch
English
Brasil
Please
check
your
network
connection
and
try
again
Join
our
newsletter
to
receive
the
latest
news
trends
and
features
straight
to
your
inbox
Your
information
will
be
used
in
accordance
with
Google
privacy
policy
You
may
opt
out
at
any
time
Let
get
contenting
You
receive
a
confirmation
soon
OK
got
it
