искупление
канаэ
минато
скачать
книга
epub
pdf
литрескаталогнайтиотложенныекорзинавойтимои
книгиподписка
авторомещепопулярный
авторылитрес
подпискалитрес
абонементкорпоративный
библиотекалитрес
чтециздавать
свой
книгумобильный
приложениялегкое
чтениефэнтезидетективыбоевик
остросюжетный
литературафантастикалюбовный
романывсе
чтениесовременный
прозаклассический
литератураоб
история
серьезнобиография
мемуарыстиха
поэзиявсе
историикнига
путешествияхбиография
мемуарыисторический
детективыисторический
литературався
эффективностьменеджменто
бизнес
популярнозарубежный
деловой
литературатайм
навыкисаморазвитие
личностный
ростнаучно
литератураучебный
научный
литературабизнес
жизнивсе
мотивациякнига
психологиисаморазвитие
личностный
рострелигия
духовный
литературабиография
мемуарыистория
жизнивсе
здоровье
красотамедицина
здоровьеспортсекс
секс
досугйогакулинарияхобби
увлеченияизобразительный
искусстворукоделие
ремеслався
дачакулинарияхобби
увлечениядомашний
хозяйстворукоделие
ремесладомашние
животныевс
книгизарубежный
детский
книгисказкикнига
детейкнига
дошкольниковкнига
подростковвсе
детейдетская
психологиядетский
книгиздоровье
детейпублицистика
периодический
изданияпублицистический
литературапериодический
изданияподкастысамиздатчерновикивсе
жанракнигитриллерыканаэ
минато
искуплениесматривать
оглавлениеотложитьотметить
фрагментискупление
книгахит
скачатьдобавлять
корзинуподарить
скидка
посоветовать
книга
получать
покупка
друг
минатоо
книгемировой
бестселлер
роман
снимать
культовый
япония
сериал
автор
признанный
мастер
стиль
иямис
исследовать
темный
сторона
человеческий
душа
это
основной
направление
современный
японский
детектив
пятеро
девочка
играть
волейбол
рядом
школьный
бассейн
подходить
мужчина
попросить
помогать
проверять
вентиляция
раздевалка
выбирать
девочка
уводить
остальной
просто
продолжать
игра
спохватываться
подруга
слишком
долго
пойти
ужас
увидеть
мертвый
тело
сколько
девочка
допрашивать
никак
мочь
вспомнить
лицо
убийца
мать
погибать
собирать
вместе
обвинять
смерть
дочь
сказать
прощать
пока
находить
убийца
смочь
это
сделать
находить
способ
искупать
свой
вина
который
принимать
сделать
говорить
отомщать
каждый
жизнь
девочка
долгий
год
превращаться
кошмар
роман
бить
самый
сердце
заставлять
всерьез
задумываться
ответственность
поступок
который
совершать
наоборот
совершать
оказываться
плохо
это
японский
гиллиан
флинн
Los
Angeles
Times
напряженный
психологический
драма
наполнять
странный
переплетение
случайный
закономерный
свобода
воля
манипуляция
приземленный
причудливый
Wall
Street
Journal
минато
обнажать
язва
скрытый
безупречный
кожа
японский
общество
Publishers
Weekly
думать
знать
идти
дело
канаэ
минато
подымать
очередной
занавес
открывать
лицо
тайна
дженни
милчман
обманываться
гипнотический
красота
проза
канаэ
минато
мера
персонаж
роман
раскрывать
свой
секрет
обнажаться
темный
сердце
повествование
безупречный
захватывать
чтение
хилари
дэвидсон
канаэ
минато
блестящий
рассказчица
эмили
сент
манделжанр
тегидетективный
драма
зарубежный
детектив
национальный
бестселлер
психологический
детектив
психологический
драма
психологический
триллер
расследование
убийство
современный
детектив
триллер
экранизировать
бестселлер
японский
детектив
отзывыоставить
отзывсначала
популярныелина
д
февралякнига
очень
похожий
сценарий
фильм
закадровый
голос
продбирать
дрожь
несмотря
какой-то
обрубать
фраза
девочка
серьезно
воспринимать
слово
мать
потерять
ребенок
конец
совершать
серьезный
действие
понимать
конец
мать
сделать
убийца
понимать
пойти
поговорить
убивать
понимать
молчать
свой
юность
столько
недомолвка
повод
месть
явно
определение
проблема
психика
иначе
человек
становиться
поступать
жаль
дочка
постарадать
февралядумать
это
книга
стоять
потратить
свой
время
понравиться
это
книга
учить
человек
внимательный
происходить
вокруг
брать
ответственность
свой
легкомыслие
неужели
быстро
прочитывать
февраляэто
просто
потрясающе
нравиться
девятнадцать
минута
джоди
пиколт
драма
селеста
инга
лиана
мориарти
производить
глубокий
впечатление
квинтенсенция
человеческий
драма
особенно
впечатление
история
четыре
девушка
мать
жертва
повлиять
построение
порядок
признание
постепенно
погружаться
судьба
каждый
девушка
начинать
открывать
трагедия
каждый
трагедия
семья
японский
общество
который
сложно
избавляться
навязывать
вина
травма
свидетель
наслоение
фрагмент
воспоминание
убийство
подруга
разом
приближать
читатель
разгадка
это
очень
круто
рекомендовать
прочтение
февраляхороший
книга
заставлять
задумываться
смысл
жизнь
отношение
человек
верить
хороший
смотреть
февраляостросюжетный
роман
справедливость
жестокость
который
сожаление
распространяться
ребенок
место
морально
тяжелый
книга
хотеться
читать
далеко
судьба
героиня
буквально
висеть
волосок
автор
уметь
заинтриговывать
выводить
эмоция
отзывовоставлять
отзывопубликоватьописание
книгимирова
бестселлер
роман
снимать
культовый
япония
сериал
автор
признанный
мастер
стиль
иямис
исследовать
темный
сторона
человеческий
душа
это
основной
направление
современный
японский
детектив
пятеро
девочка
играть
волейбол
рядом
школьный
бассейн
подходить
мужчина
попросить
помогать
проверять
вентиляция
раздевалка
выбирать
девочка
уводить
остальной
просто
продолжать
игра
спохватываться
подруга
слишком
долго
пойти
ужас
увидеть
мертвый
тело
сколько
девочка
допрашивать
никак
мочь
вспомнить
лицо
убийца
мать
погибать
собирать
вместе
обвинять
смерть
дочь
сказать
прощать
пока
находить
убийца
смочь
это
сделать
находить
способ
искупать
свой
вина
который
принимать
сделать
говорить
отомщать
каждый
жизнь
девочка
долгий
год
превращаться
кошмар
роман
бить
самый
сердце
заставлять
всерьез
задумываться
ответственность
поступок
который
совершать
наоборот
совершать
оказываться
плохо
это
японский
гиллиан
флинн
Los
Angeles
Times
напряженный
психологический
драма
наполнять
странный
переплетение
случайный
закономерный
свобода
воля
манипуляция
приземленный
причудливый
Wall
Street
Journal
минато
обнажать
язва
скрытый
безупречный
кожа
японский
общество
Publishers
Weekly
думать
знать
идти
дело
канаэ
минато
подымать
очередной
занавес
открывать
лицо
тайна
дженни
милчман
обманываться
гипнотический
красота
проза
канаэ
минато
мера
персонаж
роман
раскрывать
свой
секрет
обнажаться
темный
сердце
повествование
безупречный
захватывать
чтение
хилари
дэвидсон
канаэ
минато
блестящий
рассказчица
эмили
сент
манделсмотреть
оглавлениечитывать
онлайнкнига
канаэ
минато
искупление
скачать
txt
epub
pdf
читать
онлайн
оставлять
комментарий
отзыв
голосовать
понравиться
ограничение
выход
литрес
февраль
перевод
обновление
стр
иллюстрацииISBN
александра
кривцоваиздатель
INSPIRIAПравообладатель
эксмоформат
скачивание
epub
ios
mobi
pdf
txt
zipПожаловаться
книгус
книга
читать
каменный
человечкиллойд
деверо
чужой
солнцемфрида
темный
комнатыробин
пять
псовчхэ
мужчиныджули
продажхрустальный
пирамидасодзь
гиенавероника
дежавюлор
книга
авторахит
продажпризнанияканаэ
продажискуплениеканаэ
мбподходить
смартфон
планшет
Android
электронный
книга
кроме
Kindle
многий
формат
открывать
любой
устройствеTXTZIP
кбможно
открывать
любой
компьютереRTFZIP
мбможно
открывать
любой
компьютереPDF
программа
Adobe
ReaderPDF
подходить
смартфоновMobiПодходит
электронный
книга
Kindle
Android
устройство
iOS
iPhone
iPad
iMac
большинство
приложение
чтенияiOS
подходить
iPhone
iPadО
компанииконтактывакансиислужба
поддержкивозвратучастие
исследованияхмобильный
приложение
ооо
литрес
активировать
купонпубличный
офертаполитика
обработка
персональный
данныхсогласие
получение
рассылкирекомендательный
технологииСотрудничествоИздательствамАвторамБиблиотекамПартнерамВебмастерамСтать
автор
литресозвучивать
книгукорпоративный
библиотекачто
почитать
бестселлерыскоро
продажепопулярный
авторыинтервью
авторамилитрес
соц
