Публикация электронной книги на Литрес: Самиздат
Блог
Статус
Услуги
Войти
Зарегистрироваться
☰
Зарегистрироваться
Войти
Услуги
Премия 2023
Блог
Помощь
Обратная связь
Публикация электронной книги
        Самые популярные вопросы о сервисе
      
Публикация электронной книги
Когда вы загружаете книгу в Литрес: Самиздат, создается ее карточка в разделе Мои книги. Именно в этой карточке в дальнейшем должны происходить все действия с книгой от момента загрузки до ее публикации. После публикации в карточке книги будет указана информация о стоимости и будут размещены ссылки на книгу в Литрес и MyBook (чтобы вы могли поделиться ссылкой с читателями).Подробнее о пакетах лицензий публикации читайте здесьМинимальный объем текста вашего произведения — 4000 знаков с пробеламиВНИМАНИЕ!После обновления мастера публикации у некоторых пользователей может возникать следующая ошибка. При добавлении книги или черновика в разделе «Мои книги» открывается старое окно загрузки, а не новый мастер публикации. Из-за этого невозможно загрузить текст.Если у вас возникла такая проблема, очистите кэш браузера, обновите страницу и попробуйте еще раз.ВНИМАНИЕ!Если вы хотите внести изменения или загрузить другой файл (например, после корректуры), не удаляйте карточку книги!После удаления карточки восстановить книгу можно будет только через обращение в поддержку.
            Карточка книги на Литрес Самиздат
          
На карточке книги, которая находится в работе, отображаются:название книги;имя автора;обложка книги;лицензия;статус книги;ссылка на книгу в магазине Литрес;кнопка «Редактировать»Статусы карточки книгиСтатус «Загружено» присваивается книге сразу после загрузки и успешной конвертации. Чтобы опубликовать книгу, заполните все данные в мастере публикации.Статус «Ошибка при загрузке» присваивается, если во время конвертации файла после загрузки произошла ошибка. Вы можете заполнить сведения о книге в редакторе карточки книги, но не можете опубликовать ее. Чтобы опубликовать эту книгу на Литрес, необходимо исправить исходный файл и заменить его, и только после этого отправить на проверку модераторам для публикации.Статус «Книга возвращена на доработку модератором» присваивается, если после отправки книги на проверку у модераторов возникли вопросы к заполнению сведений о книге или к ее содержанию. Причины, по которым книга была отклонена, указываются в комментариях в мастере публикации. Чтобы увидеть комментарии, надо нажать на кнопку «Редактировать». Рекомендации по заполнению данных будут в примечаниях в правом верхнем углу страницы.Статус «Книга на модерации» присваивается после того, как вы отправите книгу на проверку. В этом статусе книга находится в очереди на модерацию. Если вам требуется внести правки в сведения о книге или заменить файл, нажмите на кнопку «Отозвать». После этого книга вернется в статус «Загружено» и вы сможете внести необходимые изменения.Статус «На модерации» присваивается, когда модератор взял вашу книгу на проверку. Вы не можете вносить изменения, пока модератор не закончит работу с книгой. После проверки книга будет опубликована на Литрес и партнерских площадках или возвращена на доработку.Статус «Опубликована» присваивается после того, как ваша книга успешно прошла проверку модераторов и опубликована в каталоге Литрес и на партнерских площадках (площадки зависят от выбранного пакета публикации). В карточке книги при этом отображается статус электронной книги и статус книги, опубликованной по технологии печать по требованию (см. Публикация печатной книги). В поле «Магазины» отображаются только ссылки на книгу в Литрес и MyBook. Вы можете внести изменения в опубликованную книгу, не снимая ее с публикации, нажав на кнопку «Редактировать».Статус «Снята с публикации» присваивается после того, как вы нажмете на кнопку «Снять с публикации». Это может понадобится, если по какой-то причине вы не хотите, чтобы ваша книга была размещена на витрине Литрес и других партнерских площадках.ВНИМАНИЕ!Партнерские площадки обновляют информацию об опубликованных книгах по своему графику, поэтому после снятия книги с публикации на Литрес она может быть размещена на партнерских площадках до 1 месяца.
            Как будет выглядеть книга после загрузки?
          
Во время работы в мастере публикации нажмите кнопку «предпросмотр» рядом с файлом книгиОткроется предпросмотр сверстанного файла книги в формате читалки.Сверху указано общее количество знаков и авторских листов в тексте (один лист = 40 000 знаков с пробелами). Обратите внимание: в читалке в магазине Литрес текст может отображаться иначе. Например, текст будет крупнее. Соответственно, увеличится кол-во страниц.Если вы правильно разметили заголовки при подготовке книги, то содержание сформируется автоматически. В режиме чтения книги главное — проверить, верно ли размечены заголовки (правильно ли сформировано содержание книги, нет ли пропущенных глав) и убедиться, что текст сконвертировался полностью без ошибок.Чтобы посмотреть, как выглядит оглавление, нажмите на три полоски в правом верхнем углу «читалки»
            Как правильно заполнить сведения о книге
          
Чтобы создать книгу, нажмите кнопку «Создать книгу», затем введите название своей книги. Позже его можно будет поменять. Теперь необходимо заполнить данные в мастере публикации: написать аннотацию, выбрать подходящие жанры и теги, соответствующий возрастной рейтинг.По желанию можно указать всех участников, работавших над книгой (соавторов, редакторов, корректоров, художников, и т.д.)Эти сведения необходимо заполнить на вкладке «Данные о книге» в мастере публикации.ВНИМАНИЕ: Если вы готовите к публикации файл в формате fb2, пожалуйста, не заполняйте данные в настройках файла. Всю информацию о книге нужно заполнять в мастере публикации на нашем сайте. В противном случае возможны ошибки при конвертации файла и некорректное отображение данных о книге.Также в сведениях о книге не допускается добавление изображений.Название книгиОбратите внимание: название книги должно совпадать с текстом на обложке. Допустимы небольшие различия. Например серия, сведения о переиздании, рекламные слоганы и т. д. ВНИМАНИЕ! Если название книги двойное и две части названия разделены союзом «или», перед союзом ставится запятая, а вторая часть названия пишется с заглавной буквы. Пример: Майская ночь, или Утопленница.Постарайтесь избегать скобок в названии книги. Вместо «Сборник рассказов (избранное)» рекомендуем назвать текст «Сборник рассказов. Избранное»Аннотация книгиРазмер аннотации: от 70 до 1000 символов с пробелами. Желательно, чтобы аннотация не превышала абзац из 10-12 строк. Аннотация должна рассказать потенциальному читателю о книге так, чтобы заинтересовать его, заставить открыть книгу и начать ее читать. Хорошая аннотация художественного текста — не полный пересказ сюжета! Она должна интриговать, но вводить в курс дела. В нон-фикшн же стоит в нескольких предложениях раскрыть основную идею и авторский замысел. Текст аннотации должен быть лаконичен и четок. Крайне не рекомендуется включать в текст аннотации расхожие штампы и общеизвестные сведения, специальные термины и выдержки из книги. Например, не стоит использовать фразы: «это завораживающий детектив...», «книга в жанре магического реализма не оставит вас равнодушным», «сюжет здесь развивается от начала и до конца» и т.д. Сравнения с другими произведениями допустимы, но аннотация должна подчеркивать индивидуальность вашей книги. Нежелательно использовать в качестве аннотации фрагмент из вашей книги. Это должен быть уникальный текст. Как выбрать жанр книгиОпределяя жанр своей книги, помните главное: нужно дать читателям как можно более точные ориентиры, а не запутать его. Максимально возможное количество жанров, которыми можно охарактеризовать книгу – три. Лучше выбрать не один, а несколько. Так, больше читателей смогут найти вашу книгу в каталоге Литрес, опираясь на жанр при поиске. Читайте в блоге Издательских сервисов Литрес: Как книга попадает к читателям?Выбор теговХорошим ориентиром, помимо жанра, для читателей служат теги. Тег — это своего рода маркер, ключевое слово или словосочетание, фокусирующие внимание на сути произведения, дополняя описание книги и ее жанровую принадлежность. Важно подобрать теги так, чтобы они четко определяли главное в книге и вызывали к ней интерес потенциальной целевой аудитории. Помните — можно выбрать не более пяти тегов. Например:Характеризуя книгу, вы указали жанр «Историческая литература». А теги выбрали следующие: «Россия XIX века», «Становление героя» и «Декабристы». Теперь любой, кто зайдет на страницу вашей книги в интернет-магазине, даже не вчитываясь в аннотацию, сможет представить, о чем ваша книга.ВНИМАНИЕ! Теги необходимо указывать на том же языке, на каком написана ваша книга.Читайте вблоге Издательских сервисов Литрес: Что такое теги и зачем они нужны электронной книге?Возрастной рейтинг и другие маркеры книгиСуществует ряд однозначных критериев, позволяющих более или менее точно определить возрастной рейтинг книги. В мастере публикации есть подсказки, как определить и подобрать подходящий вашей книге возрастной рейтингНикто лучше вас не знает содержания вашей книги — подумайте, какому читателю вы адресуете свое произведение. Возможно, вам потребуется дополнительно отредактировать текст, чтобы он соответствовал определенному возрастному рейтингу (особенно это актуально для детской и подростковой литературы).Кроме того, согласно законодательству РФ, книги, содержащие нецензурную брань, должны содержать информацию об этом на обложке. В редакторе обложки значки возрастного рейтинга и нецензурной брани появляются автоматически в правом и левом нижних углах картинки. Вы сможете изменить их расположение.Читайте в блоге Издательских сервисов Литрес: Возрастной рейтинг книгКак указать автора и других людей, работавших над книгойИмя автора и других людей, работавших над книгой (редактор, художник, переводчик, составитель, корректор и т.д.), необходимо указывать в разделе «Автор и участники». Напоминаем, что дубли других участников создавать нельзя!ВНИМАНИЕ! Имя автора в Литрес будет отображаться в соответствии с тем, как вы заполните это поле.Обязательным для заполнения является только поле «Фамилия», поле «Отчество» — по желанию.Если вы пишете под псевдонимом, его следует указать в полях «Имя» и «Фамилия». Если псевдоним состоит из одного слова, укажите его в поле «Фамилия».Если в работе над книгой вам помогали другие специалисты, вы можете их также указать. Чтобы отметить еще одного человека, нажмите на кнопку «Добавить участника». В появившемся окне выберите роль участника: художник, переводчик, редактор и пр. Теперь либо выберите участника из списка, либо нажмите «Создать персону» и введите имя, фамилию и отчество (при необходимости) в соответствующие поля.Если вы хотите указать псевдоним, который состоит из одного слова, впишите его в поле «Фамилия». Обратите внимание: роль первого участника нельзя изменить. Чтобы сменить автора, сначала создайте новую персону, а потом нажмите «Открепить» напротив существующего автора.НАПРИМЕР: вы хотите добавить художника Васю. Нажмите «Добавить участника». В появившемся окне нажмите «Создать персону».Заполните данные Васи — имя, фамилию или псевдоним. По желанию — отчество. Поскольку Вася — первый участник, которого вы добавили в книгу, ему присуждается роль автора.Теперь снова нажмите «Добавить участника». Из появившегося списка выберите нужную роль. Для Васи это «Художник»Выберите Васю из списка людей.Нажмите «открепить» или «сменить» рядом с Васей-автором. Готово!Информация о всех участниках также будет указана в карточке книги в магазине Литрес после публикации.Если вы публикуете книгу в соавторстве, пришлите в службу поддержки support@selfpub.ru согласие на публикацию от вашего соавтора. Шаблон можно скачать по ссылке.Как заменить исходный файл книгиЕсли вы хотите внести изменения в вашу книгу, можно заменить файл в мастере публикации. При этом остальные данные, которые вы заполнили ранее, останутся неизменными. В разделе «Книги» выберите книгу, в которую вы хотите внести изменения, и нажмите «Редактировать».Во вкладке «Данные о книге» в разделе «Файл книги» нажмите кнопку «Выбрать другой файл».Откроется меню выбора файла.Выберите нужный файл и нажмите кнопку «Открыть».Файл загрузится, и мы начнем его конвертацию.После успешной конвертации название файла, который вы загрузили, появится над кнопкой «Выбрать другой файл». Чтобы избежать ошибок, смотрите раздел «как будет выглядеть книга после загрузки».
            Как создать обложку для книги?
          
Обложка — лицо книги. Поэтому мы всегда советуем обратиться к профессиональным художникам и дизайнерам, или воспользоваться услугой дизайна обложки от Литрес.Но есть несколько бесплатных программ, в которых можно самостоятельно создать простые и стильные обложки. Все, что нужно — немного времени и терпения.Используйте для обложки графические файлы форматом PNG или JPG в цветовом пространстве RGB с разрешением от 2400×3405 пикселей, пропорции изображений от 3:4 до 1:2. Максимально допустимый размер файла — 5 Мб.PlaceitЧтобы найти шаблоны книжных обложек, выберите в верхней строчке меню «Designs». Появится дополнительная вкладка, где нужно будет кликнуть сначала на «Apparel & Print», а затем «Book Covers». Откроется новая страница с базой образцов! Бесплатное использование сервиса ограничено, но позволяет сохранять готовые материалы и загружать свои фотографии. Для создания обложки необходимо зарегистрироваться и войти в «Личный Кабинет».SupaОтдельной вкладки для создания книжных обложек у сервиса нет, зато выделено более 40 категорий шаблонов, поэтому возможностей для творчества становится только больше. Все детали, фоны и шрифты можно двигать, заменять на собственные или удалять.DesygnerЕсть возможность работать не только с компьютера, но с планшета и даже с телефона. Можно легко передвигать элементы, использовать бесплатные инструменты и бесплатную библиотеку стикеров. Правда, все это дается по подписке. Но первые 14 дней после регистрации можно пользоваться демоверсией.PixlrЭто наиболее удобный вариант, если нужно убрать фон, сделать коллаж или наложить на фотографии эффекты. Сервис предлагает обширную коллекцию фильтров.Подробнее о том, как создать обложку, читайте в нашем блоге 
            Как загрузить обложку для книги
          
Для публикации в Литрес и на партнерских ресурсах вашей книге понадобится обложка. При загрузке книги обложка генерируется автоматически. Вы можете:Сохранить эту обложку;Сгенерировать новую. О том, как это сделать, читайте здесь;Загрузить свою обложку.Как загрузить свою обложку? В мастере публикации перейдите в раздел «Обложка». Он находится слева. Нажмите «Загрузить обложку».Теперь нажмите кнопку «Выбрать файл» и выберите нужное изображения на вашем компьютере. Обложка загрузится. Вы сможете изменять ее масштаб с помощью ползунка, а также свободно двигать знаки возрастного рейтинга и плашку «Содержит нецензурную брань» (при наличии).Если ваша обложка уже содержит имя автора и название книги, автоматический текст можно скрыть. Воспользуйтесь ползунком «Показать название и автора».После того, как вы сохранили обложку и вернулись в мастер публикации, нужно будет указать источник изображения. О том, как заполнить поля правильно и подтвердить авторство, читайте ниже.Обратите внимание, чтобы по краям не осталось полосок, при необходимости — отмасштабируйте изображениеЕсли у вас книга с рейтингом 18+, или в тексте есть нецензурная брань, передвиньте значки так, чтобы они не закрывали название книги и имя автора, а также значимые элементы на обложке, например иллюстрацию. Это можно сделать во время редактирования обложки в мастере публикации. Теперь авторам также доступен расширенный редактор обложки книг и аудиокниг. Что можно сделать?Можно выбрать три варианта расположения названия книги и имя (псевдоним) автора: посередине обложки, вверху и внизу.Для названия также можно выбрать цветовую схему: черные буквы на белом фоне («подложке») или белые на черномМожно выбрать два варианта шрифта: жирное и обычное написаниеМожно выбрать один из приготовленных нами фонов. Для каждого фона будет также возможность выбрать три разных оттенка!Подробнее — на видео ниже.Рекомендуемые параметры обложки электронной книги: размер от 2400×3405 пикселей, формат PNG или JPG в цветовом пространстве RGB, пропорции изображений от 3:4 до 1:2.Максимально допустимый размер файла — 5 Мб.Если вы хотите печатную версию книги, разрешение изображения для обложки должно быть 300 dpi.Рекомендуемые параметры обложки для аудиокниги: размер 3000×3000 пикселей, разрешение изображения — 300 dpi, формат JPGВот несколько универсальных правил для любой обложки: Размер обложки 2400×3405 px. Важные элементы дизайна, такие как название книги, подзаголовок и имя автора, должны располагаться внутри рамки размером 1828×2838 px. Это поможет избежать обрезки текстовых элементов при изготовлении бумажной книги.Название книги на обложке должно совпадать с названием, которое указано на вкладке «Данные о книге» в мастере публикации.Допустимы небольшие различия в тексте и на обложке (например серия, сведения о переиздании, рекламные слоганы и т. п.), но основное название книги должно быть одинаковым.На обложке ОБЯЗАТЕЛЬНО указать фамилию автора. Имя автора должно вводиться в следующем порядке: имя+фамилия или инициалы+фамилия (инициалы через пробел), а не наоборот. Пример: Федор Достоевский или Ф. М. Достоевский.Количество авторов на первой странице обложки должно соответствовать количеству авторов, указанных в разделе «Над книгой работали», и, как правило, не должно превышать пяти фамилий. Если над книгой работали более пяти авторов, на обложке указываются первые 2-3 фамилии и фраза «и другие».Пример: А. С. Пушкин, Н. В. Гоголь, Ф. М. Достоевский и другие.В качестве обложки для электронной книги следует использовать только лицевую сторону книги без каких-либо дополнительных эффектов (например, не принимается изображение в 3D-перспективе и т.д.).Обложка должна соответствовать требованиям законодательства РФ в отношении соблюдения правил присвоения возрастного рейтинга для книг и печатной продукции.ВНИМАНИЕ: На обложках книг, в том числе эротического содержания, не допускается демонстрация обнаженных первичных половых признаков детей и взрослых людей (женская грудь, вульва/вагина, соски, пенис, яички, мошонка), в том числе стилизованные или выполненные в жанре карикатуры; не допускаются сексуализированные изображения очевидно несовершеннолетних людей; не допускаются откровенные сцены секса между двумя и несколькими партнерами; изображение реалистичных секс-игрушек и т.п.Читайте в блоге Издательских сервисов Литрес:Где найти иллюстрации для своей книги?Когда стандартных шаблонов недостаточно Как подтвердить права на иллюстрациюЕсли вы загрузили свою обложку, использовали свой фон или фото из личного архива, при загрузке обложки отметьте пункт «Нарисовал сам или фото из личного архива» во вкладке «Источник изображения». Если вы взяли иллюстрацию из интернета, то нужно отметить соответствующий пункт и прикрепить ссылку, которая подтверждает, что иллюстрация распространяется по лицензии коммерческое использование (ССО). Если обложка создана нейросетью, нужно указать ссылку на само нейросеть или на ее правила использования.Если иллюстрация была куплена вами или сделана на заказ, выберите соответствующий пункт и загрузите документы, которые подтверждают ваше право на использование изображения. Это может быть скан или фотография договора с художником, скриншот переписки с черновыми версиями обложки и оговоренной суммой оплаты, разрешение об использовании изображения или чек о покупке.Пример оформления согласия художника: Я (ФИО) разрешаю использовать созданное мной изображение, в качестве обложки для книги (Название), автору (ФИО). Дата. Подпись.
            Как поделиться ссылкой на книгу
          
После публикации книги вы сможете перейти на карточку книги в магазине Литрес через личный кабинет автора. Для этого зайдите в личный кабинет. В разделе «мои книги» найдите книгу, ссылкой на которую хотите поделиться, и нажмите на три точки в правом верхнем углу. Далее: "ссылка"/"реферальная" ссылка" (второй вариант появится в случае, если у вас подключена реферальная программа)Готово! Этой ссылкой можно делиться с читателями.ВНИМАНИЕ!Для заявок на большинство конкурсов вам потребуется ссылка на Литрес. Поэтому в заявку нужно получить ссылку по указанному выше алгоритму, а не копировать адресную строку из вашего личного кабинета. Заявки со ссылкой, которая начинается с selfpub.ru, не будут приняты к рассмотрению.Если вы участвуете в реферальной программе Литрес, то следует делиться ссылкой из раздела «Реферальная программа».
            Как отправить книгу в Литрес
          
После того, как вы заполнили сведения о книге, сделали обложку и выбрали пакет публикации, необходимо внимательно проверить все данные и отправить книгу на проверку перед публикацией. В панелях меню мастера публикации (слева) для вашего удобства находится счетчик заполненных данных. Если вы указали всю необходимую информацию, он подсвечивается зеленым. Чтобы отправить книгу на модерацию, нажмите кнопку «Опубликовать» слева внизу.Для чего нужна проверка? Ведь Литрес: Самиздат — сервис самопубликацииВсе так, Литрес: Самиздат — сервис, предоставляющий каждому автору полный контроль над издательским процессом, чтобы убрать все возможные барьеры между книгой и ее потенциальными читателями.Тем не менее, проверка необходима — как минимум, для того, чтобы мы могли убедиться, что вы правильно заполнили данные книги, а загруженные материалы соответствуют требованиям к формату и содержанию. В случае ошибки, модератор вернет вам книгу на доработку и укажет, что исправить.Когда вы нажмете кнопку «Опубликовать», книга попадет на проверку к нашим модераторам. Это обязательная процедура, без которой книга не появится на полках интернет-магазинов и онлайн-библиотек.Мы должны убедиться, что:в загруженном файле нет вирусов и вредоносных материалов;возрастной рейтинг произведения определен правильно;книга не содержит нецензурную брань или порнографический/эротический контент, и если да — это указано в сведениях о книге;в тексте нет призывов к экстремизму, разжиганию межнациональной розни – книга не нарушает законодательство РФ;выбранные жанры и теги соответствуют содержанию книги.Сколько длится проверкаОбычно проверка занимает до 3 рабочих дней. Если модератор нашел в файле или тексте книги ошибки или неточности, книга вернется в режим редактирования, а вы получите рекомендации, что нужно исправить. Они отображаются прямо в мастере публикации, справа. Если же все хорошо, ваша книга сразу попадет на сайт Литрес и к партнерам.Повторная проверка обычно проходит быстрее.Модератор отклонил книгу. Что делать?Модератор может отклонить вашу книгу, если ей требуется доработка.Если вы получили письмо, что книга была отклонена, в личном кабинете нажмите «Редактировать» напротив книги, которую модератор отклонил. В разделе, где допущена ошибка, комментарии модератора отобразятся справа. Вы сможете раскрыть их и увидеть рекомендации модератора. После внесения всех изменений, снова нажмите «Опубликовать».
            Как автоматически сгенерировать обложку
          
Теперь у авторов Литрес Самиздат есть возможность автоматически сгенерировать обложку книги в мастере публикации.Как это сделать?Загрузите книгу в Литрес самиздат. Откроется мастер публикации. Через несколько секунд в левом верхнем углу автоматически сгенерируется случайная обложка книги. Вы можете увеличить ее. Для этого наведите курсор на обложку и кликните один раз.Если вы хотите изменить обложку, перейдите в раздел «обложка» мастера публикации и нажмите «сгенерировать обложку». Подождите несколько секунд. Готово!Теперь можно настроить обложку. Для этого просто кликните по ней. Откроется новое окно. Здесь вы можете изменять размер изображения, передвигать знаки возрастного рейтинга. Также прямо здесь можно скрыть имя автора и название книги, загрузить собственную обложку.
            Как внести изменения в электронную книгу?
          
Если ваша книга уже опубликована, а вы хотите внести в нее какие-либо изменения (будь то изменения в описании, изменения в самом тексте или смена условий распространения), нажмите «Редактировать» возле нужного текста в списке ваших книг. Далее внесите необходимые изменения в мастере публикации и повторно отправьте книгу на модерацию. После прохождения проверки ваши правки будут опубликованы. Все время внесения правок старая версия книги останется опубликованной.Обратите внимание: при смене типа лицензии фактический переход на другой тип произойдет в начале следующего месяца, со второго по шестое число.
У нас также спрашивают:
            Первые шаги по работе с сервисом
          
            Публикация печатной книги
          
            Бесплатные черновики
          
            Публикация Черновика
          
            Публикация готовой аудиокниги
          
            Возможные ошибки и способы их исправления
          
            Создание аудиокниги
          
            Условия публикации и типы лицензий
          
            Цена книги и роялти
          
            Скидки на книгу
          
            Статистика и выплаты вознаграждения
          
            Ответы на комментарии читателей к вашей книге
          
            Печать тиража вашей книги
          
            Заказ корректуры текста вашей книги
          
            Требования законодательства Российской Федерации
          
            Проблемы с работой сайта?
          
            Реферальная программа для авторов
          
      Не нашли ответ? Пожалуйста, напишите в службу поддержки по адресу
      support@selfpub.ru.
    
Мы в социальных сетях:
                8 (800) 333 27 37
              
Ежедневно с 10:00 до 22:00 по мск.
                Что такое Литрес: Самиздат
              
О сервисе
О премии
Блог
Наши партнеры
Поддержка
Контакты
Регистрация для авторов
Вход в личный кабинет
База знаний
Первые шаги и работа с сервисом
Публикация электронной книги
Публикация печатной книги
Публикация черновика
Документы
Лицензионный договор-оферта
Договор оказания услуг
Политика конфиденциальности