Современный Теремок, Ника Ёрш – скачать книгу fb2, epub, pdf на ЛитРесКаталогНайтиОтложенныеКорзинаВойтиМои книгиПодписка за 0 ₽ПромокодНовинкиПопулярноеПодборкиАудиокнигиСамиздатЧерновикиПодкастыКомиксыЖурналСертификатыСтать авторомЕщёПопулярные авторыЛитрес ПодпискаЛитрес АбонементКорпоративная библиотекаЛитрес ЧтецИздать свою книгуМобильные приложенияЛегкое чтениеФэнтезиДетективыБоевики, остросюжетная литератураФантастикаЛюбовные романыВсе 12Серьезное чтениеСовременная прозаКлассическая литератураОб истории серьезноБиографии и мемуарыCтихи, поэзияВсе 6ИсторияПопулярно об историиКниги о путешествияхБиографии и мемуарыИсторические детективыИсторическая литератураВсе 12Бизнес-книгиЛичная эффективностьМенеджментО бизнесе популярноЗарубежная деловая литератураТайм-менеджментВсе 31Знания и навыкиСаморазвитие / личностный ростНаучно-популярная литератураУчебная и научная литератураБизнес-книгиИстории из жизниВсе 12Психология, мотивацияКниги по психологииСаморазвитие / личностный ростРелигия и духовная литератураБиографии и мемуарыИстории из жизниВсе 7Спорт, здоровье, красотаМедицина и здоровьеСпортСекс / секс-руководстваКрасотаХобби, досугЙогаКулинарияХобби / увлеченияИзобразительное искусствоРукоделие и ремеслаВсе 19Дом, дачаКулинарияХобби / увлеченияДомашнее хозяйствоРукоделие и ремеслаДомашние животныеВсе 16Детские книгиЗарубежные детские книгиСказкиКниги для детейКниги для дошкольниковКниги для подростковВсе 15РодителямВоспитание детейДетская психологияДетские книгиЗдоровье детейПублицистика и периодические изданияПублицистическая литератураПериодические изданияПодкастыСамиздатЧерновикиВсе 142 жанраКнигидетская прозаНика Ёрш📚 Современный ТеремокСмотреть оглавлениеОтложитьОтметить прочитаннойПоделиться6+текстОбъем 305 страниц2023 год6+Читать фрагментСовременный ТеремокСказки на новый лад. Сборник рассказов победителей конкурсатекст3отзыва1цитатаВзять по абонементу0,90 ₽Купить и скачатьДобавить в корзинуПодарите скидку 10%Посоветуйте эту книгу и получите 0,10 ₽ с покупки её другом.АвторыВсе 16 авторовНика ЁршАндрей АсковдО книгеЧитая в детстве сказки, каждый из нас погружался в мир фантазий и придумывал для полюбившихся героев новые приключения. И вот захватывающий сюжет уже мчится в неизведанные дали! Что было бы, не напои Иванушка Кощея водой? Как бы сложилась судьба Царевны-лягушки, не сожги муж ее волшебную кожу? И куда еще может привести вездесущий путеводный клубок?Сеть ресторанов «‎Теремок» и Литрес предложили молодым авторам пофантазировать на эту тему и объявили конкурс сказок на новый лад. Всего было подано около семисот заявок. В итоговый сборник «Современный Теремок» вошли работы лучших пятнадцати участников. Третье место в конкурсе заняла Оксана Чистовская и ее «Трус с богатырским сердцем», на втором оказалась «Правда о Сером Волке» Дианы Булатовой, первое – «Некрасивый мальчик» Натальи Есиной. Авторы фантазировали о том, чем бы занималась Баба Яга в современном мире, какую цену заплатил Кощей за свои богатства и власть, почему Колобок опасен. И что было бы, если бы в сказочном мире существовало собственное детективное бюро «Лукоморье»? В сборник, помимо текстов победителей и финалистов, попали также работы авторов, особо отмеченные жюри – Оли Маар, Виктора Новикова, Екатерины Васильевой, Ольги Медведевой и Алины Е.Жанры и тегиВолшебные сказки Детская проза Добрые истории Русские сказки Сказка Сказки Современные сказки Старые сказки на новый лад РедактироватьОтзывы3Смотреть все отзывыОставить отзывСначала популярныеSlana25
        марта 2023В сборнике собраны замечательные волшебные сказки, пересказанные по-новому,  разными авторами. Сказки оказались интересными, поучительными, душевными.21ОтветитьKat2sky25
        марта 2023Здорово перечитать родные сказки по-новому! Отличный проект с великолепным результатом! Очень рекомендую для душевного вечера!21ОтветитьЛеночка Ефимчук5
        мая 2023Очень люблю, когда старые добрые истории переписывают по-новому, с новой точки зрения. Потрясающий получился сборник! Читали с удовольствием! Некоторые рассказы хочется перечитывать снова и снова! В сборнике есть и поучительные сказки, и просто для души, и посмеяться чтобы, и самому пофантазировать. Советую к прочтению!11ОтветитьОставьте отзывОпубликоватьЦитаты1Смотреть все цитатыСнежа. Алель удивленно посмотрела на мальчика, который за это время стал совсем прозрачным, и вдруг заметила в его руке конец нити, несомненно той самой, из который был связан шарф, иК цитатеАннотация ЛитресЧитая в детстве сказки, каждый из нас погружался в мир фантазий и придумывал для полюбившихся героев новые приключения. И вот захватывающий сюжет уже мчится в неизведанные дали! Что было бы, не напои Иванушка Кощея водой? Как бы сложилась судьба Царевны-лягушки, не сожги муж ее волшебную кожу? И куда еще может привести вездесущий путеводный клубок?Сеть ресторанов «‎Теремок» и Литрес предложили молодым авторам пофантазировать на эту тему и объявили конкурс сказок на новый лад. Всего было подано около семисот заявок. В итоговый сборник «Современный Теремок» вошли работы лучших пятнадцати участников. Третье место в конкурсе заняла Оксана Чистовская и ее «Трус с богатырским сердцем», на втором оказалась «Правда о Сером Волке» Дианы Булатовой, первое – «Некрасивый мальчик» Натальи Есиной. Авторы фантазировали о том, чем бы занималась Баба Яга в современном мире, какую цену заплатил Кощей за свои богатства и власть, почему Колобок опасен. И что было бы, если бы в сказочном мире существовало собственное детективное бюро «Лукоморье»? В сборник, помимо текстов победителей и финалистов, попали также работы авторов, особо отмеченные жюри – Оли Маар, Виктора Новикова, Екатерины Васильевой, Ольги Медведевой и Алины Е.Смотреть оглавлениеЧитать онлайнОписание книги«Мы в „Теремке“ любим сказки. Это не только источник информации и житейской мудрости, но и способ открывать новые миры и возможности для детей и взрослых. Это также творчество, полное свежих идей и неожиданных поворотов. Поэтому мы решили стать соорганизаторами конкурса „Современный Теремок. Сказки на новый лад“, который провели вместе с крупнейшим сервисом электронных книг Литрес. Мы хотели поддержать талантливых авторов современных сказок, которые создают оригинальные произведения, а не просто пересказывают старые истории. Так же, как мы развиваем традиционную русскую кухню, делая ее актуальной и современной за счет авторских рецептов и необычных идей.». Михаил Гончаров, основатель и управляющий сети ресторанов «Теремок»Ники Ерш, Андрея Асковда и др. «Современный Теремок» — скачать книгу в fb2, txt, epub, pdf или читать онлайн. Оставляйте комментарии и отзывы, голосуйте за понравившиеся.Возрастное ограничение: 6+Дата выхода на Литрес: 24 марта 2023Последнее обновление: 2023Объем: 305 стр. 10 иллюстрацийПравообладатель: ЛитРес: СамиздатФормат скачивания: epub, fb2, fb3, ios.epub, mobi, pdf, txt, zipПожаловаться на книгуС этой книгой читаютНовогодние приключения ЖорикаНаталья Есина5,014Забытая ария белькантоНаталья Есина4,853Следы с того светаАртемий К.4,714Кот Мурмяу: детектив-неудачник. Загадочное преступление в городе псовАся Фуллер5,02ЭксклюзивДомовой на страже законаИрина Владимировна Соляная4,838ЭксклюзивШепот вселенной в ветвях АмиродисДиана Юнкевич и др.5,050ЭксклюзивPROдвижение писателяКатя Степанцева5,049Трус с богатырским сердцемОксана Чистовская4,36Путевой каменьАлександр Феликсович Каменецкий5,050Я – ведьмаЕлена Кузьменкова5,046Другие книги автораЭксклюзивТемная сторона. УченицаОльга Гусейнова и др.4,81373ЭксклюзивТемная сторона. МагОльга Гусейнова и др.4,71075ЭксклюзивА вот и я, дракон!Ника Ёрш4,9593Ядовитая невестаНика Ёрш4,8621Заноза для графаНика Ёрш4,94903Темная сторона. УченицаОльга Гусейнова и др.4,491Темная сторона. МагОльга Гусейнова и др.4,683Маленькая тайна мисс БишопНика Ёрш4,7845Разведи меня, если сможешьНика Ёрш4,81435Идеальная помощница РастифораНика Ёрш4,93688Заноза для графаНика Ёрш4,81115Подопечная для графаНика Ёрш4,6208Ядовитая невестаНика Ёрш4,9548Семь первых иллюзий. Академия ДьянхараНика Ёрш4,8504ЭксклюзивА вот и я, дракон!Ника Ёрш4,852Замуж за варвара, или Монашка на выданьеНика Ёрш4,41069Факультет форменных мерзавцевНика Ёрш4,62300Последняя Академия Элизабет ЧарльстонНика Ёрш и др.4,71958И на исходе дня…Ника Ёрш4,7720Факультет общих преображенийНика Ёрш4,5724Избранница Мастера рунНика Ёрш4,5153Отбор с осложнениямиНика Ёрш и др.4,7623Алхимия любвиНика Ёрш4,71068Дракон в ее телеНика Ёрш4,7525Fb2ZIP-архив 2.3 МБПодходит для смартфонов, планшетов на Android, электронных книг (кроме Kindle) и многих программTXTМожно открыть почти на любом устройствеTXTZIP-архив 198.2 КБМожно открыть на любом компьютереRTFZIP-архив 2.5 МБМожно открыть на любом компьютереPDF A4Открывается в программе Adobe ReaderPDF A6Оптимизирован и подойдет для смартфоновMobiПодходит для электронных книг Kindle и Android-приложенийEpubПодходит для устройств на iOS (iPhone, iPad, iMac) и большинства приложений для чтенияiOS.EpubИдеально подойдет для iPhone и iPadFb3Развитие формата FB2О компанииКонтактыВакансииСлужба поддержкиВозвратУчастие в исследованияхМобильные приложения© ООО «ЛитРес»Активировать купонПубличная офертаПолитика обработки персональных данныхСогласие на получение рассылкиРекомендательные технологииСотрудничествоИздательствамАвторамБиблиотекамПартнерамВебмастерамСтать автором ЛитресОзвучить книгуКорпоративная библиотекаЧто почитать?БестселлерыСкоро в продажеПопулярные авторыИнтервью с авторамиЛитрес в соц.сетяхПартнеры: