Говорит Москва
   
   
Новости
Палестино-израильский конфликт
СВО
Интервью
Программы и ведущие
Сетка вещания
Редакция
                                        
                                        сегодня
                                        
                                        02.00 – 04.00
                                    
Российская эстрада (16+)
Слушатьэфир
Смотретьэфир
Написать в эфир
Новости
Палестино-израильский конфликт
СВО
Интервью
Программы и ведущие
Сетка вещания
Редакция
Приложение
                                    
                                    сегодня
                                    
                                    02.00 – 04.00
                                
Российская эстрада (16+)
                                    
                                    04.00 – 08.00
                                
Родные песни (16+)
                                    
                                    08.00 – 09.00
                                
Виват история (16+) (повтор)
Вся сеткавещания
Слушатьэфир
Смотретьэфир
Главное за сутки
22:48 вчера 168 
0
Контрразведка ФРГ проверит утечку разговора военных об ударах по Крыму
Речь идёт о перехвате разговора немецких офицеров о возможном применении ракет Taurus по Крымскому мосту
Политика
В мире
В России
Военная операция России на Украине
21:12 вчера 299
0
Минюст РФ объявил иностранным агентом писателя Людмилу Улицкую
20:16 вчера 270
0
Сергей Лавров прокомментировал данные об обсуждении удара по Крыму офицерами ФРГ
19:36 вчера 241
0
Швейцария присоединилась к 13-му пакету антироссийских санкций ЕС
19:16 вчера 229
0
Нидерланды заключили соглашение о безопасности с Украиной сроком на 10 лет
19:00 вчера 240
0
В Польше задержан въехавший в толпу водитель
18:41 вчера 245
0
Вкладчикам QIWI Банка за два дня выплатили 880 млн рублей
18:12 вчера 387
0
Посольство РФ в Эстонии возобновило приём заявлений о выходе из гражданства
17:42 вчера 317
0
Канада ограничит косвенный импорт российских алмазов
Новости
23:53 вчера 226
0
Минздрав объявил о рекордно низком уровне младенческой смертности в РФ
Она достигла исторического минимума — 4,2 промилле.
Общество
Политика
В России
Медицина
23:27 вчера 247
0
В Москве арестовали двоих россиян по подозрению в госизмене
Общество
Политика
В России
22:58 вчера 297
0
Le Monde: Франция допустила возможность для спецназа пересекать границу с Украиной
В мире
Политика
Военная операция России на Украине
22:53 вчера 305
0
«Спартак» проведёт матч 20 тура РПЛ против «Факела» в «Лужниках»
Об этом сообщила пресс-служба Мир — Российской премьер-лиги.
Общество
Спорт
В России
Москва
22:28 вчера 329
0
ЕС разморозил около 2 млрд евро для Венгрии из своих фондов
В мире
Политика
Экономика
Общество
22:17 вчера 333
0
Джо Байден подписал краткосрочный бюджет для предотвращения шатдауна
В мире
Политика
Экономика
Общество
22:12 вчера 397
0
Фильм «Мастер и Маргарита» собрал в российском прокате больше 2 миллиардов рублей
Это третий проект с начала года, достигший подобного показателя.
Общество
В России
Культура
21:55 вчера 1215
0
В подмосковном Орехово-Зуеве электричка сбила трёх человек
Происшествия
Общество
Москва
21:50 вчера 376
0
Аналитики констатировали стагнацию цен на жильё в Москве и Подмосковье
Общество
Экономика
В России
Москва
21:44 вчера 354
0
В ООН отказались комментировать запись разговора офицеров ФРГ об атаке на Крым
В мире
Политика
Общество
21:41 вчера 306
0
Израиль отказался вести диалог по Газе до представления списка заложников ХАМАС
Палестино-израильский конфликт
Политика
Общество
21:25 вчера 419
0
В Санкт-Петербурге умер последний участник группы «Зоопарк» Валерий Кирилов
Он скончался в возрасте 61 года. Об этом сообщили в  сообществе «Ценители группы «Зоопарк».
Общество
В России
Культура
21:18 вчера 427
0
МАГАТЭ выразило обеспокоенность отключением ЗАЭС от запасной линии электроснабжения
Политика
Общество
Технологии
Украина
20:57 вчера 390
0
Южная Корея впервые за 30 лет изменит концепцию объединения с КНДР
В мире
Политика
Общество
20:52 вчера 396
0
Жителю Челябинской области дали 13 лет колонии за госизмену
Суд обязал его выплатить штраф в 200 тыс руб. и запретил администрировать сайты и каналы в интернете в течение трёх лет.
Общество
Политика
В России
Все новости
Интервью
15:00 Фев. 27, 2024
                
2598
                
0
Скотт Беннетт
политолог
Слабость Америки сейчас в том, что она не понимает Россию, это относится в том числе к военным Америки. Задача убеждать, а не проливать кровь, и добиваться тем самым своих целей. Но наиболее важный здесь аспект, элемент этого конструкта — это то, что ВПК зарабатывает на войне. 
15:00 Фев. 22, 2024
                
5742
                
0
Майя Ломидзе
Исполнительный директор Ассоциации туроператоров России
Несмотря на то, что направлений достаточно много, более 20 стран открыты, именно с целью туризма пятёрка лидеров не меняется. Меняются только места в этой пятёрке. Если мы говорим про лето, то, конечно, это Турция, и дальше с большим отрывом Египет, Арабские Эмираты, Таиланд.
15:00 Фев. 20, 2024
                
7221
                
0
Дмитрий Рогозин
член Комитета Совета Федерации по обороне и безопасности
Когда мы взяли Авдеевку, мы отодвинули фронт от Донецка, что крайне важно. И это означает, будем надеяться, что ствольная артиллерия по городу уже бить не будет. Но реактивная будет доставать, конечно. Но ствольная нет. С точки зрения того, чтобы жители Донецка как-то начали потихонечку ощущать большую безопасности, это крайне важный рубеж. 
15:00 Фев. 19, 2024
                
7855
                
0
Сергей Лисовский
Зампред комитета Государственной Думы по защите конкуренции
За пять лет проблемы, которые никто не решал, накопились и взорвались. Нельзя завезти 10 миллионов яиц из Армении, из Азербайджана или из Турции и понизить цену на яйцо. Это смешно при наших 46 миллиардах потребления. Это просто выглядит как издевательство. Для этого надо долгосрочные программы.
15:00 Фев. 13, 2024
                
11304
                
0
Владимир Семёнов
и.о. директора Института физики атмосферы им. А.М. Обухова РАН, заведующий лабораторией климатологии Института географии РАН
Что касается «барических качелей». Это больше красивое выражение для масс-медиа. Что значит «барические качели»? Когда приходит циклон, давление понижается где-то на 15-20 миллибар; антициклон — давление повышается на 10-15, 30 миллибар максимум. Можете подняться на холм 300-400 метров, и такой же будет перепад давления. 
15:00 Янв. 30, 2024
                
19706
                
0
Константин Затулин
первый заместитель председателя комитета  ГД  по делам СНГ, евразийской интеграции и связям с соотечественниками
Я просто приглашаю вас понимать, что основные усилия всё-таки за нами, и никто за нас нашу работу с Украиной не выполнит. Никто вместо нас Украину не разделит. Никто вместо нас не достигнет каких-то рубежей. Надеяться на то, что произойдёт какое-то чудо, — самое последнее дело в этом случае. 
15:00 Янв. 29, 2024
                
17894
                
0
Родион Мирошник
Посол по особым поручениям МИДа России
На Украине можно прекратить конфликт достаточно простым способом — если завтра туда перестанет поставляться вооружение и финансы. Украина полностью дотационная структура, полностью дотационное государственное образование, failed state (несостоявшееся государство).
Все интервью
«Моя правда»
14:31 вчера  
                    
322
                    
0
Войска НАТО на Украине и помощь Приднестровью
Видеоблог
12:54 Фев. 16, 2024  
                    
8735
                    
0
Владимир Путин встретился с Такером Карлсоном
Видеоблог
18:32 Фев. 8, 2024  
                    
12589
                    
0
Интервью Владимира Путина Такеру Карлсону и выборы президента РФ
Видеоблог
12:43 Фев. 2, 2024  
                    
16038
                    
0
Отставка Залужного, закон о мобилизации на Украине и Техас против США
Видеоблог
16:05 Янв. 26, 2024  
                    
20694
                    
0
Крушение Ил-76 с украинскими военнопленными на борту
Видеоблог
14:09 Янв. 19, 2024  
                    
25310
                    
0
НАТО готовится к войне с Россией
Видеоблог
15:05 Янв. 17, 2024  
                    
26769
                    
0
Эскалация на Ближнем Востоке. Где в этой схеме Украина
Видеоблог
17:19 Дек. 29, 2023  
                    
41324
                    
0
Россия взяла Марьинку. В этом месте Украина восемь лет строила крепость
Видеоблог
14:59 Дек. 22, 2023  
                    
46426
                    
0
Владимир Путин не отступит от своих целей. Тотальная ошибка Запада
Видеоблог
15:31 Дек. 15, 2023  
                    
51320
                    
0
Дефицит оружия у США и стран Европы
Видеоблог
Все посты
Связь с эфиром
СМС+7 (925) 88-88-948
Звонок+7 (495) 73-73-948
Telegramgovoritmskbot
Письмо[email protected]
Новости
Интервью
Программы и ведущие
Сетка вещания
Мобильное приложение
Мы в соцсетях
8 (495) 950-62-26
[email protected]
Реклама на радио
Города вещания
Наши слушатели
Все права защищены. 2014-2024 © «Говорит Москва»
Сетевое издание «ГОВОРИТМОСКВА.РУ/GOVORITMOSKVA.RU». Предназначено для лиц старше 16 лет. Свидетельство о регистрации СМИ Эл № 77-64961 от 04 марта 2016 года выдано Федеральной службой по надзору в сфере связи, информационных технологий и массовых коммуникаций (Роскомнадзор). Адрес: 123298, Москва, ул. 3-я Хорошевская, дом 12, пом. 22. Учредитель Общество с ограниченной ответственностью «РУ ФМ» (123298 Москва, ул. 3-я Хорошевская, дом 12, пом. 22). Доменное имя сайта GOVORITMOSKVA.RU. Территория распространения – Российская Федерация и зарубежные страны. Языки: русский и английский. Главный редактор Бабаян Роман Георгиевич. Email: [email protected]. Номер телефона: +7 (495) 950-62-26
*Экстремистские и террористические организации, запрещенные в Российской Федерации: «Правый сектор», «Украинская повстанческая армия» (УПА), «ИГИЛ», «Джабхат Фатх аш-Шам» (бывшая «Джабхат ан-Нусра», «Джебхат ан-Нусра»), Коалиция исламских группировок «Хайят Тахрир аш-Шам», Национал-Большевистская партия, «Аль-Каида», «УНА-УНСО», «Талибан», «Меджлис крымско-татарского народа», «Свидетели Иеговы», «Мизантропик Дивижн», «Братство» Корчинского, «Артподготовка», Религиозная организация «Управленческий центр Свидетелей Иеговы в России» и входящие в ее структуру местные религиозные организации.
Информация, размещенная на портале, а именно: текстовые материалы, элементы дизайна, логотипы, товарные знаки, фотографии, видео и аудио охраняются законодательством Российской Федерации и международными нормами права и не могут быть использованы без разрешения правообладателей. Согласно ст.ст. 1274,1275 ГК РФ, при любом использовании материалов, размещенных на портале, в том числе цитировании, активная гиперссылка на материал является обязательной. Мнение редакции может не совпадать с мнением отдельных авторов и колумнистов.
    Сообщение отправлено
play
pause
mute
unmute
max volume
02:01
-01:27
repeat
repeat off
Update Required
            To play the media you will need to either update your browser to a recent version or update your Flash plugin.