Искупление, Канаэ Минато – скачать книгу fb2, epub, pdf на ЛитРесКаталогНайтиОтложенныеКорзинаВойтиМои книгиПодписка за 0 ₽ПромокодНовинкиПопулярноеПодборкиАудиокнигиСамиздатЧерновикиПодкастыКомиксыЖурналСертификатыСтать авторомЕщёПопулярные авторыЛитрес ПодпискаЛитрес АбонементКорпоративная библиотекаЛитрес ЧтецИздать свою книгуМобильные приложенияЛегкое чтениеФэнтезиДетективыБоевики, остросюжетная литератураФантастикаЛюбовные романыВсе 12Серьезное чтениеСовременная прозаКлассическая литератураОб истории серьезноБиографии и мемуарыCтихи, поэзияВсе 6ИсторияПопулярно об историиКниги о путешествияхБиографии и мемуарыИсторические детективыИсторическая литератураВсе 12Бизнес-книгиЛичная эффективностьМенеджментО бизнесе популярноЗарубежная деловая литератураТайм-менеджментВсе 31Знания и навыкиСаморазвитие / личностный ростНаучно-популярная литератураУчебная и научная литератураБизнес-книгиИстории из жизниВсе 12Психология, мотивацияКниги по психологииСаморазвитие / личностный ростРелигия и духовная литератураБиографии и мемуарыИстории из жизниВсе 7Спорт, здоровье, красотаМедицина и здоровьеСпортСекс / секс-руководстваКрасотаХобби, досугЙогаКулинарияХобби / увлеченияИзобразительное искусствоРукоделие и ремеслаВсе 19Дом, дачаКулинарияХобби / увлеченияДомашнее хозяйствоРукоделие и ремеслаДомашние животныеВсе 16Детские книгиЗарубежные детские книгиСказкиКниги для детейКниги для дошкольниковКниги для подростковВсе 15РодителямВоспитание детейДетская психологияДетские книгиЗдоровье детейПублицистика и периодические изданияПублицистическая литератураПериодические изданияПодкастыСамиздатЧерновикиВсе 142 жанраКнигитриллерыКанаэ Минато📚 ИскуплениеСмотреть оглавлениеОтложитьОтметить прочитаннойПоделиться16+текстОбъем 212 страниц2012 год16+Читать фрагментИскупление за 359 ₽аудиокнигаДругие версии1 книгаХит продажИскуплениетекст10отзывов349 ₽Купить и скачатьДобавить в корзинуПодарите скидку 10%Посоветуйте эту книгу и получите 34,91 ₽ с покупки её другом.АвторКанаэ МинатоО книгеМИРОВОЙ БЕСТСЕЛЛЕР.
ПО РОМАНУ СНЯТ КУЛЬТОВЫЙ В ЯПОНИИ СЕРИАЛ.
Автор – признанный мастер стиля иямису, исследующего темные стороны человеческой души. Это одно из основных направлений в современном японском детективе.
Пятеро девочек-школьниц играли в волейбол рядом со школьным бассейном. К ним подошел мужчина и попросил помочь проверить вентиляцию в раздевалке. Он выбрал одну из девочек и увел ее, а остальные просто продолжили игру. Спохватившись, что подруги нет слишком долго, они пошли за ней. И с ужасом увидели ее мертвое тело…
Сколько девочек ни допрашивали, они никак не могли вспомнить лицо убийцы. Тогда мать погибшей собрала их вместе и обвинила в смерти дочери. Она сказала: «Я не прощу вас, пока вы не найдете убийцу. Если вы не сможете это сделать, найдите другой способ искупить свою вину, который я приму. Если вы не сделаете ни того, ни другого, говорю вам здесь и сейчас: я вам отомщу, каждой из вас».
И жизнь девочек на долгие годы превратилась в кошмар…
Этот роман бьет в самое сердце, заставляя всерьез задуматься об ответственности за поступки, которые мы совершили, – или, наоборот, не совершили, что оказалось еще хуже…
_______________________________________________________________
«Это японская Гиллиан Флинн…» – Los Angeles Times
«Напряженная психологическая драма… наполненная странными переплетениями случайного и закономерного, свободы воли и манипуляции, приземленного и причудливого». – Wall Street Journal
«Минато обнажает язвы, скрытые под безупречной кожей японского общества». – Publishers Weekly
«Как раз когда вы думаете, что знаете, к чему идет дело, Канаэ Минато поднимает очередной занавес, открывая еще одно лицо тайны». – Дженни Милчман
«Не обманывайтесь гипнотической красотой прозы Канаэ Минато. По мере того, как персонажи романа раскрывают свои секреты, обнажается темное сердце повествования. Безупречное, захватывающее чтение». – Хилари Дэвидсон
«Канаэ Минато – блестящая рассказчица». – Эмили Сент-Джон МанделЖанры и тегиДетективная драма Зарубежные детективы Национальный бестселлер Психологические детективы Психологические драмы Психологические триллеры Расследование убийств Современные детективы Триллеры Экранизированный бестселлер Японские детективы РедактироватьОтзывы10Смотреть все отзывыОставить отзывСначала популярныеЛина Д.25 февраляКнига очень похожа на сценарий фильма с закадровым голосом. Но продбирает до дрожи, несмотря на какую-то обрубленному фраз. Девочки так серьезно восприняли слова матери, потерявшей ребенка, что в конце тоже сами совершили серьезные действия. Я только не поняла, что в конце мать сделала с убийцей - я так поняла, что она пошла поговорить с ним и что, ну, не убила же ? Кто понял? Если бы она не молчала бы в своей юности , то не было бы столько недомолвок и поводом для мести, но тут явно у всех есть определение проблемы с психикой. Иначе ни один бы из людей не стал бы так поступать. Жаль только ее дочку, постарадавшую безвинно62Ответитьhman2669224 февраляДумаю это книга стоит того, чтоб потратить на неё своё время!Мне понравилось !Это книга учит людей быть внимательными с тем ,что происходит вокруг. А так же брать ответственность за своё легкомыслие.30ОтветитьZweRёnыSh ZauRёnыSh24 февраляhman26692 неужели так быстро прочёл?00Ответитьjulia.maslova24 февраляЭто просто потрясающе! Если вам нравится «Девятнадцать минут» Джоди Пиколт или драмы Селесты Инг и Лианы Мориарти, на вас произведёт глубокое впечатление эта квинтенсенция человеческой драмы. Особенно на моё впечатление от историй четырех девушек и матери жертвы повлияло построение и порядок «признаний». Постепенно мы погружается в судьбы каждой из девушек и начинаем открывать для себя трагедию каждой, трагедию семьи и японского общества, в котором сложно избавиться от навязанной вины и «травмы свидетеля». Наслоение фрагментов воспоминаний об убийстве подруги раз за разом приближает читателя к разгадке. Это очень круто! Рекомендую к прочтению!10ОтветитьSvetlana1296n2 Lentisheva29 февраляхорошая книга, заставляет задуматься над смыслом жизни, об отношениях между людьми, и верить в лучшее не смотря ни на что00Ответитьnik1028 февраляОстросюжетный роман о справедливости и жестокости, которая к сожалению распространяется и на детей. Местами морально тяжелая книга, но ее хочется читать дальше, ведь судьбы героинь буквально висят на волоске. Автор умеет заинтриговать и вывести на эмоции!00ОтветитьЕщё 10 отзывовОставьте отзывОпубликоватьОписание книгиМИРОВОЙ БЕСТСЕЛЛЕР.
ПО РОМАНУ СНЯТ КУЛЬТОВЫЙ В ЯПОНИИ СЕРИАЛ.
Автор – признанный мастер стиля иямису, исследующего темные стороны человеческой души. Это одно из основных направлений в современном японском детективе.
Пятеро девочек-школьниц играли в волейбол рядом со школьным бассейном. К ним подошел мужчина и попросил помочь проверить вентиляцию в раздевалке. Он выбрал одну из девочек и увел ее, а остальные просто продолжили игру. Спохватившись, что подруги нет слишком долго, они пошли за ней. И с ужасом увидели ее мертвое тело…
Сколько девочек ни допрашивали, они никак не могли вспомнить лицо убийцы. Тогда мать погибшей собрала их вместе и обвинила в смерти дочери. Она сказала: «Я не прощу вас, пока вы не найдете убийцу. Если вы не сможете это сделать, найдите другой способ искупить свою вину, который я приму. Если вы не сделаете ни того, ни другого, говорю вам здесь и сейчас: я вам отомщу, каждой из вас».
И жизнь девочек на долгие годы превратилась в кошмар…
Этот роман бьет в самое сердце, заставляя всерьез задуматься об ответственности за поступки, которые мы совершили, – или, наоборот, не совершили, что оказалось еще хуже…
_______________________________________________________________
«Это японская Гиллиан Флинн…» – Los Angeles Times
«Напряженная психологическая драма… наполненная странными переплетениями случайного и закономерного, свободы воли и манипуляции, приземленного и причудливого». – Wall Street Journal
«Минато обнажает язвы, скрытые под безупречной кожей японского общества». – Publishers Weekly
«Как раз когда вы думаете, что знаете, к чему идет дело, Канаэ Минато поднимает очередной занавес, открывая еще одно лицо тайны». – Дженни Милчман
«Не обманывайтесь гипнотической красотой прозы Канаэ Минато. По мере того, как персонажи романа раскрывают свои секреты, обнажается темное сердце повествования. Безупречное, захватывающее чтение». – Хилари Дэвидсон
«Канаэ Минато – блестящая рассказчица». – Эмили Сент-Джон МанделСмотреть оглавлениеЧитать онлайнКнига Канаэ Минато «Искупление» — скачать в fb2, txt, epub, pdf или читать онлайн. Оставляйте комментарии и отзывы, голосуйте за понравившиеся.Возрастное ограничение: 16+Дата выхода на Литрес: 24 февраля 2024Дата перевода: 2023Последнее обновление: 2012Объем: 212 стр. 4 иллюстрацииISBN: 978-5-04-196612-6Переводчик: Александра КривцоваИздатель: INSPIRIAПравообладатель: ЭксмоФормат скачивания: epub, fb2, fb3, ios.epub, mobi, pdf, txt, zipПожаловаться на книгуС этой книгой читают−20%Каменные человечкиЛлойд Деверо РичардсПредзаказ5,02НовинкаПод чужим солнцемФрида Шибек5,01НовинкаЭтикет темной комнатыРобин Роу5,02ЗатворникиКэти Хэйс3,419Ночь пяти псовЧхэ Ёнсин3,610НовинкаПлохие мужчиныДжули Коэн0Хит продажХрустальная пирамидаСодзи Симада4,414НовинкаКрасная гиенаВероника Льяка4,114−20%ДежавюЛора КейлиПредзаказ0НовинкаЧерные бабочкиМоди1,01Другие книги автораХит продажПризнанияКанаэ Минато4,9680ПризнанияКанаэ Минато4,9622Хит продажИскуплениеКанаэ Минато4,855ВиновенКанаэ Минато4,8650ВиновенКанаэ Минато4,8644НовинкаИскуплениеКанаэ Минато4,646Fb2ZIP-архив 1.1 МБПодходит для смартфонов, планшетов на Android, электронных книг (кроме Kindle) и многих программFb3Развитие формата FB2TXTМожно открыть почти на любом устройствеTXTZIP-архив 130.2 КБМожно открыть на любом компьютереRTFZIP-архив 1.2 МБМожно открыть на любом компьютереPDF A4Открывается в программе Adobe ReaderPDF A6Оптимизирован и подойдет для смартфоновMobiПодходит для электронных книг Kindle и Android-приложенийEpubПодходит для устройств на iOS (iPhone, iPad, iMac) и большинства приложений для чтенияiOS.EpubИдеально подойдет для iPhone и iPadО компанииКонтактыВакансииСлужба поддержкиВозвратУчастие в исследованияхМобильные приложения© ООО «ЛитРес»Активировать купонПубличная офертаПолитика обработки персональных данныхСогласие на получение рассылкиРекомендательные технологииСотрудничествоИздательствамАвторамБиблиотекамПартнерамВебмастерамСтать автором ЛитресОзвучить книгуКорпоративная библиотекаЧто почитать?БестселлерыСкоро в продажеПопулярные авторыИнтервью с авторамиЛитрес в соц.сетяхПартнеры: