Условия использованияRUУсловия использованияУсловия использования платного сервисаПравила пользования платными сервисамиУведомления от сообществ по сбору авторских отчисленийАвторские праваПравила сообществаУсловия использования
Обновленные Условия
Здесь приведено краткое описание того, что изменилось в новой версии Условий использования по сравнению с предыдущей. Мы надеемся, что эта сводка будет вам полезна, но все равно рекомендуем полностью изучить текст Условий.
Добро пожаловать на YouTube!
Этот раздел определяет отношения между вами и YouTube. В нем описан Сервис, указаны условия Соглашения и назван поставщик услуг.
Кто может пользоваться Сервисом?
Этот раздел содержит требования, которые касаются использования Сервиса, и определяет категории пользователей.
Использование Сервиса
Из этого раздела можно узнать о том, какие у вас есть права на использование Сервиса и какими условиями оно регулируется. В нем также объясняется, каким образом мы можем осуществлять изменения в Сервисе.
Ваш Контенти поведение
Информация в этом разделе касается пользователей, которые добавляют Контент. В частности, здесь определен объем прав, которые Вы предоставляете путем загрузки Контента,  а также содержится Ваше согласие не загружать материалы, которые могут нарушать права третьих лиц.
Временная блокировка и удаление  аккаунта
В этом разделе рассказывается о прекращении сотрудничества с YouTube.
Программное обеспечение в Сервисе
В этом разделе рассказывается о том, какие условия применяются к программному обеспечению (ПО) в Сервисе.
Другие условия юридического характера
В этом разделе описаны обязательства сторон, а также перечисляются аспекты, ответственность за которые мы не несем.
О настоящем Соглашении
В этом разделе приводится более подробная информация о вашем договоре с YouTube. В частности, рассказывается, каким образом мы можем вносить изменения в Условия, а также законодательство какой страны к ним применяется.
Условия использованияДата: 5 января 2022 г.УСЛОВИЯ ИСПОЛЬЗОВАНИЯ
Добро пожаловать на YouTube!
Введение
Благодарим Вас за использование платформы YouTube и связанных с ней продуктов, сервисов и функций (далее совместно именуемых “Сервис”). 
Сервис
Сервис – это платформа, на которой пользователи могут находить и смотреть видео и другой контент, публиковать собственные материалы, а также общаться между собой и делиться новостями и идеями. Авторам и рекламодателям платформа также предоставляет возможность показывать и распространять ролики и объявления. Подробная информация о наших продуктах и о том, как их использовать, представлена в Справочном центре YouTube. В нем, помимо прочего, есть сведения о приложении "YouTube Детям", Партнерской программе YouTube, а также платных подписках и платном контенте на YouTube. Кроме того, в Справочном центре можно узнать о том, как смотреть видео на разных устройствах, например, на телевизоре, игровой консоли или Google Home.
 
Поставщик услуг
Поставщиком услуг Сервиса является компания Google LLC (далее – YouTube или "мы"), деятельность которой осуществляется в соответствии с законодательством штата Делавэр. Компания зарегистрирована по адресу 1600 Amphitheatre Parkway, Mountain View, CA 94043. Также в данных условиях используется термин "Аффилированные лица" YouTube. Под ним подразумеваются компании группы Alphabet Inc.
Применимые условия
Использование Сервиса регулируется настоящими условиями, Принципами сообщества YouTube и требованиями, изложенными в разделе нашего Справочного центра Правила, безопасность и авторское право. Вместе все эти правила именуются “Соглашение”. Если Вы предоставляете рекламу, спонсорство или добавляете в Контент прямую рекламу или продакт-плейсмент, Ваши действия также регулируются Правилами для рекламодателей.
Просим Вас внимательно ознакомиться с Соглашением. Если Вы не понимаете или не принимаете любую из его частей, Вы не можете пользоваться Сервисом.
Кто может пользоваться Сервисом?
Возрастные ограничения
Сервисом могут пользоваться только лица, достигшие 13 лет, однако если разрешено родителем или опекуном, то дети любого возраста могут использовать Сервис или сервис “YouTube Детям” (если доступен).
Дети любого возраста могут пользоваться приложением "YouTube Детям" с разрешения родителя или законного опекуна. Это приложение доступно не во всех странах.
Разрешение родителя или опекуна
Если Вам меньше 18 лет, Вы не должны пользоваться Сервисом без согласия родителей или опекуна. Попросите их прочитать это Соглашение с Вами.
Если Вы являетесь родителем или опекуном пользователя младше 18 лет, то, разрешая ребенку пользоваться Сервисом, Вы обязуетесь соблюдать условия Соглашения и нести ответственность за действия, которые совершает в Сервисе Ваш ребенок. Найти информацию о ресурсах для родителей и об инструментах для управления аккаунтами детей на YouTube (в том числе информацию о том, как разрешить ребенку, не достигшему возраста 13 лет, использовать Сервис или сервис “YouTube Детям”) можно в нашем Справочном центре и на сайте приложения Family Link.
Компании
Если Вы пользуетесь Сервисом от имени юридического лица или индивидуального предпринимателя, то подтверждаете , что у Вас есть полномочия действовать от имени этого юридического лица или индивидуального предпринимателя и что это юридическое лицо или индивидуальный предприниматель принимает условия Соглашения.
Использование Сервиса
Контент Сервиса
К Контенту Сервиса относятся видео, аудио (например, музыка и другие звуки), графические материалы, фотографии, текст (например, комментарии и тексты видео или аудио), элементы брендинга (в том числе фирменные наименования, товарные знаки, знаки обслуживания и логотипы), интерактивные функции, программное обеспечение, показатели и другие материалы, предоставленные Вами, YouTube или третьими лицами (совместно именуемые “Контент”). Контент могут предоставлять и распространять в Сервисе наши пользователи, при этом  YouTube для такого Контента является поставщиком услуг хостинга. Ответственность за Контент несет загрузившее его в Сервис физическое или юридическое лицо. Если Вы обнаружите, что Контент не соответствует настоящему Соглашению, например нарушает Принципы сообщества или какой-либо закон, Вы можете сообщить нам об этом.
Аккаунты Google и каналы YouTube
Вы можете пользоваться некоторыми функциями Сервиса, например искать и просматривать Контент, без аккаунта Google. Однако для доступа к большему числу возможностей необходим аккаунт Google. Например, если Вы войдете в аккаунт Google, то сможете подписываться на каналы и создавать собственные, ставить к видео отметки "Мне понравилось" и выполнять другие действия. Инструкции по созданию аккаунта Google можно найти здесь.
Если Вы создадите канал YouTube, у Вас появится доступ к дополнительным возможностям Сервиса. Например, Вы сможете загружать видео, оставлять комментарии и создавать плейлисты. О том, как создать канал YouTube, написано в этой статье.
Чтобы обеспечить защиту аккаунта Google, никому не сообщайте свой пароль и не используйте его повторно в сторонних приложениях. О безопасности аккаунта Google и о том, что делать, если Ваш пароль или аккаунт был использован несанкционированно, написано в этой статье.
Ваша информация
Сведения о том, как мы собираем и обрабатываем Ваши персональные данные, а также обеспечиваем их безопасность при использовании Вами Сервиса, приведены в нашей Политике конфиденциальности. Кроме того, в Примечании о конфиденциальности YouTube Детям представлена дополнительная информация о том, какие меры по обеспечению конфиденциальности, принимаются в сервисе "YouTube Детям".
Ко всем аудио- и аудиовизуальным материалам, загружаемым в Сервис, применяются Условия обработки данных YouTube. Они не действуют только в тех случаях, когда Вы добавляете такой контент исключительно в личных целях. Подробнее…
Разрешения и ограничения
Вы можете осуществлять доступ к Сервису и пользоваться им при условии, что соблюдаете требования законодательства и настоящего Соглашения. Смотреть и слушать Контент разрешается только в личных, некоммерческих целях. Также Вам доступен показ YouTube видео через встраиваемый проигрыватель YouTube.
Для использования Сервиса необходимо соблюдать указанные ограничения. Запрещается делать следующее:
Просматривать, копировать, скачивать, распространять, передавать, транслировать, демонстрировать, продавать, лицензировать, изменять, преобразовывать или каким-либо образом использовать Контент или любую составляющую Сервиса, кроме указанных далее случаев. Для выполнения этих действий требуется следующее: а) разрешение правилами Сервиса; б) предварительное письменное разрешение от представителей YouTube и, если необходимо, соответствующих правообладателей; в) разрешение в соответствии с применимым законодательством.
Совершать (или пытаться совершить) следующие действия: обходить ограничения, выводить из строя, проводить мошеннические манипуляции или иным образом вмешиваться в работу Сервиса, включая функции, связанные с безопасностью, а также функции, которые: а) предотвращают или ограничивают использование или копирование любого Контента; б) налагают ограничения на использование Сервиса или Контента.
Пользоваться Сервисом с помощью автоматических средств, таких как боты, ботнеты и сборщики контента. Исключения: а) боты общедоступных поисковых сетей, работающие в соответствии с файлом robots.txt; б) наличие предварительного письменного разрешения YouTube; в) применимое законодательство, допускающее подобные действия.
Собирать любую информацию, которая может быть использована для идентификации личности, например имена пользователей или их лица. Совершать такие действия можно только с разрешения данного лица или в случаях, указанных в пункте 3.
Использовать Сервис для распространения нежелательных материалов рекламного или коммерческого характера и иных нежелательных, навязывающих что-либо материалов (спам).
Пользоваться услугами третьих лиц, чтобы искусственно увеличить количество просмотров, отметок "Мне понравилось", подписчиков и других статистических показателей каналов и видео, а также самостоятельно выполнять действия, мешающие точно измерить действительный интерес зрителей к контенту.
Беспочвенно обвинять других пользователей: отправлять ложные жалобы, отмечать контент как недопустимый, подавать жалобы на нарушение авторских прав, а также апелляции и возражения.
Проводить с помощью Сервиса конкурсы, которые не соответствуют Правилам и рекомендациям YouTube в отношении конкурсов.
Использовать Сервис для воспроизведения Контента в любых целях, кроме личных и некоммерческих. Например, публично демонстрировать видео или проигрывать музыку с помощью Сервиса.
Использовать Сервис а) для продажи любой рекламы, спонсорства  или рекламных акций, размещенных посредством Сервиса или с помощью Контента кроме случаев, указанных в Правилах для рекламодателей, таких как допускаемый продакт-плейсмент; б) для продажи рекламы, спонсорства или рекламных акций  на странице любого сайта или приложения, где содержится только Контент Сервиса, или где он является основным (например, продажа рекламы на странице, где видео YouTube являются единственным ценным контентом).
Сохранение прав
Любые права, не предоставленные Вам в явной форме настоящим Соглашением, остаются за компанией YouTube или соответствующими правообладателями. Таким образом, использование Сервиса, например, не дает Вам интеллектуальные права на Контент, к которому Вы осуществляете доступ (включая любые средства индивидуализации, использованные или отображаемые в  Сервисе.
Изменения, улучшения и обновления Сервиса
Мы постоянно работаем над улучшением нашей платформы. В рамках этого процесса мы можем вносить изменения в работу Сервиса или его отдельных частей, например добавлять или удалять функции и возможности, а также предоставлять новый цифровой контент и сервисы и прекращать поддержку существующих. Кроме того, мы можем вносить изменения в работу Сервиса и прекращать ее. Обновления могут быть направлены на улучшение функционирования или повышение безопасности платформы. Также нововведения внедряются для соответствия законодательству, предотвращения незаконных действий и защиты системы от злоумышленников. Эти изменения могут затрагивать всех пользователей, определенные группы пользователей и даже отдельные лица. Если для работы с Сервисом требуется установить программное обеспечение, например приложение "Творческая студия YouTube", вы можете разрешить его автоматическое обновление в настройках своего устройства. Оно будет выполняться при появлении новой функции или версии. Если мы внесем существенные изменения, отрицательно влияющие на использование вами Сервиса, то заблаговременно уведомим вас об этом. Исключение составляют ситуации, в которых требуется срочное пресечение нарушений, выполнение юридических требований или решение проблем с безопасностью или функциональностью. Мы также предоставим вам возможность экспортировать контент из вашего аккаунта Google с помощью Google Архиватора в соответствии с действующим законодательством и правилами.
Ваш Контент и поведение
Загрузка Контента
Если у Вас есть канал YouTube, Вы можете загружать Контент в Сервис. Вы можете использовать Ваш Контент для продвижения своего  творчества или занятия. Весь загруженный Вами Контент должен соответствовать Соглашению  и законодательству. Например, Ваш Контент не должен содержать интеллектуальную собственность третьих лиц,  если у Вас нет на то разрешения соответствующего лица  или других законных оснований. Вы несете юридическую ответственность за весь Контент, добавленный Вами на платформу. Мы можем проверить его с помощью автоматизированных технологий. Они используются, чтобы помочь обнаружить  распространение спама, вредоносного ПО, нелегальных материалов и предотвращать прочую противоправную деятельность.
Предоставляемые Вами права
Вы сохраняете все права на свой Контент. Однако Вы обязуетесь предоставить указанные ниже права YouTube и другим пользователям Сервиса.
Права, предоставляемые YouTube
Загружая Контент на платформу, Вы предоставляете YouTube неисключительную, передаваемую, безвозмездную лицензию на использование Вашего Контента  во всем мире с правом сублицензирования. YouTube получает в том числе право воспроизводить, распространять, изменять и демонстрировать Ваш Контент для развития, функционирования и улучшения Сервиса.
Права, предоставляемые другим пользователям
Вы предоставляете каждому пользователю Сервиса неисключительную, безвозмездную, действующую во всем мире лицензию на доступ к Вашему Контенту и его использование в пределах, допускаемых функционалом Сервиса (включая право на его воспроизведение, распространение, изменение, показ и демонстрацию).
Срок действия лицензии
Права на использование Вашего Контента действуют, пока он не удален как описано ниже.  После его удаления лицензии прекращаются, за исключением случаев, когда иное требуется  для работы Сервиса, использования Контента в соответствии с предоставленными до удаления разрешениями или требуется законом.  .  Если Вы удалите Контент, компания YouTube не обязана также удалять: а) копии, сохраненные пользователями для оффлайн-просмотра; б) копии, хранение которых обусловлено юридическими целями.
Право на монетизацию
Вы предоставляете YouTube право монетизировать Ваш Контент в Сервисе, в том числе показывать внутри Контента рекламу или взимать с пользователей плату за доступ к нему. Настоящее Соглашение не дает Вам права получать какие-либо выплаты. С 1 июня 2021 года любые платежи, которые Вы вправе получать от YouTube в соответствии с другими соглашениями между Вами и YouTube, в том числе доход от функции "Спонсорство", Суперчата и участия в Партнерской программе YouTube, будут считаться роялти. Если того потребует законодательство, Google будет удерживать налоги с подобных платежей.
Удаление Контента с Вашей стороны
Вы можете удалить свой Контент в любое время. Кроме того, перед удалением Контента вы можете сделать его копию. Обратите внимание, что Вы должны будете удалить Контент, если утратите права, необходимые в рамках настоящих Условий.
Удаление Контента со стороны YouTube
Если у нас появятся основания полагать, что ваш Контент: 1) нарушает условия настоящего Соглашения; или 2) может нанести вред платформе YouTube, ее пользователям или третьим лицам, то мы оставляем за собой право удалить Контент целиком или его отдельные фрагменты. В этом случае вы получите уведомление с объяснением причины удаления, за исключением ситуаций, когда это может: а) нарушить закон или распоряжение правоохранительных органов или наложить юридическую ответственность на YouTube или Аффилированных лиц; б) поставить под угрозу полноту функционирования Сервиса или ход расследования; в) навредить какому-либо пользователю, третьему лицу, YouTube или Аффилированным лицам. Подробнее о том, что делать, если ваше видео было удалено, рассказывается в Справочном центре.
Предупреждения о нарушении правил сообщества
На YouTube действует система предупреждений в отношении Контента, который нарушает наши правила сообщества. За каждое последующее нарушение мы выносим предупреждения, которые влекут за собой определенные ограничения. В том числе мы можем удалить канал YouTube без возможности восстановления. Узнать больше о том, как предупреждения могут отразиться на канале, можно из статьи Предупреждения о нарушении правил сообщества. Если вы считаете, что предупреждение было вынесено вам по ошибке, то можете подать апелляцию.
Если из-за предупреждения на вашем канале были отключены какие-либо функции, вы не можете пользоваться ими и на других ваших каналах. Если вы попытаетесь обойти ограничение, это будет считаться нарушением данного Соглашения. В таких случаях Google оставляет за собой право удалить ваш аккаунт Google и заблокировать доступ ко всем или некоторым функциям Сервиса.
Защита авторских прав
На странице Авторское право на YouTube можно найти полезную информацию о том, как защищать свои права на интеллектуальную собственность в Интернете. Если Вы считаете, что в Сервисе были нарушены Ваши авторские права,пожалуйста,  сообщите нам об этом.
Мы проверяем сообщения о предполагаемых нарушениях авторских прав и действуем в соответствии с описанными правилами. Из этого ресурса Вы также можете узнать о том, что делать, если Вы получили предупреждение о нарушении авторских прав. Помните о том, что при неоднократном нарушении авторских прав мы блокируем пользователю доступ к Сервису.
Временная блокировка и удаление аккаунта
Удаление аккаунта с Вашей стороны
Вы можете перестать пользоваться Сервисом в любой момент. В этом случае у Вас есть возможность предварительно скачать копию своих данных и затем удалить Сервис из своего аккаунта Google. Вся Ваша информация и канал YouTube будут удалены.
Блокировка и удаление аккаунта со стороны YouTube
YouTube оставляет за собой право временно или навсегда заблокировать ваш аккаунт Google, доступ к Сервису целиком или к его отдельным разделам, если: а) вы существенно или неоднократно нарушили это Соглашение; б) таких мер требует от нас закон или судебное решение; в) у нас есть основания полагать, что ваши действия могут повлечь за собой юридическую ответственность или нанести вред какому-либо пользователю, третьему лицу, YouTube или Аффилированным лицам.
Уведомление об удалении или блокировке
Вы получите уведомление с объяснением причины удаления или блокировки, за исключением ситуаций, когда это может: а) нарушить закон или распоряжение правоохранительных органов; б) поставить под угрозу ход расследования; в) подвергнуть риску полноту функционирования или безопасность Сервиса; г) навредить какому-либо пользователю, третьему лицу, YouTube или нашему Аффилированному лицу.
Последствия блокировки или удаления аккаунта
Даже если ваш аккаунт Google удален или доступ к Сервису через него ограничен, вы по-прежнему можете пользоваться некоторыми функциями, например смотреть видео, без авторизации. В этом случае сохраняются условия настоящего Соглашения. Если вы считаете, что ваш аккаунт был заблокирован или удален по ошибке, то можете подать апелляцию.
Программное обеспечение в Сервисе
Скачиваемое ПО
Если для работы с Сервисом требуется установить программное обеспечение, например приложение "Творческая студия YouTube", если не действуют дополнительные условия, предусматривающие предоставление лицензии, YouTube предоставляет Вам действующую во всем мире, безвозмездную, не подлежащую уступке, неисключительную лицензию  на использование этого ПО Вами лично в соответствии с настоящим Соглашением. Запрещается копировать, изменять, распространять, продавать или сдавать в аренду какие-либо элементы ПО, а также осуществлять обратную разработку и пытаться извлечь исходный код за исключением случаев, определенных законодательством, или при наличии письменного разрешения от YouTube.
ПО с открытым исходным кодом
Некоторые программы, необходимые при работе с Сервисом, распространяются на условиях свободной лицензии, которую мы делаем доступной Вам. Просим внимательно знакомиться с условиями таких лицензий, поскольку их некоторые положения могут иметь преимущественное значение перед настоящим документом.
Другие условия юридического характера
Гарантии
Предоставляя услуги Сервиса, мы действуем с должной заботой и профессиональной компетентностью.
Исключение гарантий
Условия настоящего Соглашения не затрагивают Ваши права, предусмотренные законодательством, которые не могут быть исключены или изменены в договорном порядке. Никакие положения настоящего соглашения не затрагивают те права, которыми Вы обладаете как потребитель. Если иное не указано в настоящем Соглашении и не требуется по закону, YouTube не дает никаких гарантий, заверений и обещаний в отношении Сервиса. В частности, мы не даем никаких гарантий, заверений и обещаний касательно Контента в Сервисе; конкретных функций и свойств Сервиса; а также его точности, надежности, доступности и соответствия Вашим потребностям. Кроме того, мы не гарантируем, что Контент, который Вы загрузили в Сервис, будет доступен и сохранен в нем.
Ограничение ответственности
Для всех пользователей: никакие положения данного Соглашения не исключают и не ограничивают ответственность сторон за смерть, физическую травму, мошенничество или умышленное искажение фактов, а также ответственность, которая не может быть исключена или ограничена в соответствии с законодательством.
В той степени, в которой это допускает применимое законодательство,  YouTube и Аффилированные лица не несут ответственности за следующее:
убытки, которые Вы понесли не в результате нарушения условий Соглашения со стороны YouTube или Аффилированных лиц;
Убытки, которые в момент заключения  Соглашения с YouTube не были разумно предвидимым последствием нарушения условий Соглашения со стороны YouTube или Аффилированных лиц;
Контент, размещенный любыми пользователями, или за их клеветнические, оскорбительные либо незаконные действия.
Для бизнес-пользователей: если Вы используете YouTube для целей продаж, поддержки своего бизнеса или в профессиональных целях, Вы считаетесь “Бизнес-пользователем”. В таком случае, в соответствии с действующим законодательством, к Вашему сотрудничеству с YouTube применяются следующие ограничения ответственности:
YouTube и Аффилированные лица не несут ответственности за упущенную выгоду, недополученный доход, потерю данных, упущенный шанс, потерю предполагаемых сбережений, а также косвенные, сопутствующие или штрафные убытки, независимо от того, были ли такие убытки предвидимиы или нет; и
Совокупная ответственность YouTube и Аффилированных лиц по любым требованиям,, связанным с использованием Сервиса, не может превышать большей из следующих величин: а) выплаченная Вам сумма Вашего дохода от использования YouTube за 12 месяцев, предшествующих  дате подачи претензии в письменном виде; б) 500 евро.
Ссылки на сторонние сайты
В Сервисе могут содержаться ссылки на сторонние веб-сайты и онлайн-сервисы, которые не принадлежат YouTube и не контролируются нами. YouTube не несет ответственности за такие сайты и онлайн-сервисы. Переходите по ссылкам на сторонние сайты и онлайн-сервисы с осторожностью. При переходе рекомендуем ознакомиться с их условиями использования и политикой конфиденциальности.
О настоящем Соглашении
Изменение Соглашения
Мы вправе вносить изменения в условия данного Соглашения, в том числе: 1) чтобы отразить обновления Сервиса, например когда мы добавляем новые продукты и функции или прекращаем поддержку старых; 2) по юридическим или нормативным причинам или из соображений безопасности; 3) чтобы предотвратить нарушения или ущерб.
Мы будем сообщать вам о существенных изменениях заранее и давать возможность предварительно изучить их, за исключением следующих случаев: 1) запуска нового продукта или функции; 2) неотложных ситуаций, например когда нам нужно предотвратить нарушение или отреагировать на требования закона. Если вы не согласны с новыми условиями, удалите свой Контент и прекратите использование Сервиса.
Продолжение действия Соглашения
Даже если Вы прекратите пользоваться Сервисом, для Вас не прекратится действие положений разделов "Другие Условия юридического характера" и "О настоящем Соглашении". Кроме того, в соответствии с условиями пункта "Срок действия лицензии", в некоторых случаях лицензии, полученные от Вас, также останутся в силе.
Исключение положений
Если выяснится, что какое-либо конкретное условие Соглашения не может быть приведено в исполнение, все остальные положения не будут затронуты и останутся в силе.
Уступка
YouTube может частично или полностью передать настоящее Соглашение Аффилированному лицу, а в случае продажи YouTube – третьей стороне.
Недопустимость отказа от прав
Если Вы нарушаете данные условия и мы не предпринимаем немедленных действий, это не должно рассматриваться в качестве официального отказа от прав  и не означает, что мы не намерены отстаивать свои права в будущем, в том числе предпринимать определенные действия.
Регулирующее законодательство
Соглашение и Ваши отношения с YouTube в рамках Соглашения регулируются в соответствии с английским правом. Для разрешения споров стороны могут обратиться в суды Англии и Уэльса.
Если согласно какому-либо императивномузакону Вашей страны разрешить спор в суде Англии или Уэльса и в соответствии с нормами английского права нельзя, можно передать дело на рассмотрение в местный суд и решить вопрос, руководствуясь местным законодательством.
Дата вступления в силу – 5 января 2022 г.. Перейти к предыдущей версии