Записки Ночного Ангела, Эдвард Скай – скачать книгу fb2, epub, pdf на ЛитРесКаталогНайтиОтложенныеКорзинаВойтиМои книгиПодписка за 0 ₽ПромокодНовинкиПопулярноеПодборкиАудиокнигиСамиздатЧерновикиПодкастыКомиксыЖурналСертификатыСтать авторомЕщёПопулярные авторыЛитрес ПодпискаЛитрес АбонементКорпоративная библиотекаЛитрес ЧтецИздать свою книгуМобильные приложенияЛегкое чтениеФэнтезиДетективыБоевики, остросюжетная литератураФантастикаЛюбовные романыВсе 12Серьезное чтениеСовременная прозаКлассическая литератураОб истории серьезноБиографии и мемуарыCтихи, поэзияВсе 6ИсторияПопулярно об историиКниги о путешествияхБиографии и мемуарыИсторические детективыИсторическая литератураВсе 12Бизнес-книгиЛичная эффективностьМенеджментО бизнесе популярноЗарубежная деловая литератураТайм-менеджментВсе 31Знания и навыкиСаморазвитие / личностный ростНаучно-популярная литератураУчебная и научная литератураБизнес-книгиИстории из жизниВсе 12Психология, мотивацияКниги по психологииСаморазвитие / личностный ростРелигия и духовная литератураБиографии и мемуарыИстории из жизниВсе 7Спорт, здоровье, красотаМедицина и здоровьеСпортСекс / секс-руководстваКрасотаХобби, досугЙогаКулинарияХобби / увлеченияИзобразительное искусствоРукоделие и ремеслаВсе 19Дом, дачаКулинарияХобби / увлеченияДомашнее хозяйствоРукоделие и ремеслаДомашние животныеВсе 16Детские книгиЗарубежные детские книгиСказкиКниги для детейКниги для дошкольниковКниги для подростковВсе 15РодителямВоспитание детейДетская психологияДетские книгиЗдоровье детейПублицистика и периодические изданияПублицистическая литератураПериодические изданияПодкастыСамиздатЧерновикиВсе 142 жанраКнигибиографии и мемуарыЭдвард Скай📚 Записки Ночного АнгелаСмотреть оглавлениеОтложитьОтметить прочитаннойПоделиться18+текстОбъем 370 страниц2021 год18+Читать фрагментЗаписки Ночного Ангела за 419 ₽аудиокнигаДругие версии1 книгаЭксклюзивЗаписки Ночного Ангелатекст4,836 оценок20отзывов1цитата490 ₽Купить и скачатьДобавить в корзинуПодарите скидку 10%Посоветуйте эту книгу и получите 49,01 ₽ с покупки её другом.АвторЭдвард СкайО книгеВидя объявления в интернете или на столбе у ближайшей остановки «Пропал человек», мы думаем: как я-то могу помочь? Ведь есть же МЧС или другие специальные службы. У них и оборудование, и амуниция, и бог весть что еще. Тем не менее именно волонтерские отряды делают огромную работу, когда нужно найти пропавшего. Ведь порой счет времени идет на минуты, а промедление подобно смерти. Так было в случае с Лизой Фомкиной. Тогда помощь не успела вовремя. Но эта трагедия стала отправной точкой в истории Добровольческого поисково-спасательного отряда «Лиза Алерт».К этой некоммерческой организации присоединяются добровольцы, простые граждане, неравнодушные к чужой беде. Работают здесь и профессионалы, к примеру, вертолетный поисково-спасательный отряд «Ангел». О том, как проходят операции и что чувствуют их участники, рассказывает в своей книге «Записки Ночного Ангела» Эдвард Скай. Автор всегда мечтал о небе, но понял, что гражданская авиация – это слишком скучно. Он выбрал для себя другую роль, полную опасностей и адреналина. Вести вертолет сквозь ночь, сквозь непроглядный туман и тяжелый дым лесных пожаров. И все лишь с одной целью – отыскать и спасти того, кто так в этом нуждается. В книге собраны реальные истории, с которыми столкнулись в своей практике «Ангел» и «Лиза Алерт». Искренние, полные переживаний рассказы о том, как оставаться человеком, несмотря ни на что.Жанры и тегиАвиация и авиатехника Биографии и мемуары Волонтеры Публицистика Самиздат Спасение человека Только на ЛитРес Увлечения и хобби Хобби / увлечения РедактироватьОтзывы20Смотреть все отзывыОставить отзывСначала популярныеСергей Герасимов15
        августа 2021Книга очень классная. Спасибо автору и за книгу и за то дело которое автор выполняет. Сам работаю спасателем в МЧС и также бываю часто на поисках, и у меня тоже есть свое кладбище… С отрядом Лиза Алерт сотрудничаем постоянно, спасибо за помощь в поисках, некоторые возможности, нам спасателям, к сожалению не доступны, а отряду Лиза Алерт доступны. Конечно в Краснодарском крае, а в особенности в Сочи работа отряда Лиза Алерт не так налажена как в Москве.210ОтветитьЮлия15
        апреля 2021Прочитала, что называется, взахлёб.Написано живым языком, разговорными фразами, поэтому читается очень легко и быстро.Мне кажется, даже для человека, который «не в теме», книга будет интересной, увлекательной и познавательной. Автор описывает события, в которых непосредственно принимал участие сам, он это прожил, он это пропустил через себя, свое сердце, свою душу. И это цепляет очень сильно.Спасибо! Получилось потрясающе!171Ответитьbrok-7515
        апреля 2021Читал взахлёб. Получил огромное удовольствие. Да ещё и в стилистике «Chickenhawk» Robert Mason! Надеюсь продолжение книги будет. Спасибо!110Ответитьtimderfliege17
        мая 2021Отличная книга, которая прекрасно объясняет в чем суть работы организации Лиза-Алерт, но не скучным, официальным образом, а через реальные, очень талантливо рассказанные истории.101ОтветитьUser26520-414
        мая 2021На одном дыхании! Героизм в современности. Большое уважение к автору и всем героям. Хочется пожелать множество ресурсов! Если вдруг… теперь знаю что как!81ОтветитьЕщё 10 отзывовОставьте отзывОпубликоватьЦитаты1Смотреть все цитатыКажется, именно в такие минуты ты кожей чувствуешь, как неумолимо несется время. Где тот пацан, который поднимал по утрам весь пионерский лагерь своим горном? Где он… Это же я… Вот он я. Ведь только вчера это было. Только вчера… А сегодня я уже не с горном, а с мешками под глазами и сединой в бороде. Господи ты боже мой! В бороде! У меня борода! Одуреть можно.К цитатеАннотация ЛитресВидя объявления в интернете или на столбе у ближайшей остановки «Пропал человек», мы думаем: как я-то могу помочь? Ведь есть же МЧС или другие специальные службы. У них и оборудование, и амуниция, и бог весть что еще. Тем не менее именно волонтерские отряды делают огромную работу, когда нужно найти пропавшего. Ведь порой счет времени идет на минуты, а промедление подобно смерти. Так было в случае с Лизой Фомкиной. Тогда помощь не успела вовремя. Но эта трагедия стала отправной точкой в истории Добровольческого поисково-спасательного отряда «Лиза Алерт».К этой некоммерческой организации присоединяются добровольцы, простые граждане, неравнодушные к чужой беде. Работают здесь и профессионалы, к примеру, вертолетный поисково-спасательный отряд «Ангел». О том, как проходят операции и что чувствуют их участники, рассказывает в своей книге «Записки Ночного Ангела» Эдвард Скай. Автор всегда мечтал о небе, но понял, что гражданская авиация – это слишком скучно. Он выбрал для себя другую роль, полную опасностей и адреналина. Вести вертолет сквозь ночь, сквозь непроглядный туман и тяжелый дым лесных пожаров. И все лишь с одной целью – отыскать и спасти того, кто так в этом нуждается. В книге собраны реальные истории, с которыми столкнулись в своей практике «Ангел» и «Лиза Алерт». Искренние, полные переживаний рассказы о том, как оставаться человеком, несмотря ни на что.Смотреть оглавлениеЧитать онлайнОписание книгиРеальные люди. Реальные поисково-спасательные операции. Реальные истории о работе Добровольческого поисково-спасательного отряда «Лиза Алерт» и Вертолетного поисково-спасательного отряда «Ангел».Содержит нецензурную брань.Книга Эдварда Ская «Записки Ночного Ангела» — скачать в fb2, txt, epub, pdf или читать онлайн. Оставляйте комментарии и отзывы, голосуйте за понравившиеся.Возрастное ограничение: 18+Дата выхода на Литрес: 13 апреля 2021Последнее обновление: 2021Объем: 370 стр. 1 иллюстрацияISBN: 978-5-532-97371-8Правообладатель: АвторФормат скачивания: epub, fb2, fb3, ios.epub, mobi, pdf, txt, zipПожаловаться на книгуС этой книгой читаютЗаписано на костях. Тайны, оставшиеся после насСью Блэк4,519К величайшим вершинам. Как я столкнулась с опасностью на К2, обрела смирение и поднялась на гору истиныВанесса О'Брайен4,34Найден, жив! Записки о поисковом отряде «Лиза Алерт»Ксения Кнорре Дмитриева4,8247Звезды МУРа. Золотой век московского сыскаЭрик Котляр4,84Закованные во льдах. История о крупнейшей международной экспедиции на Северный полюс на корабле «Поларштерн»Маркус Рекс5,02Сто двадцать третья, на выезд!Ольга Найт4,54ЭксклюзивТальков. Последнее интервьюДмитрий Хахалев5,07ЭксклюзивЗаписки Ночного АнгелаЭдвард Скай4,928На электричках до Байкала. Колоритные попутчики, душевные разговоры и 5000 км за 13 днейАлексей Абанин4,389Шизофрения. История психиатра, оказавшегося на грани безумияЕлена Старенкова4,333Другие книги автораЭксклюзивЗаписки Ночного АнгелаЭдвард Скай4,7113ЭксклюзивЗаписки Ночного АнгелаЭдвард Скай4,928Fb2ZIP-архив 3.4 МБПодходит для смартфонов, планшетов на Android, электронных книг (кроме Kindle) и многих программTXTМожно открыть почти на любом устройствеTXTZIP-архив 237.8 КБМожно открыть на любом компьютереRTFZIP-архив 3.7 МБМожно открыть на любом компьютереPDF A4Открывается в программе Adobe ReaderPDF A6Оптимизирован и подойдет для смартфоновMobiПодходит для электронных книг Kindle и Android-приложенийEpubПодходит для устройств на iOS (iPhone, iPad, iMac) и большинства приложений для чтенияiOS.EpubИдеально подойдет для iPhone и iPadFb3Развитие формата FB2О компанииКонтактыВакансииСлужба поддержкиВозвратУчастие в исследованияхМобильные приложения© ООО «ЛитРес»Активировать купонПубличная офертаПолитика обработки персональных данныхСогласие на получение рассылкиРекомендательные технологииСотрудничествоИздательствамАвторамБиблиотекамПартнерамВебмастерамСтать автором ЛитресОзвучить книгуКорпоративная библиотекаЧто почитать?БестселлерыСкоро в продажеПопулярные авторыИнтервью с авторамиЛитрес в соц.сетяхПартнеры: