Первые шаги и работа с сервисом Литрес: Самиздат
Блог
Статус
Услуги
Войти
Зарегистрироваться
☰
Зарегистрироваться
Войти
Услуги
Премия 2023
Блог
Помощь
Обратная связь
Первые шаги по работе с сервисом
        Самые популярные вопросы о сервисе
      
Первые шаги по работе с сервисом
Чтобы начать публиковать свои книги на Литрес и в книжной сети партнеров, нужно зарегистрироваться на сайте Литрес: Самиздат. Публикация книг на Литрес бесплатна для всех авторов, мы принимаем к публикации любые книги любых жанров и объема (если содержание не противоречит законодательству РФ).
            Регистрация на сайте
          
Чтобы стать автором Литрес: СамиздатНажмите на кнопку «Стать автором» на странице selfpub.ru или на кнопку «Зарегистрироваться» в правом верхнем углу на любой другой странице сайта. Укажите свою электронную почту и придумайте пароль. С помощью этих данных вы сможете в дальнейшем заходить в Личный кабинет автора. Пожалуйста, при регистрации указывайте свою электронную почту. Если вы утратите доступ к своей почте, мы не сможем восстановить вам логин на другую почту.На указанный email придет письмо со ссылкой для активации учетной записи автора. Перейдите по ссылке из письма, чтобы начать работу с Литрес: Самиздат.После этого можно приступать к работе с сервисом и загрузить свою первую книгу.Я не получил письмо со ссылкой активацииЕсли вы не получили письмо со ссылкой активации учетной записи, для начала проверьте, не попало ли письмо в папку «Спам».Если письмо в «Спаме», сначала отметьте в почтовом клиенте, что это «Не спам» и добавьте адрес в адресную книгу. Затем перейдите во «Входящие», найдите письмо с темой «Добро пожаловать в ЛитРес: Самиздат» и перейдите по активационной ссылке.Если письма нет и в «Спаме», напишите в службу поддержки с просьбой помочь активировать аккаунт.Я забыл пароль. Что делать?Если вы забыли пароль либо хотите его изменить, вам нужно сделать следующее:Зайдите на selfpub.ru и нажмите «Войти» в правом верхнем углу. Рядом с полем «Ваш пароль» нажмите на ссылку «Забыли?»;Введите e-mail, с которым вы регистрировались, и нажмите «Восстановить пароль». Вам будет отправлено письмо со ссылкой для смены пароля.Перейдите по ссылке и введите новый пароль. Нажмите «Готово», чтобы новый пароль перезаписался в системе.Теперь вы можете войти в Литрес: Самиздат по новому паролю.
            Загрузка первой книги в Литрес Самиздат
          
Чтобы опубликовать свою первую книгу в Литрес и на партнерских площадках, вам нужно загрузить файл с текстом.Войдите в Личный кабинет, раздел «Мои книги» и нажмите на кнопку «Создать книгу» или «Создать черновик», в зависимости от того, будете ли вы публиковать законченную книгу или публиковать ее по мере написания.Подробнее о загрузке книги. Напоминаем, что минимальный объем текста вашего произведения — 4000 знаков с пробелами.Подробнее о загрузке Черновика
            Рекомендации по подготовке файлов
          
В Литрес: Самиздат можно загрузить файлы в форматах DOCX или FB2.Минимальное количество знаков — 4000 с пробелами. Максимальный размер файла книги —70 MB.У электронной книги есть свои особенности. На разных устройствах текст электронной версии будет отображаться по-разному. Это зависит от размера экрана и настроек, которые выбрал читатель. Поэтому для электронной книги неважно, какой шрифт и размер вы выбрали. О том, как правильно оформить книгу, чтобы загрузить на сервис без ошибок, читайте в блоге Издательских сервисов ЛитресКак правильно оформить файл книги? Кроме того, текст книги должен соответствовать требованиям законодательства Российской Федерации и нашим критериям качества.
            В тексте книги должны отсутствовать
          
Автор и название произведения (исключение: сборник, где названия рассказов оформляются так же, как главы названия глав в романе);Содержание;Колонтитулы;Нумерация страниц;Разрывы страниц;Аннотация — она заполняется отдельно и отображается тоже отдельно;Выходные данные печатного издания — ISBN, УДК, ББК, формат печатного издания и т.п.;Изображения с гиперссылками;Специальные символы, такие как ˊˈʻʼˋʹːˌСмайлы.Данные об авторе, название книги, аннотация заполняются в специальных полях мастера публикации после загрузки файла в Литрес: Самиздат. Как заполнить сведения о книгеВыходные данные печатного издания (такие, как ISBN, УДК, ББК, авторский знак) заполняются автоматически при публикации печатной версии книги.
            Требования к иллюстрациям в книге
          
Для иллюстраций используйте графические файлы в формате PNG или JPG в цветовом пространстве RGB.Важно учитывать, что обрабатывать изображения (в том числе изменять размер, выполнять поворот или обрезку) следует в стороннем графическом редакторе до помещения их в файл word, иначе в электронную книгу попадут оригинальные файлы изображений. Рекомендуем сохранять изображения в разрешении 72 пикселя/дюйм, с максимальным размером длины 1024 пикселя, ширины — 900 (или 1024). Обтекание изображение должно быть "в тексте". Максимальный размер изображения (площадь) — 2 млн пикселей.ВНИМАНИЕ! Обложку книги в текстовый файл вставлять НЕ НУЖНО. Загрузить свою обложку для книги вы сможете после загрузки файла в мастере публикации. Подробнее в разделе «Как загрузить обложку для книги».ВНИМАНИЕ! Иллюстрации в печатных книгах — только черно-белые. Если иллюстрации превышают 10 см по ширине и 15 см по высоте, то они автоматически будут уменьшены под размер страницы. Внимательно проверяйте перед печатью подписи к иллюстрациям, чтобы они не "съехали" на другую страницу (для этого между иллюстрацией и подписью не должно быть пустых строк).Читайте в блоге Издательских сервисов Литрес: Где найти иллюстрации для своей книги?
            Реклама в книге
          
В книгах, размещаемых на платформе Литрес: Самиздат, не должно быть коммерческой рекламы.Это значит, что в текст книги нельзя добавлять:— рекламные листовки, проспекты, скидочные купоны и прочий визуал;— коммерческие интеграции, рекламные статьи, призывы к покупкам;— адреса ваших и чужих коммерческих сайтов: онлайн-магазинов, агрегаторов услуг и непосредственно предприятий, которые их предоставляют;— банковские реквизиты и просьбы/требования финансовой помощи;— QR-коды и кликабельные ссылки на ваши социальные сети.Если вы пишете книгу о своем деле — делитесь теорией и практикой, лайфхаками и находками, Самиздат не запрещает упоминать название вашей компании/мастерской/предприятия, но просит следить за тем, чтобы полезное повествование не превращалось в рекламный буклет.На обложке книги и в аннотации нельзя размещать адреса сайтов и аккаунтов в соцсетях.При этом вы можете оставлять свои контакты в книгах:— некликабельные ссылки на личные соцсети;— кликабельные ссылки на вашу следующую книгу на Литрес;— кликабельную ссылку на вашу страничку автора в магазине Литрес;— адреса своих творческих некоммерческих сайтов.Эту информацию мы рекомендуем размещать в конце книги, например в разделе «Об авторе».Это правило действует только на ссылки, которые не нарушают законодательство РФ и наши правила.
            Профиль автора в Литрес Самиздат
          
Издательская платформа Литрес Самиздат позволяет независимым авторам выставлять свои книги как для бесплатного прочтения, так и продавать и получать роялти (авторское вознаграждение) с каждого купленного экземпляра. Чтобы выставлять свои книги на продажу в Литрес и на сайтах партнеров, необходимо заполнить и подтвердить персональные данные автора.Это можно сделать в разделе «Профиль».Проверка профиля необходима для подтверждения согласия автора с условиями договора-оферты, а также для выплат авторского вознаграждения.Если вы не хотите продавать свои книги, а хотите распространять их бесплатно, вы можете не подтверждать профиль.Как подтвердить профиль на Литрес Самиздат?Войдите в Личный кабинет, используя адрес электронной почты и пароль, указанные при регистрации.Перейдите в раздел «Профиль». Для этого нажмите на ваш электронный адрес в верхнем меню справа, и в выпадающем меню выберите «Профиль».Впишите ваши настоящие имя, фамилию, отчество и дату рождения в блок «Ваши данные». Необходимо указать реальные данные. Эти сведения будут храниться в нашей базе, но читатели их не увидят. Если вы пишете под псевдонимомСделайте фотографию, на которой вы держите в руках удостоверение личности. Фотография должна быть сделана так, чтобы четко было видно ваше лицо и основной разворот удостоверения личности (с фотографией) целиком, чтобы мы могли сличить введённые вами данные с фото. Пожалуйста, не затирайте и не убирайте никакие поля. Мы не храним ваши фотографии и паспортные данные, сразу после проверки профиля данные удаляются.Граждане РФ могут использовать для подтверждения профиля только паспорт гражданина РФ.Загрузите фотографию или скан первой страницы документа, удостоверяющего личность, в соответствующее поле.ВНИМАНИЕ: На загруженных фотографиях должны быть четко видны данные, внесенные в блоки «Ваши данные» и «Документ, удостоверяющий личность». Если необходимая информация находится на другой странице документа, загрузите фотографию или скан дополнительной страницы.Отметьте, что подтверждаете ознакомление с Политикой сервиса в отношении использования персональных данных, и нажмите «Отправить на проверку».Сколько раз надо подтверждать профильПодтверждение профиля осуществляется один раз, в дальнейшем подтверждать данные не понадобится.Это безопасно? Кто увидит данные?Данные ваших документов увидит только модератор, который проверит соответствие введенных данных предоставленным копиям документов. Сразу после проверки мы удалим данные ваших документов, так как заботимся о вашей безопасности.Как узнать, что профиль прошел проверку?По итогам проверки вы получите письмо, что профиль подтвержден или в отправленных вами данных есть несоответствие.Если вы получили письмо с темой «Ваш профиль отклонен», скорее всего, вы неверно ввели данные при заполнении анкеты. Чтобы внести исправления, снова зайдите в раздел «Профиль» и ознакомьтесь с комментариями модераторов. Исправьте данные в соответствии с комментариями и снова отправьте профиль на проверку.Можно ли не подтверждать профиль?Вы можете не делать фото с паспортом и не подтверждать профиль, но в таком случае вы не сможете продавать свои книги, а сможете только распространять их на Литрес и на партнерских площадках бесплатно.С какого возраста можно публиковать произведения?Авторам не достигшим возраста 14 лет, мы не можем предложить услуги по размещению книг. Авторам, которым исполнилось 14 лет, но они еще не достигли совершеннолетия, мы готовы предложить размещение книги для читателей бесплатно.Если вы планируете бесплатную публикацию книги для читателей, то профиль оформлять не нужно.
            Я пишу под псевдонимом. Как мне подтвердить профиль?
          
Если вы хотите опубликовать книгу под псевдонимом, вам все равно необходимо указать в профиле ваши настоящие данные (как в паспорте).Эту информацию не увидят читатели, она нужна только для проверки вашей личности, чтобы мы могли впоследствии выплачивать авторское вознаграждение (роялти).Псевдоним вы сможете указать, когда будете заполнять сведения о книге.
            Страница автора Литрес. Как заполнить?
          
У каждого автора, опубликовавшего книгу, есть страница в Литрес. Там собраны все книги и аудиокниги, информация об авторе, отзывы читателей и т. д. Вот как она выглядитЧтобы заполнить страницу автора, нужно отправить в поддержку support@selfpub.ru следующие данные:Краткую «биографию». Кто вы, в каких жанрах пишите? Помните, что эта информация должна быть интересна читателю. Будьте лаконичны. Можно также указать участие в форумах, премиях, сборниках, литературных журналах и проч;Нельзя размещать любые ссылки на сторонние ресурсы;Вашу фотографию. ОБРАТИТЕ ВНИМАНИЕ: это должно быть фото хорошего качества, без «перегруженного» заднего фона. Формат фото: квадрат (проверьте по соотношению сторон, например, 100x100, 200×200, 300×300) из которого можно сделать круглую аватарку (лицо должно быть в центре фото, по краям свободное пространство);Ссылку на страницу автора Литрес.Через некоторое время информация на странице автора обновится.
У нас также спрашивают:
            Публикация электронной книги
          
            Публикация печатной книги
          
            Бесплатные черновики
          
            Публикация Черновика
          
            Публикация готовой аудиокниги
          
            Возможные ошибки и способы их исправления
          
            Создание аудиокниги
          
            Условия публикации и типы лицензий
          
            Цена книги и роялти
          
            Скидки на книгу
          
            Статистика и выплаты вознаграждения
          
            Ответы на комментарии читателей к вашей книге
          
            Печать тиража вашей книги
          
            Заказ корректуры текста вашей книги
          
            Требования законодательства Российской Федерации
          
            Проблемы с работой сайта?
          
            Реферальная программа для авторов
          
      Не нашли ответ? Пожалуйста, напишите в службу поддержки по адресу
      support@selfpub.ru.
    
Мы в социальных сетях:
                8 (800) 333 27 37
              
Ежедневно с 10:00 до 22:00 по мск.
                Что такое Литрес: Самиздат
              
О сервисе
О премии
Блог
Наши партнеры
Поддержка
Контакты
Регистрация для авторов
Вход в личный кабинет
База знаний
Первые шаги и работа с сервисом
Публикация электронной книги
Публикация печатной книги
Публикация черновика
Документы
Лицензионный договор-оферта
Договор оказания услуг
Политика конфиденциальности